"Dealership Name","First Name","Last Name",Address,"Apartment #",City,Province/State,"Postal Code/Zip","Home Phone","Work Phone",Year,Make,Model,"Purchase Date","Trade In Value"
"Bill Howich Chrysler (#174)",N/A,"ALBERNI CHRYSLER LTD.","2611 PORT ALBERNI HWY",,"PORT ALBERNI",BC,"V9Y 8P2",,2507235331,2005,FORD,RANGER,"12/22/2010 12:00:00 AM"
"Bill Howich Chrysler (#174)",ANDREW,PLAUNT,"904  SOUTH ALDER STREET",,"CAMPBELL RIVER",BC,"V9W 1Z5",2509235508,,1994,DODGE,DAKOTA,"11/08/2010 12:00:00 AM"
"Bill Howich Chrysler (#174)",ARTUR,LODEWIJK,"BOX 413, 745-1ST. STREET",,SOINTULA,BC,"V0N 3E0",,,1994,FORD,RANGER,"10/12/2010 12:00:00 AM"
"Bill Howich Chrysler (#174)",STEPHEN,BERNS,"277 CAROLYN ROAD",,"CAMPBELL RIVER",BC,"V9W 3M2",2502028817,2507531214,2007,DODGE,DAKOTA,"01/09/2014 12:00:00 AM"
"Bill Howich Chrysler (#174)",BRUCE,OAKFORD,"730 WESTMERE ROAD",,"CAMPBELL RIVER",BC,"V9W 3Z7",2502879816,,1996,FORD,RANGER,"11/20/2010 12:00:00 AM"
"Bill Howich Chrysler (#174)",N/A,"CAMPBELL RIVER HONDA","2773 ISLAND HIGHWAY",,"CAMPBELL RIVER",BC,"V9W 2H4",2502860641,2502860641,2007,HONDA,RIDGELINE,"01/12/2010 12:00:00 AM"
"Bill Howich Chrysler (#174)",N/A,"CAMPBELL RIVER HONDA","2773 ISLAND HIGHWAY",,"CAMPBELL RIVER",BC,"V9W 2H4",2502860641,2502860641,2007,HONDA,RIDGELINE,"10/07/2010 12:00:00 AM"
"Bill Howich Chrysler (#174)",N/A,"CAMPBELL RIVER HONDA","2773 ISLAND HIGHWAY",,"CAMPBELL RIVER",BC,"V9W 2H4",2502860641,2502860641,2007,FORD,RANGER,"01/30/2012 12:00:00 AM"
"Bill Howich Chrysler (#174)",CAMERON,LOUGHEED,"4227 GLENDINNING DR",,"CAMPBELL RIVER",BC,"V9W 6G5",2508300061,,2001,DODGE,DAKOTA,"03/21/2013 12:00:00 AM"
"Bill Howich Chrysler (#174)",CARLIN,HOWDEN,"75 NEWCASTLE ROAD",,NANAIMO,BC,,,,2000,DODGE,DAKOTA,"06/05/2011 12:00:00 AM"
"Bill Howich Chrysler (#174)","DANIEL (PAT)",CAREW,"940A WATSON CRESCENT",,"CAMPBELL RIVER",BC,"V9W 5N4",2509143060,,2007,CHEVROLET,COLORADO,"03/07/2014 12:00:00 AM"
"Bill Howich Chrysler (#174)",CATHY,CHICKITE,"BOX 241, #33-500 MUCHLAT DRIVE",,"GOLD RIVER",BC,VOP1G0,2502837142,,2004,DODGE,DAKOTA,"05/21/2011 12:00:00 AM"
"Bill Howich Chrysler (#174)",CHARLES,LOWES,"BOX 87, 1487 HYACYNTHE BAY ROA",,"HERIOT BAY",B.C.,"V0P 1H0",2502853790,,2003,DODGE,DAKOTA,"03/03/2010 12:00:00 AM"
"Bill Howich Chrysler (#174)",CHARLES,WILLIAMS,"586 REBECCA PLACE",,"CAMPBELL RIVER",BC,"V9W 8C5",2509266634,2502043005,2007,DODGE,DAKOTA,"12/24/2011 12:00:00 AM"
"Bill Howich Chrysler (#174)",DANIEL,COOPER,"BOX 820, 17-1877 MCNEILL ROAD",,"PORT MCNEILL",BC,"V0N 2R0",2509563604,,2007,TOYOTA,TACOMA,"09/18/2010 12:00:00 AM"
"Bill Howich Chrysler (#174)",COREY,LAVERDURE,"727 MCPHEDRAN ROAD SOUTH",,"CAMPBELL RIVER",BC,"V9H 1P8",2502868089,2502877778,2007,CHEVROLET,AVALANCHE,"04/18/2012 12:00:00 AM"
"Bill Howich Chrysler (#174)","DONALD (DUFF)",CORNELL,"BOX 205, 1284 BARTHOWLAMEW ROA",,"MANSONS LANDING",BC,"V0P 1K0",2509356470,,2006,CHEVROLET,AVALANCHE,"01/22/2014 12:00:00 AM"
"Bill Howich Chrysler (#174)",COURTNEY,QUIN,"620 ASH STREET",,"CAMPBELL RIVER",BC,"V9W 1E9",2508501556,,2006,GMC,CANYON,"08/23/2013 12:00:00 AM"
"Bill Howich Chrysler (#174)",DALE,JONES,"620 NIMPKISH DR",,"CAMPBELL RIVER",BC,"V0P 1G0",2502832229,,2008,FORD,RANGER,"10/01/2012 12:00:00 AM"
"Bill Howich Chrysler (#174)",ANDREW,KERR,"BOX 287, 649 DOGWOOD AVENUE",,"GOLD RIVER",B.C.,"V0P 1G0",2502837726,2502832012,2002,DODGE,DAKOTA,"10/06/2012 12:00:00 AM"
"Bill Howich Chrysler (#174)",DAVID,SUMMERS,"BOX 5069, #3 TSITIKA  CRESCENT",,WOSS,BC,"V0N 3P0",2502812275,2509620598,2007,DODGE,DAKOTA,"12/23/2011 12:00:00 AM"
"Bill Howich Chrysler (#174)",DAVID,WESTFIELD,"2509 DOLLY VARDEN ROAD",,"CAMPBELL RIVER",BC,"V9W 4W5",2502860116,,2010,FORD,RANGER,"02/18/2013 12:00:00 AM"
"Bill Howich Chrysler (#174)",DENNIS,BERNTSON,"316 SOUTH MCLEAN STREET",,"CAMPBELL RIVER",B.C.,"V9W 2L8",2502860244,2502860744,2008,DODGE,DAKOTA,"04/10/2010 12:00:00 AM"
"Bill Howich Chrysler (#174)",DENNIS,WADDELL,"15 GWYN STREET",,KITIMAT,BC,"V8C 1C8",2506322392,,2006,DODGE,DAKOTA,"05/08/2010 12:00:00 AM"
"Bill Howich Chrysler (#174)",DIANE,TRERICE,"881 BANK STREET",,VICTORIA,BC,"V8S 4A5",2502022697,,1998,DODGE,DAKOTA,"03/31/2010 12:00:00 AM"
"Bill Howich Chrysler (#174)",DONALD,PATERSON,"BOX 345, 605 WALKEM ROAD",,LADYSMITH,BC,"V9G 1A3",2502452263,,2008,DODGE,DAKOTA,"09/23/2010 12:00:00 AM"
"Bill Howich Chrysler (#174)",DONALD,WILLIE,"1539 BEACH ROAD",,"PORT MCNEILL",BC,"V0N 2R0",,,2006,DODGE,DAKOTA,"12/14/2010 12:00:00 AM"
"Bill Howich Chrysler (#174)",CHAD,WAUGH,"23 ENGLES ROAD",,"CAMPBELL RIVER",BC,"V9H 1J7",2509236083,2502865774,2003,TOYOTA,TACOMA,"03/09/2011 12:00:00 AM"
"Bill Howich Chrysler (#174)",DWAYNE,WESTFALL,"880 PINECREST RD",,"CAMPBELL RIVER",BC,"V9W 3P3",2861263,,2008,FORD,RANGER,"10/26/2012 12:00:00 AM"
"Bill Howich Chrysler (#174)",DWAYNE,HARRIS,"4803 LEWIS STREET",,"CAMPBELL RIVER",BC,"V9H 1C4",,,2003,FORD,RANGER,"07/08/2013 12:00:00 AM"
"Bill Howich Chrysler (#174)",BILL,BLANEY,"1245 BUTE CRESCENT",,"CAMPBELL RIVER",BC,"V9W 1G5",2509236914,,2006,DODGE,DAKOTA,"10/25/2010 12:00:00 AM"
"Bill Howich Chrysler (#174)",ELOY,FIGUEROA,"296 S. MCCARTHY",,"CAMPBELL RIVER",BC,"V9W 2R2",2502863072,,2007,DODGE,DAKOTA,"07/19/2013 12:00:00 AM"
"Bill Howich Chrysler (#174)",ERIC,WILLNER,"BOX 310",,WASHAGO,ONTARIO,"L0K 2B0",7056896070,,2007,FORD,RANGER,"12/08/2010 12:00:00 AM"
"Bill Howich Chrysler (#174)",KENNETH,FLETCHER,"#12-2055 GALERNO ROAD",,"CAMPBELL RIVER",BC,"V9W 6Z1",2509237749,6132595207,2009,FORD,RANGER,"11/30/2011 12:00:00 AM"
"Bill Howich Chrysler (#174)",N/A,,"5400 DUNCAN BAY ROAD",,"CAMPBELL RIVER",BC,"V9W 1N6",,2502878354,1991,FORD,RANGER,"07/31/2013 12:00:00 AM"
"Bill Howich Chrysler (#174)",FREDERICK,BELLERBY,"S16 C10 BOX 1, 895 ISLAND HWY",,SAYWARD,BC,"V0P 1R0",2502823270,,2006,CHEVROLET,COLORADO,"09/20/2012 12:00:00 AM"
"Bill Howich Chrysler (#174)",GARY,KROOK,"BOX 255, 1495 WEST ROAD",,"QUADRA ISLAND",BC,"V0P 1H0",2502853756,2502866007,2004,DODGE,DAKOTA,"09/08/2010 12:00:00 AM"
"Bill Howich Chrysler (#174)",GARY,MCLEAN,"660 EVERGREEN RD",,"CAMPBELL RIVER",BC,"V9W 3R8",,,1994,GMC,SONOMA,"11/12/2013 12:00:00 AM"
"Bill Howich Chrysler (#174)",GERALD,BARKMAN,"250 S DOGWOOD STREET",,"CAMPBELL RIVER",BC,"V9W 6Y7",,,2010,FORD,RANGER,"03/24/2012 12:00:00 AM"
"Bill Howich Chrysler (#174)",GIUSEPPE,FORNARI,"279 THULIN STREET",,"CAMPBELL RIVER",BC,"V9W 2J9",,,2012,GMC,CANYON,"08/23/2013 12:00:00 AM"
"Bill Howich Chrysler (#174)",ANNE,GLENDALE,"BOX 521, 38 WHE LA LA U ROAD",,"ALERT BAY",BC,"V0N 1A0",2509745781,,2005,DODGE,DAKOTA,"09/10/2013 12:00:00 AM"
"Bill Howich Chrysler (#174)",GREGORY,CORMACK,"4322 BARCLAY ROAD",,"CAMPBELL RIVER",BC,"V9W 4Y8",2502879700,,2007,FORD,RANGER,"03/30/2012 12:00:00 AM"
"Bill Howich Chrysler (#174)",GWEN,ALSOP,"BOX 183, 2001 BROUGHTON BLVD",,"PORT MCNEILL",BC,"V0N 2R0",2509560001,,2005,TOYOTA,TUNDRA,"07/21/2012 12:00:00 AM"
"Bill Howich Chrysler (#174)",HENRY,JENSEN,"210 FINCH ROAD",,"CAMPBELL RIVER",BC,"V9H 1K6",2508304001,,1996,DODGE,DAKOTA,"07/06/2013 12:00:00 AM"
"Bill Howich Chrysler (#174)",HENRY,JENSEN,"210 FINCH ROAD",,"CAMPBELL RIVER",BC,"V9H 1K6",2508304001,,1998,DODGE,DAKOTA,"04/26/2013 12:00:00 AM"
"Bill Howich Chrysler (#174)",JAMES,MEHNKE,"BOX 188, 501 MACMILLAN DRIVE",,SAYWARD,BC,"V0P 1R0",2502823760,,2002,GMC,SONOMA,"11/21/2009 12:00:00 AM"
"Bill Howich Chrysler (#174)",JAMES,PARKER,"BOX 18, 1 MAIN ROAD",,"SQUIRREL COVE",BC,"V0P 1T0",,,2003,DODGE,DAKOTA,"11/29/2011 12:00:00 AM"
"Bill Howich Chrysler (#174)",MIRANDA,HANUSE,"4080 TRACEY STREET",,VICTORIA,BC,"V8X 2L2",2505325079,8883677460,2007,FORD,RANGER,"01/11/2010 12:00:00 AM"
"Bill Howich Chrysler (#174)",JOHN,DUNN,"970 HEMLOCK ST",,"CAMPBELL RIVER",BC,"V9W 5H5",2508301126,,2006,NISSAN,TITAN,"08/11/2010 12:00:00 AM"
"Bill Howich Chrysler (#174)",JOHN,HAMMOND,"132 ENGLES ROAD",,"CAMPBELL RIVER",BC,"V9H 1J8",2509237378,,2007,DODGE,DAKOTA,"03/12/2011 12:00:00 AM"
"Bill Howich Chrysler (#174)",JOHN,FITTON,"2951 MUIR ROAD",,COURTENAY,BC,"V9N 6A2",2508979066,,2002,DODGE,DAKOTA,"11/03/2011 12:00:00 AM"
"Bill Howich Chrysler (#174)",JOHN,DUNCAN,"1720 15TH AVENUE",,"CAMPBELL RIVER",BC,"V9W 4J6",2502874060,,2007,DODGE,DAKOTA,"10/29/2013 12:00:00 AM"
"Bill Howich Chrysler (#174)",KEITH,MCAVANY,"BOX 748, GROUSE ISLAND",,"QUATHIASKI COVE",BC,"V0P 1N0",2502622971,,1994,FORD,RANGER,"09/15/2010 12:00:00 AM"
"Bill Howich Chrysler (#174)",KENNY,BRANDT,"#69-2520 QUINSAM ROAD",,"CAMPBELL RIVER",BC,"V9W 4N4",2502868086,,2006,DODGE,DAKOTA,"06/30/2012 12:00:00 AM"
"Bill Howich Chrysler (#174)",KIM,WRIGHT,"4370 DISCOVERY DRIVE",,"CAMPBELL RIVER",BC,"V9W 4X8",2509237473,2502878080,1994,DODGE,DAKOTA,"04/29/2013 12:00:00 AM"
"Bill Howich Chrysler (#174)",HELMUT,KIRCHNER,"2200 WOODBURN RD",,"CAMPBELL RIVER",BC,"V9W 7A7",7783464885,,2002,FORD,RANGER,"01/21/2014 12:00:00 AM"
"Bill Howich Chrysler (#174)",KERRY,LEECH,"#2-605 ROCKLAND ROAD",,"CAMPBELL RIVER",BC,"V9W 7X1",,,2006,DODGE,DAKOTA,"12/28/2013 12:00:00 AM"
"Bill Howich Chrysler (#174)",LEIGH,BARTEL,"61 DOGWOOD S  DOGWOOD STREE",,"CAMPBELL RIVER",BC,"V9W 2X5",2509143545,,2008,TOYOTA,TACOMA,"09/13/2013 12:00:00 AM"
"Bill Howich Chrysler (#174)",LINDA,RENZ,"BOX 155 , 571 MCLEOD ROAD",,"UNION BAY",BC,"V0R 3B0",2503351022,,1996,DODGE,DAKOTA,"07/06/2013 12:00:00 AM"
"Bill Howich Chrysler (#174)",LORNE,LEHEUP,"1522 LARCHBERRY WAY RR5",,GIBSONS,B.C.,"V0N 1V5",6048868876,,2005,DODGE,DAKOTA,"08/26/2011 12:00:00 AM"
"Bill Howich Chrysler (#174)",GRAHAM,MACKENZIE,"BOX  11,  394 SAWMILL ROAD",,WHALETOWN,BC,"V0P 1Z0",2509350115,,2004,DODGE,DAKOTA,"03/25/2014 12:00:00 AM"
"Bill Howich Chrysler (#174)",MATTIAS,MORRISON,"#A-999 MERECROFT ROAD",,"CAMPBELL RIVER",BC,"V9W 6B2",2502877373,,2006,NISSAN,FRONTIER,"04/03/2014 12:00:00 AM"
"Bill Howich Chrysler (#174)",N/A,"N.D.R. VENTURES LTD.","#1-1925 KIRSCHNER ROAD",,KELOWNA,BC,"V1Y 4N7",,2508606540,2007,TOYOTA,TUNDRA,"02/26/2011 12:00:00 AM"
"Bill Howich Chrysler (#174)",N/A,"N.V.H. CONTRACTING LTD.","BOX 565 STN A, 8450 MCIVOR RD",,"CAMPBELL RIVER",BC,"V9H 5T9",2508300677,2509260676,2008,TOYOTA,TUNDRA,"10/14/2011 12:00:00 AM"
"Bill Howich Chrysler (#174)",N/A,"NANAIMO HONDA","2535 BOWEN ROAD",,NANAIMO,BC,"V9T 3L2",2507583361,,2008,HONDA,RIDGELINE,"11/13/2010 12:00:00 AM"
"Bill Howich Chrysler (#174)",N/A,"NANAIMO TOYOTA LTD.","2555 BOWEN ROAD",,NANAIMO,BC,"V9T 3L2",8772951367,,2012,TOYOTA,TUNDRA,"07/08/2013 12:00:00 AM"
"Bill Howich Chrysler (#174)",NORMAN,GEORGE,"BOX 284 , TSAXANA RESERVE",,"GOLD RIVER",B.C.,"V0P 1G0",2502839028,,1995,DODGE,DAKOTA,"06/26/2010 12:00:00 AM"
"Bill Howich Chrysler (#174)",CHRISTINA,NYMAN,"2733 BRADFORD DRIVE",,"CAMPBELL RIVER",BC,"V9W 0A3",2509231067,,2005,GMC,CANYON,"04/12/2014 12:00:00 AM"
"Bill Howich Chrysler (#174)",PATRICK,DECQUE,"2152 GREYSTONE PLACE",,"CAMPBELL RIVER",BC,"V9W 7Y5",2509231064,0000000000,2002,FORD,RANGER,"03/17/2012 12:00:00 AM"
"Bill Howich Chrysler (#174)",PAUL,COPE,"1149 PRINCE RUPERT BOULEVARD",,"PRINCE RUPERT",BC,"V8J 2Y8",,,2000,TOYOTA,TUNDRA,"09/28/2010 12:00:00 AM"
"Bill Howich Chrysler (#174)",PAUL,BRAWN,"6516 HEADQUARTERS ROAD",,COURTENAY,BC,"V9J 1N1",2507610333,,2008,FORD,RANGER,"10/26/2010 12:00:00 AM"
"Bill Howich Chrysler (#174)",RANDALL,THOMPSON,"#1030 - 999 WEST HASTINGS",,Vancouver,BC,"V6C 2W2",,6046858299,2001,DODGE,DAKOTA,"02/23/2013 12:00:00 AM"
"Bill Howich Chrysler (#174)",RAYMOND,SHIELDS,"1841-19TH. AVENUE",,"CAMPBELL RIVER",BC,"V9W 4M6",2502864224,,2002,DODGE,DAKOTA,"10/06/2012 12:00:00 AM"
"Bill Howich Chrysler (#174)",RONALD,JOHNSTON,"BOX 1003,465 CHAMISS PLACE",,"GOLD RIVER",B.C.,VOP1GO,2502832960,2502832221,2007,DODGE,DAKOTA,"06/18/2011 12:00:00 AM"
"Bill Howich Chrysler (#174)",RONALD,TREBLE,"2111 EAST STYLES CRESCENT",,REGINA,SASKATCHEWAN,"S4V 0P8",3067890435,3065856254,2007,FORD,RANGER,"12/05/2011 12:00:00 AM"
"Bill Howich Chrysler (#174)",RON,TUCK,"#71-2700 WOODBURN",,"CAMPBELL RIVER",BC,,2508301619,,1990,FORD,RANGER,"12/19/2011 12:00:00 AM"
"Bill Howich Chrysler (#174)",RONALD,JOHANSEN,"1142 GALERNO ROAD",,"CAMPBELL RIVER",BC,"V9W 1J4",2509236886,,2005,DODGE,DAKOTA,"09/10/2013 12:00:00 AM"
"Bill Howich Chrysler (#174)",ROY,BIANCO,"RR#1 , S14,BOX 2",,SAYWARD,BC,"V0P 1R0",2502823625,,2004,DODGE,DAKOTA,"05/07/2010 12:00:00 AM"
"Bill Howich Chrysler (#174)",SALLY,MAXWELL,"183 STRATHCONA WAY",,"CAMPBELL RIVER",BC,"V9H 0B1",2509238103,7784200200,1998,DODGE,DAKOTA,"09/07/2011 12:00:00 AM"
"Bill Howich Chrysler (#174)",SALLY,MAXWELL,"183 STRATHCONA WAY",,"CAMPBELL RIVER",BC,"V9H 0B1",2509238103,7784200200,1998,DODGE,DAKOTA,"04/26/2013 12:00:00 AM"
"Bill Howich Chrysler (#174)",SAMUEL,"MARCHECO CRESPO","BOX 223 923 THUNDER ROAD",,"MANSON LANDING",BC,"V0P 1K0",2509358513,,2008,FORD,RANGER,"02/18/2012 12:00:00 AM"
"Bill Howich Chrysler (#174)",SANDRA,OSTWALD,"657 WARDEN",,"CAMPBELL RIVER",BC,"V9W 3Y4",2508959130,,2004,DODGE,DAKOTA,"07/02/2011 12:00:00 AM"
"Bill Howich Chrysler (#174)",SCOTT,WOOD,"203-345 DOGWOOD",,"CAMPBELL RIVER",B.C.,"V9W 1V2",2509231212,,2007,FORD,RANGER,"08/10/2010 12:00:00 AM"
"Bill Howich Chrysler (#174)",STANLEY,PERRY,"2325 NORTHWEST ROAD",,"DENMAN ISLAND",BC,"V0R 1T0",2503352249,,2007,GMC,CANYON,"02/11/2010 12:00:00 AM"
"Bill Howich Chrysler (#174)",STANLEY,JOUGHIN,"937 FAIRWAY DRIVE",,"NORTH VANCOUVER",BC,"V7G 1Z5",6049294680,,2010,NISSAN,FRONTIER,"08/22/2013 12:00:00 AM"
"Bill Howich Chrysler (#174)",STEPHEN,SIVILS,"BOX 20, LOT 7 BOLD POINT RD",,"QUATHIASKI COVE",BC,"V0P 1N0",2502853085,,2000,DODGE,DAKOTA,"05/11/2012 12:00:00 AM"
"Bill Howich Chrysler (#174)",STUART,JAFFE,"5810 180 STREET",,SURREY,BC,"V3S 4L1",7082461659,,2001,DODGE,DAKOTA,"01/22/2011 12:00:00 AM"
"Bill Howich Chrysler (#174)",TABITHA,GAUDET,"7667 ISLAND HWY",,"BLACK CREEK",BC,"V9J 1G4",2503378084,,2006,CHEVROLET,COLORADO,"03/02/2013 12:00:00 AM"
"Bill Howich Chrysler (#174)",TAMMY,CHAMBERS,"1620 COMOX AVENUE",,COMOX,BC,"V9M 2V3",2503392878,,2002,CHEVROLET,AVALANCHE,"09/17/2013 12:00:00 AM"
"Bill Howich Chrysler (#174)",TAMMY,CHAMBERS,"1620 COMOX AVENUE",,COMOX,BC,"V9M 2V3",2503392878,,2002,CHEVROLET,AVALANCHE,"09/17/2013 12:00:00 AM"
"Bill Howich Chrysler (#174)",THOMAS,JOYCE,"1652 MEADOWBROOK DRIVE",,"CAMPBELL RIVER",BC,"V9W 7E7",2509239696,2506502172,2002,GMC,SONOMA,"12/17/2012 12:00:00 AM"
"Bill Howich Chrysler (#174)",TOMMY,RUFUS,"BOX 1891, 228 TSULQUATE VILLAG",,"PORT HARDY",BC,"V0N 2P0",2509499683,,2002,DODGE,DAKOTA,"10/06/2010 12:00:00 AM"
"Bill Howich Chrysler (#174)",DANIEL,TURNER,"231 SIMS AVE",,VICTORIA,BC,"V8Z 1K4",7786782142,,2006,TOYOTA,TACOMA,"02/15/2014 12:00:00 AM"
"Bill Howich Chrysler (#174)",SALLY,BENTON,"369 PARKWAY ROAD",,"CAMPBELL RIVER",BC,"V9W 5K3",2509234978,,2003,DODGE,DAKOTA,"06/22/2010 12:00:00 AM"
"Bill Howich Chrysler (#174)",TYLER,KROOT,"3610 DAKOTA DRIVE",,"CAMPBELL RIVER",BC,"V9W 6S9",,2502877494,2008,GMC,CANYON,"02/25/2011 12:00:00 AM"
"Bill Howich Chrysler (#174)",ULYSSES,CASTRO,"5184 GOLDEN STREET",,"PORT ALBERNI",B.C.,"V9Y 7J2",7784214916,,2004,CHEVROLET,AVALANCHE,"06/04/2011 12:00:00 AM"
"Bill Howich Chrysler (#174)",ARCHIE,VINCENT,"290 KYUQUOT ROAD",,KYUQUOT,BC,"V0P 1J0",2503325237,,1999,DODGE,DAKOTA,"11/23/2013 12:00:00 AM"
"Bill Howich Chrysler (#174)",WANDA,ROBERTSON,"BOX 50, 1525 WHALETOWN ROAD",,"CORTEZ ISLAND",BC,"V0P 1T0",2509350221,,1999,DODGE,DAKOTA,"11/28/2012 12:00:00 AM"
"Bill Howich Chrysler (#174)",GEORGE,WHITE,"PO BOX 177 13 FREDA ROAD",,TAHSIS,BC,"V0P 1X0",2509346675,,2006,DODGE,DAKOTA,"03/12/2014 12:00:00 AM"
"Bill Howich Chrysler (#174)",WILLI,WAGNER,"3212 LOCKWELL ROAD",,COURTENAY,BC,"V9N 9P4",2503343080,,2003,DODGE,DAKOTA,"10/29/2010 12:00:00 AM"
"Bill Howich Chrysler (#174)","WILLIAM (BILL)",GARTON,"894 SOUTH ISLAND HIGHWAY","APT 201","CAMPBELL RIVER",BC,"V9W 1A8",2509237155,,2007,DODGE,DAKOTA,"03/08/2011 12:00:00 AM"
"Bill Howich Chrysler (#174)",WILLIAM,EMERY,"#10-1120 EVERGREEN ROAD",,"CAMPBELL RIVER",BC,"V9W 3R9",,,2000,FORD,RANGER,"03/26/2012 12:00:00 AM"
"Bill Howich Chrysler (#174)",DONALD,WILLIE,"GENERAL DELIVERY",,"KINGCOME INLET",BC,"V0N 2B0",,,2006,DODGE,DAKOTA,"12/20/2013 12:00:00 AM"
"Bill Howich Chrysler (#174)",JENNIFER,COMEU,"601 CHRISTOPHER",,"CAMPBELL RIVER",BC,"V9W 6A4",2502866655,,1998,DODGE,DAKOTA,"02/23/2011 12:00:00 AM"
"Bill Howich Chrysler (#174)",MARTIN,DEAN,"281 THULIN STREET",,"CAMPBELL RIVER",BC,"V9W 2K6",2508509595,,2000,DODGE,DAKOTA,"03/03/2011 12:00:00 AM"
"Bill Howich Chrysler (#174)",MARILYN,KLASSEN,"288 NIM NIM PLACE",,COURTENAY,BC,"V9N 8A5",2503380083,,2001,DODGE,DAKOTA,"11/19/2011 12:00:00 AM"
"Bill Howich Chrysler (#174)",MARIA,NEWFIELD,"BOX 215, 320 ANACLA VILLAGE",,BAMFIELD,BC,"V0R 1B0",2507281290,,2006,CHEVROLET,AVALANCHE,"05/03/2013 12:00:00 AM"
"Bill Howich Chrysler (#174)",MARK,CAIRNEY,"5980A CHERRY CREEK RD",,"PORT ALBERNI",BC,"V9Y 8R7",,,2007,FORD,RANGER,"06/29/2013 12:00:00 AM"
"Bill Howich Chrysler (#174)",MATTHEW,BARBER,"3541 RICHMOND ROAD",,VICTORIA,BC,"V8P 4P9",,,2006,HONDA,RIDGELINE,"02/25/2013 12:00:00 AM"
"Bill Howich Chrysler (#174)",MAYLENE,INRIG,"706 RAVEN CRESCENT",,"CAMPBELL RIVER",BC,"V9H 1P9",2502025513,,2005,TOYOTA,TUNDRA,"07/30/2011 12:00:00 AM"
"Bill Howich Chrysler (#174)",MICHAEL,HRYBKO,"368 COTTONWOOD DRIVE",,"CAMPBELL RIVER",BC,"V9W 6P5",2509236572,,2008,FORD,RANGER,"08/10/2013 12:00:00 AM"
"Bill Howich Chrysler (#174)",N/A,"ALBERNI CHRYSLER LTD.","2611 PORT ALBERNI HWY",,"PORT ALBERNI",BC,"V9Y 8P2",,2507235331,2005,FORD,RANGER,"12/22/2010 12:00:00 AM"
"Bill Howich Chrysler (#174)",ANDREW,PLAUNT,"904  SOUTH ALDER STREET",,"CAMPBELL RIVER",BC,"V9W 1Z5",2509235508,,1994,DODGE,DAKOTA,"11/08/2010 12:00:00 AM"
"Bill Howich Chrysler (#174)",ARTUR,LODEWIJK,"BOX 413, 745-1ST. STREET",,SOINTULA,BC,"V0N 3E0",,,1994,FORD,RANGER,"10/12/2010 12:00:00 AM"
"Bill Howich Chrysler (#174)",STEPHEN,BERNS,"277 CAROLYN ROAD",,"CAMPBELL RIVER",BC,"V9W 3M2",2502028817,2507531214,2007,DODGE,DAKOTA,"01/09/2014 12:00:00 AM"
"Bill Howich Chrysler (#174)",BRUCE,OAKFORD,"730 WESTMERE ROAD",,"CAMPBELL RIVER",BC,"V9W 3Z7",2502879816,,1996,FORD,RANGER,"11/20/2010 12:00:00 AM"
"Bill Howich Chrysler (#174)",N/A,"CAMPBELL RIVER HONDA","2773 ISLAND HIGHWAY",,"CAMPBELL RIVER",BC,"V9W 2H4",2502860641,2502860641,2007,HONDA,RIDGELINE,"01/12/2010 12:00:00 AM"
"Bill Howich Chrysler (#174)",N/A,"CAMPBELL RIVER HONDA","2773 ISLAND HIGHWAY",,"CAMPBELL RIVER",BC,"V9W 2H4",2502860641,2502860641,2007,HONDA,RIDGELINE,"10/07/2010 12:00:00 AM"
"Bill Howich Chrysler (#174)",N/A,"CAMPBELL RIVER HONDA","2773 ISLAND HIGHWAY",,"CAMPBELL RIVER",BC,"V9W 2H4",2502860641,2502860641,2007,FORD,RANGER,"01/30/2012 12:00:00 AM"
"Bill Howich Chrysler (#174)",CAMERON,LOUGHEED,"4227 GLENDINNING DR",,"CAMPBELL RIVER",BC,"V9W 6G5",2508300061,,2001,DODGE,DAKOTA,"03/21/2013 12:00:00 AM"
"Bill Howich Chrysler (#174)",CARLIN,HOWDEN,"75 NEWCASTLE ROAD",,NANAIMO,BC,,,,2000,DODGE,DAKOTA,"06/05/2011 12:00:00 AM"
"Bill Howich Chrysler (#174)","DANIEL (PAT)",CAREW,"940A WATSON CRESCENT",,"CAMPBELL RIVER",BC,"V9W 5N4",2509143060,,2007,CHEVROLET,COLORADO,"03/07/2014 12:00:00 AM"
"Bill Howich Chrysler (#174)",CATHY,CHICKITE,"BOX 241, #33-500 MUCHLAT DRIVE",,"GOLD RIVER",BC,VOP1G0,2502837142,,2004,DODGE,DAKOTA,"05/21/2011 12:00:00 AM"
"Bill Howich Chrysler (#174)",CHARLES,LOWES,"BOX 87, 1487 HYACYNTHE BAY ROA",,"HERIOT BAY",B.C.,"V0P 1H0",2502853790,,2003,DODGE,DAKOTA,"03/03/2010 12:00:00 AM"
"Bill Howich Chrysler (#174)",CHARLES,WILLIAMS,"586 REBECCA PLACE",,"CAMPBELL RIVER",BC,"V9W 8C5",2509266634,2502043005,2007,DODGE,DAKOTA,"12/24/2011 12:00:00 AM"
"Bill Howich Chrysler (#174)",DANIEL,COOPER,"BOX 820, 17-1877 MCNEILL ROAD",,"PORT MCNEILL",BC,"V0N 2R0",2509563604,,2007,TOYOTA,TACOMA,"09/18/2010 12:00:00 AM"
"Bill Howich Chrysler (#174)",COREY,LAVERDURE,"727 MCPHEDRAN ROAD SOUTH",,"CAMPBELL RIVER",BC,"V9H 1P8",2502868089,2502877778,2007,CHEVROLET,AVALANCHE,"04/18/2012 12:00:00 AM"
"Bill Howich Chrysler (#174)","DONALD (DUFF)",CORNELL,"BOX 205, 1284 BARTHOWLAMEW ROA",,"MANSONS LANDING",BC,"V0P 1K0",2509356470,,2006,CHEVROLET,AVALANCHE,"01/22/2014 12:00:00 AM"
"Bill Howich Chrysler (#174)",COURTNEY,QUIN,"620 ASH STREET",,"CAMPBELL RIVER",BC,"V9W 1E9",2508501556,,2006,GMC,CANYON,"08/23/2013 12:00:00 AM"
"Bill Howich Chrysler (#174)",DALE,JONES,"620 NIMPKISH DR",,"CAMPBELL RIVER",BC,"V0P 1G0",2502832229,,2008,FORD,RANGER,"10/01/2012 12:00:00 AM"
"Bill Howich Chrysler (#174)",ANDREW,KERR,"BOX 287, 649 DOGWOOD AVENUE",,"GOLD RIVER",B.C.,"V0P 1G0",2502837726,2502832012,2002,DODGE,DAKOTA,"10/06/2012 12:00:00 AM"
"Bill Howich Chrysler (#174)",DAVID,SUMMERS,"BOX 5069, #3 TSITIKA  CRESCENT",,WOSS,BC,"V0N 3P0",2502812275,2509620598,2007,DODGE,DAKOTA,"12/23/2011 12:00:00 AM"
"Bill Howich Chrysler (#174)",DAVID,WESTFIELD,"2509 DOLLY VARDEN ROAD",,"CAMPBELL RIVER",BC,"V9W 4W5",2502860116,,2010,FORD,RANGER,"02/18/2013 12:00:00 AM"
"Bill Howich Chrysler (#174)",DENNIS,BERNTSON,"316 SOUTH MCLEAN STREET",,"CAMPBELL RIVER",B.C.,"V9W 2L8",2502860244,2502860744,2008,DODGE,DAKOTA,"04/10/2010 12:00:00 AM"
"Bill Howich Chrysler (#174)",DENNIS,WADDELL,"15 GWYN STREET",,KITIMAT,BC,"V8C 1C8",2506322392,,2006,DODGE,DAKOTA,"05/08/2010 12:00:00 AM"
"Bill Howich Chrysler (#174)",DIANE,TRERICE,"881 BANK STREET",,VICTORIA,BC,"V8S 4A5",2502022697,,1998,DODGE,DAKOTA,"03/31/2010 12:00:00 AM"
"Bill Howich Chrysler (#174)",DONALD,PATERSON,"BOX 345, 605 WALKEM ROAD",,LADYSMITH,BC,"V9G 1A3",2502452263,,2008,DODGE,DAKOTA,"09/23/2010 12:00:00 AM"
"Bill Howich Chrysler (#174)",DONALD,WILLIE,"1539 BEACH ROAD",,"PORT MCNEILL",BC,"V0N 2R0",,,2006,DODGE,DAKOTA,"12/14/2010 12:00:00 AM"
"Bill Howich Chrysler (#174)",CHAD,WAUGH,"23 ENGLES ROAD",,"CAMPBELL RIVER",BC,"V9H 1J7",2509236083,2502865774,2003,TOYOTA,TACOMA,"03/09/2011 12:00:00 AM"
"Bill Howich Chrysler (#174)",DWAYNE,WESTFALL,"880 PINECREST RD",,"CAMPBELL RIVER",BC,"V9W 3P3",2861263,,2008,FORD,RANGER,"10/26/2012 12:00:00 AM"
"Bill Howich Chrysler (#174)",DWAYNE,HARRIS,"4803 LEWIS STREET",,"CAMPBELL RIVER",BC,"V9H 1C4",,,2003,FORD,RANGER,"07/08/2013 12:00:00 AM"
"Bill Howich Chrysler (#174)",BILL,BLANEY,"1245 BUTE CRESCENT",,"CAMPBELL RIVER",BC,"V9W 1G5",2509236914,,2006,DODGE,DAKOTA,"10/25/2010 12:00:00 AM"
"Bill Howich Chrysler (#174)",ELOY,FIGUEROA,"296 S. MCCARTHY",,"CAMPBELL RIVER",BC,"V9W 2R2",2502863072,,2007,DODGE,DAKOTA,"07/19/2013 12:00:00 AM"
"Bill Howich Chrysler (#174)",ERIC,WILLNER,"BOX 310",,WASHAGO,ONTARIO,"L0K 2B0",7056896070,,2007,FORD,RANGER,"12/08/2010 12:00:00 AM"
"Bill Howich Chrysler (#174)",KENNETH,FLETCHER,"#12-2055 GALERNO ROAD",,"CAMPBELL RIVER",BC,"V9W 6Z1",2509237749,6132595207,2009,FORD,RANGER,"11/30/2011 12:00:00 AM"
"Bill Howich Chrysler (#174)",N/A,,"5400 DUNCAN BAY ROAD",,"CAMPBELL RIVER",BC,"V9W 1N6",,2502878354,1991,FORD,RANGER,"07/31/2013 12:00:00 AM"
"Bill Howich Chrysler (#174)",FREDERICK,BELLERBY,"S16 C10 BOX 1, 895 ISLAND HWY",,SAYWARD,BC,"V0P 1R0",2502823270,,2006,CHEVROLET,COLORADO,"09/20/2012 12:00:00 AM"
"Bill Howich Chrysler (#174)",GARY,KROOK,"BOX 255, 1495 WEST ROAD",,"QUADRA ISLAND",BC,"V0P 1H0",2502853756,2502866007,2004,DODGE,DAKOTA,"09/08/2010 12:00:00 AM"
"Bill Howich Chrysler (#174)",GARY,MCLEAN,"660 EVERGREEN RD",,"CAMPBELL RIVER",BC,"V9W 3R8",,,1994,GMC,SONOMA,"11/12/2013 12:00:00 AM"
"Bill Howich Chrysler (#174)",GERALD,BARKMAN,"250 S DOGWOOD STREET",,"CAMPBELL RIVER",BC,"V9W 6Y7",,,2010,FORD,RANGER,"03/24/2012 12:00:00 AM"
"Bill Howich Chrysler (#174)",GIUSEPPE,FORNARI,"279 THULIN STREET",,"CAMPBELL RIVER",BC,"V9W 2J9",,,2012,GMC,CANYON,"08/23/2013 12:00:00 AM"
"Bill Howich Chrysler (#174)",ANNE,GLENDALE,"BOX 521, 38 WHE LA LA U ROAD",,"ALERT BAY",BC,"V0N 1A0",2509745781,,2005,DODGE,DAKOTA,"09/10/2013 12:00:00 AM"
"Bill Howich Chrysler (#174)",GREGORY,CORMACK,"4322 BARCLAY ROAD",,"CAMPBELL RIVER",BC,"V9W 4Y8",2502879700,,2007,FORD,RANGER,"03/30/2012 12:00:00 AM"
"Bill Howich Chrysler (#174)",GWEN,ALSOP,"BOX 183, 2001 BROUGHTON BLVD",,"PORT MCNEILL",BC,"V0N 2R0",2509560001,,2005,TOYOTA,TUNDRA,"07/21/2012 12:00:00 AM"
"Bill Howich Chrysler (#174)",HENRY,JENSEN,"210 FINCH ROAD",,"CAMPBELL RIVER",BC,"V9H 1K6",2508304001,,1996,DODGE,DAKOTA,"07/06/2013 12:00:00 AM"
"Bill Howich Chrysler (#174)",HENRY,JENSEN,"210 FINCH ROAD",,"CAMPBELL RIVER",BC,"V9H 1K6",2508304001,,1998,DODGE,DAKOTA,"04/26/2013 12:00:00 AM"
"Bill Howich Chrysler (#174)",JAMES,MEHNKE,"BOX 188, 501 MACMILLAN DRIVE",,SAYWARD,BC,"V0P 1R0",2502823760,,2002,GMC,SONOMA,"11/21/2009 12:00:00 AM"
"Bill Howich Chrysler (#174)",JAMES,PARKER,"BOX 18, 1 MAIN ROAD",,"SQUIRREL COVE",BC,"V0P 1T0",,,2003,DODGE,DAKOTA,"11/29/2011 12:00:00 AM"
"Bill Howich Chrysler (#174)",MIRANDA,HANUSE,"4080 TRACEY STREET",,VICTORIA,BC,"V8X 2L2",2505325079,8883677460,2007,FORD,RANGER,"01/11/2010 12:00:00 AM"
"Bill Howich Chrysler (#174)",JOHN,DUNN,"970 HEMLOCK ST",,"CAMPBELL RIVER",BC,"V9W 5H5",2508301126,,2006,NISSAN,TITAN,"08/11/2010 12:00:00 AM"
"Bill Howich Chrysler (#174)",JOHN,HAMMOND,"132 ENGLES ROAD",,"CAMPBELL RIVER",BC,"V9H 1J8",2509237378,,2007,DODGE,DAKOTA,"03/12/2011 12:00:00 AM"
"Bill Howich Chrysler (#174)",JOHN,FITTON,"2951 MUIR ROAD",,COURTENAY,BC,"V9N 6A2",2508979066,,2002,DODGE,DAKOTA,"11/03/2011 12:00:00 AM"
"Bill Howich Chrysler (#174)",JOHN,DUNCAN,"1720 15TH AVENUE",,"CAMPBELL RIVER",BC,"V9W 4J6",2502874060,,2007,DODGE,DAKOTA,"10/29/2013 12:00:00 AM"
"Bill Howich Chrysler (#174)",KEITH,MCAVANY,"BOX 748, GROUSE ISLAND",,"QUATHIASKI COVE",BC,"V0P 1N0",2502622971,,1994,FORD,RANGER,"09/15/2010 12:00:00 AM"
"Bill Howich Chrysler (#174)",KENNY,BRANDT,"#69-2520 QUINSAM ROAD",,"CAMPBELL RIVER",BC,"V9W 4N4",2502868086,,2006,DODGE,DAKOTA,"06/30/2012 12:00:00 AM"
"Bill Howich Chrysler (#174)",KIM,WRIGHT,"4370 DISCOVERY DRIVE",,"CAMPBELL RIVER",BC,"V9W 4X8",2509237473,2502878080,1994,DODGE,DAKOTA,"04/29/2013 12:00:00 AM"
"Bill Howich Chrysler (#174)",HELMUT,KIRCHNER,"2200 WOODBURN RD",,"CAMPBELL RIVER",BC,"V9W 7A7",7783464885,,2002,FORD,RANGER,"01/21/2014 12:00:00 AM"
"Bill Howich Chrysler (#174)",KERRY,LEECH,"#2-605 ROCKLAND ROAD",,"CAMPBELL RIVER",BC,"V9W 7X1",,,2006,DODGE,DAKOTA,"12/28/2013 12:00:00 AM"
"Bill Howich Chrysler (#174)",LEIGH,BARTEL,"61 DOGWOOD S  DOGWOOD STREE",,"CAMPBELL RIVER",BC,"V9W 2X5",2509143545,,2008,TOYOTA,TACOMA,"09/13/2013 12:00:00 AM"
"Bill Howich Chrysler (#174)",LINDA,RENZ,"BOX 155 , 571 MCLEOD ROAD",,"UNION BAY",BC,"V0R 3B0",2503351022,,1996,DODGE,DAKOTA,"07/06/2013 12:00:00 AM"
"Bill Howich Chrysler (#174)",LORNE,LEHEUP,"1522 LARCHBERRY WAY RR5",,GIBSONS,B.C.,"V0N 1V5",6048868876,,2005,DODGE,DAKOTA,"08/26/2011 12:00:00 AM"
"Bill Howich Chrysler (#174)",GRAHAM,MACKENZIE,"BOX  11,  394 SAWMILL ROAD",,WHALETOWN,BC,"V0P 1Z0",2509350115,,2004,DODGE,DAKOTA,"03/25/2014 12:00:00 AM"
"Bill Howich Chrysler (#174)",MATTIAS,MORRISON,"#A-999 MERECROFT ROAD",,"CAMPBELL RIVER",BC,"V9W 6B2",2502877373,,2006,NISSAN,FRONTIER,"04/03/2014 12:00:00 AM"
"Bill Howich Chrysler (#174)",N/A,"N.D.R. VENTURES LTD.","#1-1925 KIRSCHNER ROAD",,KELOWNA,BC,"V1Y 4N7",,2508606540,2007,TOYOTA,TUNDRA,"02/26/2011 12:00:00 AM"
"Bill Howich Chrysler (#174)",N/A,"N.V.H. CONTRACTING LTD.","BOX 565 STN A, 8450 MCIVOR RD",,"CAMPBELL RIVER",BC,"V9H 5T9",2508300677,2509260676,2008,TOYOTA,TUNDRA,"10/14/2011 12:00:00 AM"
"Bill Howich Chrysler (#174)",N/A,"NANAIMO HONDA","2535 BOWEN ROAD",,NANAIMO,BC,"V9T 3L2",2507583361,,2008,HONDA,RIDGELINE,"11/13/2010 12:00:00 AM"
"Bill Howich Chrysler (#174)",N/A,"NANAIMO TOYOTA LTD.","2555 BOWEN ROAD",,NANAIMO,BC,"V9T 3L2",8772951367,,2012,TOYOTA,TUNDRA,"07/08/2013 12:00:00 AM"
"Bill Howich Chrysler (#174)",NORMAN,GEORGE,"BOX 284 , TSAXANA RESERVE",,"GOLD RIVER",B.C.,"V0P 1G0",2502839028,,1995,DODGE,DAKOTA,"06/26/2010 12:00:00 AM"
"Bill Howich Chrysler (#174)",CHRISTINA,NYMAN,"2733 BRADFORD DRIVE",,"CAMPBELL RIVER",BC,"V9W 0A3",2509231067,,2005,GMC,CANYON,"04/12/2014 12:00:00 AM"
"Bill Howich Chrysler (#174)",PATRICK,DECQUE,"2152 GREYSTONE PLACE",,"CAMPBELL RIVER",BC,"V9W 7Y5",2509231064,0000000000,2002,FORD,RANGER,"03/17/2012 12:00:00 AM"
"Bill Howich Chrysler (#174)",PAUL,COPE,"1149 PRINCE RUPERT BOULEVARD",,"PRINCE RUPERT",BC,"V8J 2Y8",,,2000,TOYOTA,TUNDRA,"09/28/2010 12:00:00 AM"
"Bill Howich Chrysler (#174)",PAUL,BRAWN,"6516 HEADQUARTERS ROAD",,COURTENAY,BC,"V9J 1N1",2507610333,,2008,FORD,RANGER,"10/26/2010 12:00:00 AM"
"Bill Howich Chrysler (#174)",RANDALL,THOMPSON,"#1030 - 999 WEST HASTINGS",,Vancouver,BC,"V6C 2W2",,6046858299,2001,DODGE,DAKOTA,"02/23/2013 12:00:00 AM"
"Bill Howich Chrysler (#174)",RAYMOND,SHIELDS,"1841-19TH. AVENUE",,"CAMPBELL RIVER",BC,"V9W 4M6",2502864224,,2002,DODGE,DAKOTA,"10/06/2012 12:00:00 AM"
"Bill Howich Chrysler (#174)",RONALD,JOHNSTON,"BOX 1003,465 CHAMISS PLACE",,"GOLD RIVER",B.C.,VOP1GO,2502832960,2502832221,2007,DODGE,DAKOTA,"06/18/2011 12:00:00 AM"
"Bill Howich Chrysler (#174)",RONALD,TREBLE,"2111 EAST STYLES CRESCENT",,REGINA,SASKATCHEWAN,"S4V 0P8",3067890435,3065856254,2007,FORD,RANGER,"12/05/2011 12:00:00 AM"
"Bill Howich Chrysler (#174)",RON,TUCK,"#71-2700 WOODBURN",,"CAMPBELL RIVER",BC,,2508301619,,1990,FORD,RANGER,"12/19/2011 12:00:00 AM"
"Bill Howich Chrysler (#174)",RONALD,JOHANSEN,"1142 GALERNO ROAD",,"CAMPBELL RIVER",BC,"V9W 1J4",2509236886,,2005,DODGE,DAKOTA,"09/10/2013 12:00:00 AM"
"Bill Howich Chrysler (#174)",ROY,BIANCO,"RR#1 , S14,BOX 2",,SAYWARD,BC,"V0P 1R0",2502823625,,2004,DODGE,DAKOTA,"05/07/2010 12:00:00 AM"
"Bill Howich Chrysler (#174)",SALLY,MAXWELL,"183 STRATHCONA WAY",,"CAMPBELL RIVER",BC,"V9H 0B1",2509238103,7784200200,1998,DODGE,DAKOTA,"09/07/2011 12:00:00 AM"
"Bill Howich Chrysler (#174)",SALLY,MAXWELL,"183 STRATHCONA WAY",,"CAMPBELL RIVER",BC,"V9H 0B1",2509238103,7784200200,1998,DODGE,DAKOTA,"04/26/2013 12:00:00 AM"
"Bill Howich Chrysler (#174)",SAMUEL,"MARCHECO CRESPO","BOX 223 923 THUNDER ROAD",,"MANSON LANDING",BC,"V0P 1K0",2509358513,,2008,FORD,RANGER,"02/18/2012 12:00:00 AM"
"Bill Howich Chrysler (#174)",SANDRA,OSTWALD,"657 WARDEN",,"CAMPBELL RIVER",BC,"V9W 3Y4",2508959130,,2004,DODGE,DAKOTA,"07/02/2011 12:00:00 AM"
"Bill Howich Chrysler (#174)",SCOTT,WOOD,"203-345 DOGWOOD",,"CAMPBELL RIVER",B.C.,"V9W 1V2",2509231212,,2007,FORD,RANGER,"08/10/2010 12:00:00 AM"
"Bill Howich Chrysler (#174)",STANLEY,PERRY,"2325 NORTHWEST ROAD",,"DENMAN ISLAND",BC,"V0R 1T0",2503352249,,2007,GMC,CANYON,"02/11/2010 12:00:00 AM"
"Bill Howich Chrysler (#174)",STANLEY,JOUGHIN,"937 FAIRWAY DRIVE",,"NORTH VANCOUVER",BC,"V7G 1Z5",6049294680,,2010,NISSAN,FRONTIER,"08/22/2013 12:00:00 AM"
"Bill Howich Chrysler (#174)",STEPHEN,SIVILS,"BOX 20, LOT 7 BOLD POINT RD",,"QUATHIASKI COVE",BC,"V0P 1N0",2502853085,,2000,DODGE,DAKOTA,"05/11/2012 12:00:00 AM"
"Bill Howich Chrysler (#174)",STUART,JAFFE,"5810 180 STREET",,SURREY,BC,"V3S 4L1",7082461659,,2001,DODGE,DAKOTA,"01/22/2011 12:00:00 AM"
"Bill Howich Chrysler (#174)",TABITHA,GAUDET,"7667 ISLAND HWY",,"BLACK CREEK",BC,"V9J 1G4",2503378084,,2006,CHEVROLET,COLORADO,"03/02/2013 12:00:00 AM"
"Bill Howich Chrysler (#174)",TAMMY,CHAMBERS,"1620 COMOX AVENUE",,COMOX,BC,"V9M 2V3",2503392878,,2002,CHEVROLET,AVALANCHE,"09/17/2013 12:00:00 AM"
"Bill Howich Chrysler (#174)",TAMMY,CHAMBERS,"1620 COMOX AVENUE",,COMOX,BC,"V9M 2V3",2503392878,,2002,CHEVROLET,AVALANCHE,"09/17/2013 12:00:00 AM"
"Bill Howich Chrysler (#174)",THOMAS,JOYCE,"1652 MEADOWBROOK DRIVE",,"CAMPBELL RIVER",BC,"V9W 7E7",2509239696,2506502172,2002,GMC,SONOMA,"12/17/2012 12:00:00 AM"
"Bill Howich Chrysler (#174)",TOMMY,RUFUS,"BOX 1891, 228 TSULQUATE VILLAG",,"PORT HARDY",BC,"V0N 2P0",2509499683,,2002,DODGE,DAKOTA,"10/06/2010 12:00:00 AM"
"Bill Howich Chrysler (#174)",DANIEL,TURNER,"231 SIMS AVE",,VICTORIA,BC,"V8Z 1K4",7786782142,,2006,TOYOTA,TACOMA,"02/15/2014 12:00:00 AM"
"Bill Howich Chrysler (#174)",SALLY,BENTON,"369 PARKWAY ROAD",,"CAMPBELL RIVER",BC,"V9W 5K3",2509234978,,2003,DODGE,DAKOTA,"06/22/2010 12:00:00 AM"
"Bill Howich Chrysler (#174)",TYLER,KROOT,"3610 DAKOTA DRIVE",,"CAMPBELL RIVER",BC,"V9W 6S9",,2502877494,2008,GMC,CANYON,"02/25/2011 12:00:00 AM"
"Bill Howich Chrysler (#174)",ULYSSES,CASTRO,"5184 GOLDEN STREET",,"PORT ALBERNI",B.C.,"V9Y 7J2",7784214916,,2004,CHEVROLET,AVALANCHE,"06/04/2011 12:00:00 AM"
"Bill Howich Chrysler (#174)",ARCHIE,VINCENT,"290 KYUQUOT ROAD",,KYUQUOT,BC,"V0P 1J0",2503325237,,1999,DODGE,DAKOTA,"11/23/2013 12:00:00 AM"
"Bill Howich Chrysler (#174)",WANDA,ROBERTSON,"BOX 50, 1525 WHALETOWN ROAD",,"CORTEZ ISLAND",BC,"V0P 1T0",2509350221,,1999,DODGE,DAKOTA,"11/28/2012 12:00:00 AM"
"Bill Howich Chrysler (#174)",GEORGE,WHITE,"PO BOX 177 13 FREDA ROAD",,TAHSIS,BC,"V0P 1X0",2509346675,,2006,DODGE,DAKOTA,"03/12/2014 12:00:00 AM"
"Bill Howich Chrysler (#174)",WILLI,WAGNER,"3212 LOCKWELL ROAD",,COURTENAY,BC,"V9N 9P4",2503343080,,2003,DODGE,DAKOTA,"10/29/2010 12:00:00 AM"
"Bill Howich Chrysler (#174)","WILLIAM (BILL)",GARTON,"894 SOUTH ISLAND HIGHWAY","APT 201","CAMPBELL RIVER",BC,"V9W 1A8",2509237155,,2007,DODGE,DAKOTA,"03/08/2011 12:00:00 AM"
"Bill Howich Chrysler (#174)",WILLIAM,EMERY,"#10-1120 EVERGREEN ROAD",,"CAMPBELL RIVER",BC,"V9W 3R9",,,2000,FORD,RANGER,"03/26/2012 12:00:00 AM"
"Bill Howich Chrysler (#174)",DONALD,WILLIE,"GENERAL DELIVERY",,"KINGCOME INLET",BC,"V0N 2B0",,,2006,DODGE,DAKOTA,"12/20/2013 12:00:00 AM"
"Bill Howich Chrysler (#174)",JENNIFER,COMEU,"601 CHRISTOPHER",,"CAMPBELL RIVER",BC,"V9W 6A4",2502866655,,1998,DODGE,DAKOTA,"02/23/2011 12:00:00 AM"
"Bill Howich Chrysler (#174)",MARTIN,DEAN,"281 THULIN STREET",,"CAMPBELL RIVER",BC,"V9W 2K6",2508509595,,2000,DODGE,DAKOTA,"03/03/2011 12:00:00 AM"
"Bill Howich Chrysler (#174)",MARILYN,KLASSEN,"288 NIM NIM PLACE",,COURTENAY,BC,"V9N 8A5",2503380083,,2001,DODGE,DAKOTA,"11/19/2011 12:00:00 AM"
"Bill Howich Chrysler (#174)",MARIA,NEWFIELD,"BOX 215, 320 ANACLA VILLAGE",,BAMFIELD,BC,"V0R 1B0",2507281290,,2006,CHEVROLET,AVALANCHE,"05/03/2013 12:00:00 AM"
"Bill Howich Chrysler (#174)",MARK,CAIRNEY,"5980A CHERRY CREEK RD",,"PORT ALBERNI",BC,"V9Y 8R7",,,2007,FORD,RANGER,"06/29/2013 12:00:00 AM"
"Bill Howich Chrysler (#174)",MATTHEW,BARBER,"3541 RICHMOND ROAD",,VICTORIA,BC,"V8P 4P9",,,2006,HONDA,RIDGELINE,"02/25/2013 12:00:00 AM"
"Bill Howich Chrysler (#174)",MAYLENE,INRIG,"706 RAVEN CRESCENT",,"CAMPBELL RIVER",BC,"V9H 1P9",2502025513,,2005,TOYOTA,TUNDRA,"07/30/2011 12:00:00 AM"
"Bill Howich Chrysler (#174)",MICHAEL,HRYBKO,"368 COTTONWOOD DRIVE",,"CAMPBELL RIVER",BC,"V9W 6P5",2509236572,,2008,FORD,RANGER,"08/10/2013 12:00:00 AM"
