Dealership Name    FirstName	LastName    Address	Apartment	City	State	Zip	 HomePhone	BusinessPhone	 Year	Make  Model   Purchase Date Trade In Value
Wellington Motors	ROY	
STEINBERG	257 MCKENZIE ST	ROOKWOOD	ON	N0B2K0	5198569298		2010	DODGE	CHALLENGER	05/29/2010	 
Wellington Motors	LINDSAY	
SOMERVILLE	229 FARLEY DRIVE	GUELPH	ON	N1L1N2	5197634162	5198032883	2008	DODGE	CALIBER	05/13/2010	 
Wellington Motors	DONALD	
ANDERSON	51 MCFARLANE DR	CAMBRIDGE	ON	N3C4J9	5196549615	5198365821	2014	RAM	1500	10/31/2013	 
Wellington Motors	KIM	
MOFFIT	76 VANIER DRIVE	GUELPH	ON	N1G2L3	5198222777		2009	DODGE	AVENGER	05/27/2010	 
Wellington Motors	JESSIE	
WEIR	L21 C1 ERAMOSA TP	ROCKWOOD R5	ON	N0B2K0	5198212995	5198216558	2009	DODGE	AVENGER	03/23/2010	 
Wellington Motors		
ARI FINANCIAL SERVICES INC.	1270 CENTRAL PKWY W SUITE 600	MISSISSAUGA	ON	L5C4P4		9058038000	2010	DODGE	GRAND CARAVAN	02/12/2010	 
Wellington Motors	TRACEY	
PAKULA	8 LESTER PL	CAMBRIDGE	ON	N1R2P9	5196210905	9058786295	2010	JEEP	WRANGLER UNLIMITED	02/16/2010	 
Wellington Motors		
1291631 ONTARIO INC. RAPID COOLING	4-27 MONARCH RD.	GUELPH	ON	N1K1N4	5198312550	5198231356	2009	DODGE	SPRINTER	02/24/2010	 
Wellington Motors	DAVID	
JOHNSON	68 CORK ST W	GUELPH	ON	N1H2X4	4165039887		2006	DODGE	GRAND CARAVAN	03/02/2010	 
Wellington Motors	KAREN	
WOOLNER	1521 BLEAMS ROADR2	PETERSBURG R2	ON	N0B2H0	5196348515	5197488515	2010	DODGE	CHARGER	03/09/2010	 
Wellington Motors		
WM GREEN ROOFING LTD	45 DAWSON	GUELPH	ON	N1H1B1		8226414	2010	DODGE	RAM 1500	02/01/2010	 
Wellington Motors	GLEN	
PLANT	220 PARSONAGE RD	BRANTFORD	ON	N3T5M1	5196472269		2010	DODGE	RAM 1500	01/04/2010	 
Wellington Motors		
SUTCLIFFE HOMES INC.	RR2	ARISS	ON	N0B1B0		5198221708	2010	DODGE	RAM 1500	11/25/2009	 
Wellington Motors		
RED CAR SERVICE INC.	530 ELIZABETH ST.	GUELPH	ON	N1E6C3		5198232443	2009	DODGE	SPRINTER	09/01/2009	 
Wellington Motors	CHRISTINE	
NELSON	272 CLYDE RD UNIT 9	CAMBRIDGE	ON	N1R1L1	5196221662		2007	DODGE	CALIBER	10/22/2009	 
Wellington Motors	DARRYL	
SCHELL	158 ROSS AVE	KITCHENER	ON	N2A1V6	5192774741		2010	DODGE	RAM 1500	10/02/2009	 
Wellington Motors	ROBERT	
ROY	63 LASALLE STREET	BRESLAU	ON	N0B1M0	5192130091		2009	DODGE	GRAND CARAVAN	09/17/2009	 
Wellington Motors	MARSHA	
SCHARLACH	85 KATHERINE ST S	WINTERBOURNE	ON	N0B2V0	5196642321	5196261658	2013	RAM	1500	07/18/2011 12:00:00 AM	 
Wellington Motors		
PHH VEHICLE MANAGEMENT SERVICES	2233 ARGENTIA ROAD SUITE 400STATION A	MISSISSAUGA	ON	L5N2X7	2148963308	8002682916	2012	DODGE	GRAND CARAVAN	12/09/2011	 
Wellington Motors	ANTHONY	
FERGUSON	40 GAW CRES	GUELPH	ON	N1L1H9	5197633907		2009	DODGE	GRAND CARAVAN	08/31/2009	 
Wellington Motors	SHELLY	
HISCOCK	10 ROSELYN CRT	LINDSAY	ON	K9V4T5	7053289193	7059285000	2007	DODGE	MAGNUM	09/12/2009	 
Wellington Motors	HENDRIK	
VAN-BREDERODE	44 MERGANSER DRIVE	GUELPH	ON	N1C1E2	5198216259		2006	JEEP	LIBERTY	07/21/2009	 
Wellington Motors	THOMAS	
DANE	103 LIGHT DR	CAMBRIDGE	ON	N1T1Y3	5196249809	5195691582	2009	DODGE	RAM 1500	06/04/2009	 
Wellington Motors	JEAN-MARC	
MOREAU	142 JOLLIFE AVE	ROCKWOOD	ON	N0B2K0	5198562506		2006	DODGE	GRAND CARAVAN	06/12/2009	 
Wellington Motors		
CORPORATION OF THE CITY OF GUELPH	59 CARDEN ST CITY HALLVENDOR #84123	GUELPH	ON	N1H3A1	5198375610	5198375628	2009	DODGE	CALIBER	06/16/2009	 
Wellington Motors	MARY	
	72 REVELL DRIVE	GUELPH	ON	N1G0B1	5197800839		2009	DODGE	GRAND CARAVAN	04/23/2009	 
Wellington Motors	ELAINE	
HARDIMAN	194 SILURIAN DRIVE	GUELPH	ON	N1E7E6	5197800163		2009	JEEP	LIBERTY	05/04/2009	 
Wellington Motors		
WILSON FIRE SECURITY LIMITED	P.O. BOX 785	GUELPH	ON	N1H6L8	5197671929	5198366330	2014	RAM	1500	03/31/2014	 
Wellington Motors	ROBERT	
FORD	27 HOOD STREET	GUELPH	ON	N1E5W4	5198245607		2014	DODGE	JOURNEY	04/10/2014	 
Wellington Motors	JOHN	
BOWES	307-135 OXFORD STUNIT B	GUELPH	ON	N1H2M8	2262034450	9056932117	2013	DODGE	AVENGER	07/16/2013	 
Wellington Motors	MIRANDA	
BROWN	36 LEACOCK AVE	GUELPH	ON	N1E6R1	4169972059		2011	JEEP	COMPASS	07/18/2013	 
Wellington Motors	SHELLEY	
BLANCHARD	3 OLD CARRIAGE CRT	KITCHENER	ON	N2P1V3	5192221724		2013	JEEP	WRANGLER UNLIMITED	07/25/2013	 
Wellington Motors	GIUSEPPE	
GALLETTA	101 BAGOT STREET	GUELPH	ON	N1H5T7	5192426719		2001	LEXUS	IS 300	07/27/2013	 
Wellington Motors	CYNTHIA	
LEDUC-MAROSTEGA	173 SACHA RD	CAMBRIDGE	ON	N3C4A7	5196549182	5197406400	2013	DODGE	GRAND CARAVAN	08/01/2013	 
Wellington Motors	JAIME	
PORCELLATO	70 SHERWOOD DR	GUELPH	ON	N1E1R6	5197675478	5198244400	2013	DODGE	GRAND CARAVAN	06/03/2011 12:00:00 AM	 
Wellington Motors	CHRISTA	
CALLAHAN	105 HADATI RD	GUELPH	ON	N1E6G9	5192651232	5194005189	2007	DODGE	CHARGER	08/08/2013	 
Wellington Motors		
COX CONSTRUCTION LTD	P.O. BOX 427 STN MAIN687 ERAMOSA RD	GUELPH	ON	N1H6K5		5198246570	2014	RAM	2500	03/27/2014	 
Wellington Motors	LILLIAN	
LEWIS	425 WILSON AVE UN 1517	KITCHENER	ON	N2C2R8	5198941925	5195734713	2010	TOYOTA	COROLLA	08/14/2013	 
Wellington Motors	RONALD	
FREELAND	711 ARNOLD ST	SUDBURY	ON	P3E6H1	7059291956	17055222313	2013	RAM	1500	07/10/2013	 
Wellington Motors	GERALD	
SURETTE	143 INVERHAUGH RD PILK TPRR1	ARISS R1	ON	N0B1B0	5198469139		2013	RAM	1500	07/08/2013	 
Wellington Motors	CLIFFORD	
WAGNER	8251 WELLINGTON RD 124	GUELPH	ON	N1H6H7	5198260176	5192447392	2013	RAM	2500	06/17/2013	 
Wellington Motors	WILLIAM	
CRIPPS	619 WILLOW RD	GUELPH	ON	N1H7J8	5192658998		2009	CHRYSLER	TOWN & COUNTRY	06/11/2013	 
Wellington Motors	TYLER	
MCMULLEN	165 FERGUSON STREET	GUELPH	ON	N1E2Z1	5199946398		2013	DODGE	DART	06/18/2013	 
Wellington Motors		
COX CONSTRUCTION LTD	P.O. BOX 427 STN MAIN687 ERAMOSA RD	GUELPH	ON	N1H6K5		5198246570	2014	RAM	2500	03/27/2014	 
Wellington Motors	SAJID	
ABBASI	409-85 WILLOW RD	GUELPH	ON	N1H1W6	5197633446		2013	DODGE	GRAND CARAVAN	06/27/2013	 
Wellington Motors	JENNIFER	
BROWN	182 MCBAY RD	BRANTFORD	ON	N3T5L4	2262284457		2009	HONDA	CIVIC SDN	07/02/2013	 
Wellington Motors	IAN	
MCLAFFERTY	62 WOODLAND GLEN DRIVE	GUELPH	ON	N1G3S7	5197632779		2011	JEEP	GRAND CHEROKEE	07/03/2013	 
Wellington Motors	SANDRA	
SWANN	42-139 FATHER DAVID BAVER DR	WATERLOO	ON	N2L6L1	5198868686	5195886886	2013	FIAT	500	07/03/2013	 
Wellington Motors	DWAYNE	
GALLAGHER	359 SPEEDVALE AVE E	GUELPH	ON	N1E1N7	5198245202	5197633675	2013	CHRYSLER	200	07/05/2013	 
Wellington Motors	ASHVANI	
BHARGO	723 CHESAPEAKE DR	WATERLOO	ON	N2K4A2	5198851900	5197816791	2007	DODGE	CHARGER	07/04/2013	 
Wellington Motors	GEORGIOS	
TREMIS	314 NORTHWOOD DR	OAKVILLE	ON	L6M1M7		5197408927	2013	RAM	1500	07/03/2013	 
Wellington Motors	MARLENE	
CLAER	62-201 SIVERCREEK PKWY N	GUELPH	ON	N1H3T4	5198231565		2014	DODGE	GRAND CARAVAN	02/28/2014	 
Wellington Motors	GEORGE	
HARPUR	7 MALLETTE CRS	NIAG-ON-LAKE	ON	L0S1J0	9052626054	9053575333	2013	JEEP	WRANGLER UNLIMITED	06/05/2013	 
Wellington Motors	PAULA	
PEQUEGNAT	11 BROOKMEADE ST	ELMIRA	ON	N3B3L8	5198074113		2013	DODGE	GRAND CARAVAN	05/16/2013	 
Wellington Motors	THOMAS	
MAHER	941 GORDON STUN 18	GUELPH	ON	N1G4R9	5198361890	5198350275	2013	JEEP	WRANGLER	06/11/2013	 
Wellington Motors	KEVIN	
THOMSON	7 COLONIAL DR	GUELPH	ON	N1L0A5	5193410725	5198883900	2012	DODGE	GRAND CARAVAN	05/17/2013	 
Wellington Motors	JOAO	
MARTINS	186 BAKERSFIELD DR	CAMBRIDGE	ON	N1R6X7	5196237346		2013	JEEP	WRANGLER	06/05/2013	 
Wellington Motors	JOHN	
GILLIES	170 LONDON ROAD SOUTH	MOUNT FOREST	ON	N0G2L2	5195097676	5198971814	2009	CHRYSLER	300	05/16/2013	 
Wellington Motors	LUCY	
MCLEAN	12 GLASGOW ST N	CONESTOGO	ON	N0B1N0	5192060093	5197474413	2013	DODGE	GRAND CARAVAN	05/16/2013	 
Wellington Motors	TRAVIS	
MARSHALL	70 QUEENSDALE CRES	GUELPH	ON	N1H6W3	5198210495		2006	DODGE	CHARGER	05/21/2013	 
Wellington Motors	LYNDSAY	
BOTTS	79 BARD BLVD	GUELPH	ON	N1L0E3	5198304304		2012	CHRYSLER	200	05/27/2013	 
Bill Howich Chrysler			BOX 272, 91 MARYLAND DRIVE	CAMPBELL RIVER	BC	V9W 1V7	2502032864		2012	DODGE	RAM TRUCK	04/20/2012 12:00:00 AM	 
Bill Howich Chrysler		A & A RECYCLING	1581-15TH. AVENUE	CAMPBELL RIVER	BC	V9W 2Y6		2502871708	1997	PLYMOUTH	NEON	07/08/2013 12:00:00 AM	 
Bill Howich Chrysler	AARON	THOMPSON	990 GREENRIDGE CRESCENT	VICTORIA	BC	V8X 3B9			2010	JEEP	WRANGLER UNLIM	07/19/2010 12:00:00 AM	 
Bill Howich Chrysler	RICHARD	ABALOS	170 CORONATION CRESCENT	CAMPBELL RIVER	BC	V9W 3T6	7784026417	2502867274	2013	DODGE	GRAND CARAVAN	01/04/2014 12:00:00 AM	 
Bill Howich Chrysler	ALAN/MAGNELL	USIPUIK	2764 BRADFORD DRIVE	CAMPBELL RIVER	BC	V9W 7X7	2509260426		2009	DODGE	AVENGER	08/06/2011 12:00:00 AM	 
Bill Howich Chrysler	JUDY	ANDREW	1228 BUTE CR	CAMPBELL RIVER	BC	V9H 1G5	2509234595		1984	TRAVELAIRE	19' TRAILER	11/30/2012 12:00:00 AM	 
Bill Howich Chrysler	 ROMANA	COOK	BOX 469, 56 BROUGHTON STREET	ALERT BAY	BC	V0N 1A0	2509742297	2509745556	2011	DODGE	GRAND CARAVAN	08/17/2011 12:00:00 AM	 
Bill Howich Chrysler	ALLEN	COLBORNE	PO BOX 726	QUATHIASKI COVE	BC	V0P 1N0	2502041862		1973	EVINRUDE	70 HP	10/27/2011 12:00:00 AM	 
Bill Howich Chrysler		ALL STAR AUTO SALES	1842 EAST HASTINGS	Vancouver	BC	V5L 1T2	6042550222		1998	DODGE	RAM 1500	07/28/2012 12:00:00 AM	 
Bill Howich Chrysler	LINDA & AL	CROSS	7624 DUNCAN ST.APT 58	POWELL RIVER	BC	V8A 5L2	6044852693	6044859811	2009	ROCKWOOD	TENT TRAILER	02/08/2013 12:00:00 AM	 
Bill Howich Chrysler		N. MCIVER & ASSOCIATES LTD.	P.O. BOX 634	CAMPBELL RIVER	BC	V9W 6N6	2509269111	2502872220	2005	DODGE	RAM TRUCK	12/30/2011 12:00:00 AM	 
Bill Howich Chrysler		ALPINE BACKHOE SERVICES LTD.	P.O. BOX 634	CAMPBELL RIVER	BC	V9W 6N6	2509269111	2502872220	2011	EZ LOADER	EZ LD TRAILER,	05/18/2012 12:00:00 AM	 
Bill Howich Chrysler	ANDRE	MORIN	BOX 507, 2293 PIONEER ROAD	PORT MCNIELL	B.C.	V0N 2R0	2509564622	2505270098	2008	DODGE	AVENGER	07/27/2011 12:00:00 AM	 
Bill Howich Chrysler	ANDREW	KERR	BOX 287, 649 DOGWOOD AVENUE	GOLD RIVER	B.C.	V0P 1G0	2502837726	2502832012	2003	DODGE	RAM TRUCK	07/13/2012 12:00:00 AM	 
Bill Howich Chrysler	ANDREAS	BOSVELD	1617 LITTLE RIVER ROAD	COMOX	BC	V9M 4C4	2509414213		2003	DODGE	RAM 3500	08/12/2013 12:00:00 AM	 
Bill Howich Chrysler	ANDREW 	PEDDIE	1900 DETWEILLER RD	CAMPBELL RIVER	BC	V9W 7K2	2502872511		1991	CADILLAC	DEVILLE	08/17/2013 12:00:00 AM	 
Bill Howich Chrysler	ANGELA	SHAW	846 -  7TH AVENUEAPT 2	CAMPBELL RIVER	BC	V9W 4A4			2004	DODGE	CARAVAN	10/16/2013 12:00:00 AM	 
Bill Howich Chrysler	ANTHONY	MARCOTTE	65 PENNINSULA DRIVE	MARATHON	ON	P0T 2E0	8072290677		2010	LUND	12 FT JON 	04/20/2011 12:00:00 AM	 
Bill Howich Chrysler	ANTHONY	BENNETT	160 HENRY ROAD	CAMPBELL RIVER	BC	V9H 1K5	2509238601		2014	CREEKSIDE	27BHS	08/23/2013 12:00:00 AM	 
Bill Howich Chrysler	AREF	KHAIRKHAH-TABARSI	8433 McIVOR  LAKE ROAD	CAMPBELL RIVER	BC	V9H 1P1	2502878480	2508502657	2011	DODGE	RAM TRUCK	11/08/2011 12:00:00 AM	 
Bill Howich Chrysler	ARISTA	COSSENAS	648 NELSON ROAD	CAMPBELL RIVER	BC	V9H 1T7	2509260077		2007	JEEP	LIBERTY	09/06/2012 12:00:00 AM	 
Bill Howich Chrysler		ARRAN POINT LODGE/INLAND PROPERT	PO  BOX 16630	MISSOULA	MONTANA	59808	4065231318	2502870690	2009	EVINRUDE	130 HP ETEC	02/06/2013 12:00:00 AM	 
Bill Howich Chrysler		ARRAN POINT LODGE/INLAND PROPERT	PO  BOX 16630	MISSOULA	MONTANA	59808	4065231318	2502870690	2009	EVINRUDE	130 HP ETEC	02/09/2013 12:00:00 AM	 
Bill Howich Chrysler	ARTHUR	OXBURY	1480 CROATION ROAD	CAMPBELL RIVER	BC	V9W 3T5	2502866956		1998	FORD	MOTORHOME	06/29/2010 12:00:00 AM	 
Bill Howich Chrysler	ARTHUR	POLLARD	#31-120 FINHOLM STREET	PARKSVILLE	BC	V9P 1J4	2505868596		2011	EZ LOADER	EZ LD TRAILER,	08/05/2011 12:00:00 AM	 
Bill Howich Chrysler	ARTHUR	WEBB	1111A SPRINGBOK ROAD	CAMPBELL RIVER	B.C.	V9W 8B2	2502871441	2509238570	2011	RAMBLER	RM58SA	08/16/2011 12:00:00 AM	 
Bill Howich Chrysler	ARTENA	DOUGLAS	BOX 74, 7G RUGGED MOUNTAIN ROA	THASIS	BC	V0P 1X0	2509346270		1995	MAZDA	WAGON	02/01/2012 12:00:00 AM	 
Bill Howich Chrysler	ARTHUR	POLLARD	#31-120 FINHOLM STREET	PARKSVILLE	BC	V9P 1J4	2505868596		2010	WILDWOOD	T22FB	06/13/2012 12:00:00 AM	 
Bill Howich Chrysler	JASON	ASDAL	935 KALMAR RD	CAMPBELL RIVER	BC	V9W 2A1	2509236131		2013	JEEP	WRANGLER UNLIM	11/23/2013 12:00:00 AM	 
Bill Howich Chrysler	AUDREY	GLEADOW	2006 ROBERTS ROAD	NANOOSE BAY	BC	V9P 9B3	2506674751	6047634752	2011	CREEK SIDE	24BH	03/14/2012 12:00:00 AM	 
Bill Howich Chrysler	AUSTIN	PEARSON	251 PETERSEN ROAD	CAMPBELL RIVER	BC	V9W 3H3			2004	CHEVROLET	SILVERADO	07/05/2013 12:00:00 AM	 
Bill Howich Chrysler	KELSI	BAINE	1748 PENFIELD	CAMPBELL RIVER	BC	V9W 7B4	2509235672		2010	DODGE	CARAVAN	12/07/2013 12:00:00 AM	 
Bill Howich Chrysler	BARRY	COLLINGE	P.O.BOX 1061	SPIRIT RIVER	AB	T0H 3G0	2507923172		1999	DODGE	RAM 3500	06/16/2012 12:00:00 AM	 
Bill Howich Chrysler			PO BOX 9501 STN TERMINAL	VANCOUVER	BC	V6B 4N1		8002249376	2013	LUND	12 FT WC	09/19/2013 12:00:00 AM	 
Bill Howich Chrysler		BANKS ISLAND GOLD LTD.	3964 DILLMAN ROAD	CAMPBELL RIVER	BC	V9H 1G9			2009	WILDWOOD	T31QBSSLE	05/03/2010 12:00:00 AM	 
Bill Howich Chrysler	BEN		246 ROCKLAND ROAD	CAMPBELL RIVER	BC	V9W 1N6	2509234090		2007	DODGE	RAM 1500	06/23/2012 12:00:00 AM	 
Bill Howich Chrysler	BERNARD	FRASER	BOX 454, 134 QUADRA LP	HERIOT BAY	BC	V0P 1H0	2502030961		1978	WILDERNESS	TRAVEL TRAILER	07/12/2011 12:00:00 AM	 
Bill Howich Chrysler	BILL	WILLIAMS	6-534 CEDAR STREETAPT 6	CAMPBELL RIVER	BC	V9W 2V6	2502879249	2508951249	2003	DODGE	NEON	06/16/2011 12:00:00 AM	 
Bill Howich Chrysler	ROBERT	MCDONNELL	459 TWILLINGATE RD	CAMPBELL RIVER	BC	V9W 1V5	2509233886		2011	JEEP	WRANGLER UNLIM	02/24/2011 12:00:00 AM	 
Bill Howich Chrysler	BRADFORD	ZIHRUL	942 DOGWOOD STREET	CAMPBELL RIVER	BC	V9W 2Z1	2502866548		2010	DODGE	RAM TRUCK	07/16/2010 12:00:00 AM	 
Bill Howich Chrysler	BRADLEY	BEST	427 HARROGATE ROAD	CAMPBELL RIVER	B.C.	V9W 1W1	2509236688		1997	BMW	740I	12/31/2010 12:00:00 AM	 
Bill Howich Chrysler	BRADLEY	BARRY	521 QUADRA AVE	CAMPBELL RIVER	BC	V9W 6T8	2509142002		2013	DODGE	RAM 1500	09/19/2013 12:00:00 AM	 
Bill Howich Chrysler	GORDON	BRANCHI	677 TERN PLACE	CAMPBELL RIVER	BC	V9W 6C6	2508300833		2013	DODGE	RAM TRUCK	02/21/2014 12:00:00 AM	 
Bill Howich Chrysler	BRIAN & JANET	SMITH	BOX 335, 698 BETTS BOULEVARD	PORT MCNEILL	BC	V0N 2R0	2509569890	2509565220	2011	DODGE	RAM TRUCK	12/30/2011 12:00:00 AM	 
Bill Howich Chrysler	BRIAN	LEEMING	1983 FAIRWAY DRIVE	CAMPBELL RIVER	BC	V9H 1R5	2502873158		2013	SANDPIPER	WZSAF346RET	09/29/2012 12:00:00 AM	 
Bill Howich Chrysler	BRIAN	COVERLEY	3854 LANCASTER ROAD	VICTORIA	BC	V8X 2B2			2013	RAM	TRUCK	05/14/2013 12:00:00 AM	 
Bill Howich Chrysler	BRIAN 	RHYNOLD	1888 CARLYLE CRES	CAMPBELL RIVER	BC	V9W 1L2	2509235631	2502879265	2009	DODGE	RAM 1500	06/01/2013 12:00:00 AM	 
Bill Howich Chrysler	PAIGE	WILLETT	132 MARYLAND ROAD	CAMPBELL RIVER	BC	V9W 8G2	2509235456		2003	JEEP	LIBERTY	11/01/2013 12:00:00 AM	 
Bill Howich Chrysler	BROOKE	FARRINGTON	771 CAMELLIA PLACE	PARKSVILLE	BC	V9P 1E6	2502287326		2008	DODGE	NITRO	02/03/2011 12:00:00 AM	 
Bill Howich Chrysler	SHAUN	BROWN	4660 GAIL CRESCENT	COURTENAY	BC	V9N 5Y4			2009	DODGE	GRAND CARAVAN	01/18/2014 12:00:00 AM	 
Bill Howich Chrysler	BARBARA	TADEI	569 SOUTH ALDER STREET	CAMPBELL RIVER	B.C.	V9W 6E7	2502873153	2502868360	2004	DODGE	GRAND CARAVAN	05/29/2010 12:00:00 AM	 
Bill Howich Chrysler	BRUCE		2593 SOUTH ISLAND HWY	CAMPBELL RIVER	BC	V9W 1C5	2509235067	2502876677	2011	TAILWIND	TW714TA2	05/11/2012 12:00:00 AM	 
Bill Howich Chrysler	BRUCE	LAING	1810 MO ROAD	CAMPBELL RIVER	BC	V9W 3R1	2508502520		1981	FENNELL	CUSTOM BUILT	07/05/2012 12:00:00 AM	 
Bill Howich Chrysler	BRUCE	STEWART	205 8TH AVE WEST	Prince Rupert	BC	V8J 2P6	2503340054		2002	MERCURY	MARQUIS	11/13/2012 12:00:00 AM	 
Bill Howich Chrysler	CALVIN	BUSE	SUITE 302-2575 WEST 4TH. AVE.	VANCOUVER	BC	V6K 1P5	6047305095		2010	LUND	12 FT JON 	01/27/2011 12:00:00 AM	 
Bill Howich Chrysler	CALVIN	BEITEL	1527 JUNIPER DRIVE	CAMPBELL RIVER	BC	V9W 7H2	2502025772	2502877436	2012	DODGE	RAM 1500	06/16/2012 12:00:00 AM	 
Bill Howich Chrysler			#5 522 SOUTH DOGWOOD ST	CAMPBELL RIVER	BC	V9W 6R4	2502043607	2502872216	2003	CHEVROLET	SILVERADO	12/16/2013 12:00:00 AM	 
Bill Howich Chrysler		CAMPBELL RIVER HONDA	2773 ISLAND HIGHWAY	CAMPBELL RIVER	BC	V9W 2H4	2502860641	2502860641	2007	HONDA	RIDGELINE	01/12/2010 12:00:00 AM	 
Bill Howich Chrysler		CAMPBELL RIVER HONDA	2773 ISLAND HIGHWAY	CAMPBELL RIVER	BC	V9W 2H4	2502860641	2502860641	2007	FORD	EXPLORER	10/23/2010 12:00:00 AM	 
Bill Howich Chrysler		CAMPBELL RIVER HONDA	2773 ISLAND HIGHWAY	CAMPBELL RIVER	BC	V9W 2H4	2502860641	2502860641	2007	ACURA	MDX	07/20/2011 12:00:00 AM	 
Bill Howich Chrysler	CAMERON	BOESE	5656 BIG BEAR RIDGE	NANAIMO	BC	V9T 2K2	2507511713		2003	DODGE	RAM 3500	03/27/2012 12:00:00 AM	 
Bill Howich Chrysler	CARLY	MORRISON	2300 JOANNE DRIVE	CAMPBELL RIVER	B.C.	V9H 1T6	7784201228	2508502621	2010	DODGE	JOURNEY	05/25/2011 12:00:00 AM	 
Bill Howich Chrysler	CARMEN	HILL	6-758 S ISLAND HWY	CAMPBELL RIVER	BC	V9W 1A6	7784201953		1994	CHEVROLET	SPORTVAN/VAN	07/13/2011 12:00:00 AM	 
Bill Howich Chrysler		CARTER DODGE CHRYSLER	4650 LOUGHEED HWY	NORTH BURNABY	BC	V5C 4A6		6042999181	2011	DODGE	RAM TRUCK	09/03/2011 12:00:00 AM	 
Bill Howich Chrysler	CARRIE	BRAITHWAITE	508 SANDOWNE DRIVE	CAMPBELL RIVER	BC	V9W 5E4	2509230287	2502861841	2012	JEEP	PATRIOT	05/31/2012 12:00:00 AM	 
Bill Howich Chrysler	CAREN	BURKE	81-SHELLBOURNE BLV	CAMPBELL RIVER	BC		2509238383		2005	PONTIAC	SUNFIRE	06/17/2013 12:00:00 AM	 
Bill Howich Chrysler	CATHERINE	MOORE	P.O. BOX 2760	REVELSTOKE	BC	V0E 2S0	2502307389		1991	PROWLER	24FT TRVL TRL	09/05/2012 12:00:00 AM	 
Bill Howich Chrysler	CHARLES	LOWES	BOX 87, 1487 HYACYNTHE BAY ROA	HERIOT BAY	B.C.	V0P 1H0	2502853790		2003	DODGE	DAKOTA	03/03/2010 12:00:00 AM	 
Bill Howich Chrysler	CHARLIE	WALCOT	2266 STEELHEAD ROAD	CAMPBELL RIVER	BC	V9W 4P3	2502877180	2507236919	2009	WILDWOOD	T31QBSSLA	03/27/2010 12:00:00 AM	 
Bill Howich Chrysler	CHASE	SMITH	1067 SPRINGBOK ROAD	CAMPBELL RIVER	BC	V9W 7K7	2509231561		2010	JEEP	WRANGLER	05/28/2010 12:00:00 AM	 
Bill Howich Chrysler	CHARLOTTE	BATCHELOR	562 KINNIKINIK ROAD	COMOX	BC	V9M 3V8			2008	JEEP	WRANGLER UNLIM	05/07/2012 12:00:00 AM	 
Bill Howich Chrysler	CHASE & DOROTHY	KING	501 MALLARD WAY	GOLD RIVER	BC	V0P 1G0	2502837791		2013	DODGE	RAM 1500	05/15/2013 12:00:00 AM	 
Bill Howich Chrysler	CHERYL & BRAD	NELSON	BOX 1535, 2665 WOODLAND DRIVE	PORT MCNIEL	BC	V0N 2R0	2509564026		2011	DODGE	RAM TRUCK	11/26/2011 12:00:00 AM	 
Bill Howich Chrysler	CHRISTOPHER	PENNEY	47 CHRISTOPHER DRIVE	BURTON	NEW BRUNSWICK	E2V 3H4	5062080940	5064222000	2009	JEEP	WRANGLER	09/05/2009 12:00:00 AM	 
Bill Howich Chrysler	CHRISTOPHER	PENNEY	47 CHRISTOPHER DRIVE	BURTON	NEW BRUNSWICK	E2V 3H4	5062080940	5064222000	2010	TAILWIND	TW510SA	10/07/2010 12:00:00 AM	 
Bill Howich Chrysler	CHRISTOPHER	MACDONALD	609 NELSON ROAD	CAMPBELL RIVER	BC	V9H 1V1	2509230968		2010	EZ LOADER	800 #	06/05/2010 12:00:00 AM	 
Bill Howich Chrysler	CHRISTOPHER	CHARKO	4753 UPLAND ROAD	CAMPBELL RIVER	B.C.	V9H 1B9	2508979148	2502879514	2011	DODGE	RAM TRUCK	06/17/2011 12:00:00 AM	 
Bill Howich Chrysler	CHRISTOPHER	MOLLER	490 GOODWIN ROAD	CAMPBELL RIVER	B.C.	V9W 6R7	2509237536		2012	DODGE	RAM 1500	03/22/2012 12:00:00 AM	 
Bill Howich Chrysler	CHRISTOPHER	DORRINGTON	564 HOLM ROAD	Campbell River	BC	V9W 1W4	2509234713		2002	FORD	FOCUS	05/14/2012 12:00:00 AM	 
Bill Howich Chrysler	CHRISTOPHER	HANTHORN	1871 O'LEARY AVENUE	CAMPBELL RIVER	BC	V9W 5Y8	2508951111		2013	RAM	TRUCK	03/13/2013 12:00:00 AM	 
Bill Howich Chrysler	MICHAEL	CHRISTENSEN	6454 FITZGERALD ROAD	COURTENAY	BC	V9N 5N5	2508304447		2014	RAMBLER	RM612SA	12/10/2013 12:00:00 AM	 
Bill Howich Chrysler	 CLAYTON	KACAVENDA 	2770 KENDAL AVENUE	CUMBERLAND	BC	V0R 1S0	2503360102	2508961831	2010	TRAILSTAR	BOAT TRAILER	05/18/2010 12:00:00 AM	 
Bill Howich Chrysler		CLAYOQUOT FOREST MANAGEMENT	PO BOX 27010 RPO OCEAN GROVE	CAMPBELL RIVER	BC	V9H 0B8			1974	SIDEWIDER	SIDEWIDER	08/01/2011 12:00:00 AM	 
Bill Howich Chrysler	COLLEEN	JOHN	BOX 27	ZEBALLOS	BC	V0P 2A0	2508951109		2003	PONTIAC	GRAND PRIX	11/30/2010 12:00:00 AM	 
Bill Howich Chrysler	MAURO	Colombo	2420 CAMPELL RIVER RD	CAMPBELL RIVER	BC		2502023413		2002	HYUNDAI	ACCENT	07/11/2011 12:00:00 AM	 
Bill Howich Chrysler	COLBY	JOHNSTONE	710 PINECREST ST.	CAMPBELL RIVER	BC	V9W 3P3	2502878045		2002	FORD	F150	09/17/2013 12:00:00 AM	 
Bill Howich Chrysler	LLOYD	CONNERS	4015 MANITOBA AVE.	POWELL RIVER	BC	V8A 2W9	6044831984		2000	CHEVROLET	'S'TRUCK	04/05/2014 12:00:00 AM	 
Bill Howich Chrysler			#10-3107A-31ST. AVENUE	VERNON	BC	V1T 2G9		2505583500	2001	DODGE	RAM 3500	09/03/2013 12:00:00 AM	 
Bill Howich Chrysler		CR SHAKE AND SHINGLE	2901 MACAULAY RD	BLACK CREEK	BC	V9J 1B9		2502863428	2011	CARRY ON	6X10 UTILITY	10/22/2011 12:00:00 AM	 
Bill Howich Chrysler	JASMINE	ALLEN	2740 S ISLAND HWY	CAMPBELL RIVER	BC	V9W 1C7	7784184896		1991	HONDA	ACCORD	02/23/2013 12:00:00 AM	 
Bill Howich Chrysler	CYRIL	MOUNTAIN	BOX 206, 68 ROAD STREET	ALERT BAY	BC	V0N 1A0	2509745234	2509745556	2010	DODGE	GRAND CARAVAN	12/08/2012 12:00:00 AM	 
Bill Howich Chrysler	DALE & DONNA	MCNEIL	1761 PENFIELD ROAD	CAMPBELL RIVER	BC	V9W 5N7	2509231603		2013	TIMBER RIDGE	250RDS	01/24/2013 12:00:00 AM	 
Bill Howich Chrysler	DANIEL	ATWOOD	2783 DENMAN STREET	CAMPBELL RIVER	BC	V9H 1S9	2509232783	2502021975	2009	NISSAN	ARMADA	02/07/2011 12:00:00 AM	 
Bill Howich Chrysler	DANIEL (PAT)	CAREW	940A WATSON CRESCENT	CAMPBELL RIVER	BC	V9W 5N4	2509143060		1997	CHRYSLER	CIRRUS	04/23/2011 12:00:00 AM	 
Bill Howich Chrysler	DANIEL	BRUNDIGE	6-620 ELKHORN ROAD	CAMPBELL RIVER	BC	V9W 3X1	2502861153		1999	CHEVROLET	CAVALIER	07/30/2012 12:00:00 AM	 
Bill Howich Chrysler	DANIEL	COOK	PO BOX 404	ALERT BAY	BC	V0N 1A0	2509742458	2509748467	2012	EVINRUDE	225 HP ETEC	07/06/2012 12:00:00 AM	 
Bill Howich Chrysler	DANNY	WHITE	2305 WALBRAN DR.	COURTENAY	BC	V9N 9E4	2503386947		2012	NISSAN	NSF8A32	06/24/2013 12:00:00 AM	 
Bill Howich Chrysler	DARRIN	ABBOTT	2221 ARNASON ROAD	CAMPBELL RIVER	B.C.	V9W 1M1	2509232770	2502879156	2008	DODGE	RAM 1500	05/26/2010 12:00:00 AM	 
Bill Howich Chrysler	DARCY	OSTOPCHUK	BOX 34, 308-791 MARINE DRIVE	PORT ALICE	BC	V0N 2N0	2502840174	2508301020	2010	JEEP	WRANGLER UNLIM	07/19/2010 12:00:00 AM	 
Bill Howich Chrysler	DARREN	PERRY	80 SOUTH PETERSON ROAD	CAMPBELL RIVER	BC	V9W 3G6	2502878443	2502878706	2010	FAB FORM	7X18 FLATBED	01/12/2011 12:00:00 AM	 
Bill Howich Chrysler	DARRYL	WATT	PO BOX 617, 471 NOOTKA DRIVE	GOLD RIVER	BC	V0P 1G0	2502832369		2012	DODGE	JOURNEY	01/26/2013 12:00:00 AM	 
Bill Howich Chrysler	DARREN	FLEMMING	1551 SAWYER ROAD	VICTORIA	BC	V9B 5Y5	2502050085		2005	MALLARD	TRAILER	05/23/2013 12:00:00 AM	 
Bill Howich Chrysler	DARRYL	GUTHRIE	BOX 126 1251 SHOPPERS ROW	CAMPBELL RIVER	BC	V9W 2P0	2502050389	2502866166	2013	DODGE	AVENGER	05/30/2013 12:00:00 AM	 
Bill Howich Chrysler	DAVID	ANDRES	746 ORIBI DRIVE	CAMPBELL RIVER	BC	V9W 8B2	2502877302		2010	DODGE	RAM 3500	04/10/2010 12:00:00 AM	 
Bill Howich Chrysler	DAVID	ARMSTRONG	3379 DECOURCY DR	LADYSMITH	BC	V9G 1E4	2507222480		2010	LUND	12 FT WC	07/26/2010 12:00:00 AM	 
Bill Howich Chrysler	CECELIA	SMITH	2331 SUFFOLK CRESCENT	COURTENAY	BC	V9N 3Z4	2503389897	2503381321	2010	DODGE	CHALLENGER	01/30/2010 12:00:00 AM	 
Bill Howich Chrysler	DAVID	THOMSON	#2-769 MERECROFT ROAD	CAMPBELL RIVER	BC	V9W 8H6	2502866757		2009	CHRYSLER	PT CRUISER	03/25/2011 12:00:00 AM	 
Bill Howich Chrysler	DAVID	ROGERS	1742 GROUND ROAD	NANAIMO	BC	V9X 1V4	2507227198		0	UBUILT	12 FT BOAT	07/13/2011 12:00:00 AM	 
Bill Howich Chrysler	DAVID	GEE	9380 DOYLE RD	BLACK CREEK	BC	V9J 1E6	2503378559		2011	LOWE	12'	09/24/2011 12:00:00 AM	 
Bill Howich Chrysler	DAVID	ADCOCK	720 KIT CR	CAMPBELL RIVER	BC	V9H 1P6			1996	SATURN	SC1	02/18/2012 12:00:00 AM	 
Bill Howich Chrysler	DAVID	PETERSON	BOX 2356	PORT HARDY	BC	V0N 2P0		7805248503	2004	FORD	SRW SUPER DUTY	04/17/2013 12:00:00 AM	 
Bill Howich Chrysler	RANDY	DAVIS	1618 GLEN EAGLE DRIVE	CAMPBELL RIVER	BC	V9W 0B2	7783463931		2014	EVINRUDE	115 HP	01/17/2014 12:00:00 AM	 
Bill Howich Chrysler	STUART	DAVIS	1131 SCHMIDT ROAD	DENMAN ISLAND	BC	V0R 1T0	2503351430		2014	LUND	A-14	04/15/2014 12:00:00 AM	 
Bill Howich Chrysler	DEAN	JACKSON	BOX 334, 394 PINE STREET	ALERT BAY	B.C.	V0N 1A0	2509745736	2502832221	2008	FORD	EXPEDITION	11/26/2012 12:00:00 AM	 
Bill Howich Chrysler	DEAN	HYNES	371 HILCHEY ROAD	CAMPBELL RIVER	BC	V9W 1P8	7784182000		2013	RAM	TRUCK	02/25/2013 12:00:00 AM	 
Bill Howich Chrysler	DEBRA	MACKIE	308 CARNAGIE STREET	CAMPBELL RIVER	BC	V9W 2J5	2508500088		2006	DODGE	CARAVAN	10/22/2011 12:00:00 AM	 
Bill Howich Chrysler		DELTA MARINE SERVICES LTD	2075 TYRON ROAD	SIDNEY	BC	V8L 3X9	2506502639	2506562639	2012	DODGE	RAM TRUCK	09/05/2012 12:00:00 AM	 
Bill Howich Chrysler	DENNIS	EVANS	926 LLOYD ROAD	COMOX	BC	V9M 4C1		2508717750	2012	LUND	16 FT ALASKAN	07/13/2012 12:00:00 AM	 
Bill Howich Chrysler	DEON	STEINHAUER	80 WOOD STREET	ALERT BAY	BC	V0N 1A0			2013	DODGE	RAM 2500	06/28/2013 12:00:00 AM	 
Bill Howich Chrysler	DEREK	HUFNAGEL	BOX 560, 1151 MARINE DRIVE	PORT ALICE	B.C.	V0N 2N0	2502846631		2005	FORD	F150	10/01/2011 12:00:00 AM	 
Bill Howich Chrysler		DESOLATION SOUND LAND CORP.	3373 WILLOW CREEK ROAD	CAMPBELL RIVER	B.C.	V9W 0A5	2509238189	2502010155	2009	WILDWOOD	T19FDLE	04/28/2010 12:00:00 AM	 
Bill Howich Chrysler	DEVIN	PERRAULT	754 7TH AVE	CAMPBELL RIVER	BC	V9W 4A4	2509028010		1999	OLDSMOBILE	ALERO	11/28/2012 12:00:00 AM	 
Bill Howich Chrysler	DIANE	BAKKER	4798 ANDY ROAD	CAMPBELL RIVER	BC	V9H 1C6			2010	JEEP	LIBERTY	05/06/2011 12:00:00 AM	 
Bill Howich Chrysler	FRANKLIN	DOBSON	1906 MARINER ROAD	COURTENAY	BC	V9J 1W8	2503310575		2014	EVINRUDE	E115DSLAF	03/24/2014 12:00:00 AM	 
Bill Howich Chrysler	DONOVAN	LAFAVE	372 MCLEAN STREET	CAMPBELL RIVER	BC	V9W 2M6	2502033093		2009	US CARGO	SG6510SA	03/08/2010 12:00:00 AM	 
Bill Howich Chrysler		D J B INVESTMENTS INC	609 ASH STREET	CAMPBELL RIVER	BC	V9W 1G1	2502876174		2010	DODGE	RAM 1500	03/20/2010 12:00:00 AM	 
Bill Howich Chrysler	DONALD	ALKSNE	8847 DRIFTWOOD RD	BLACK CREEK	B.C.	V9J 1A9	2503375766		2009	EVINRUDE	75 HP	05/26/2010 12:00:00 AM	 
Bill Howich Chrysler	DONALD/TAMMY	MARCOTTE	174 STEWART ROAD	SALT SPRING ISLAND	BC	V8K 2C4			2006	DODGE	RAM 3500	11/08/2010 12:00:00 AM	 
Bill Howich Chrysler	DON	CROITOR	2726 NEW GLASGOW RD	PEI	BC				1992	BUICK	REGAL	11/10/2010 12:00:00 AM	 
Bill Howich Chrysler	DONALD	WILLIE	1539 BEACH ROAD	PORT MCNEILL	BC	V0N 2R0			2006	DODGE	DAKOTA	12/14/2010 12:00:00 AM	 
Bill Howich Chrysler	DONALD	PELLEGRIN	6530 CHILCO AVEENUE	POWELL RIVER	BC	V8A 4Y7			2013	DODGE	RAM 1500	06/27/2013 12:00:00 AM	 
Bill Howich Chrysler	DOROTHY	PARENT	560 BAMBRICK PLACE	COMOX	BC	V9M 1Z4	2503399688		1997	DODGE	RAM 1500	12/15/2009 12:00:00 AM	 
Bill Howich Chrysler	DORI & TIM	DAVIS	847 THURLOW CRESENT	CAMPBELL RIVER	BC	V9W 6V6	2502874254		2010	DODGE	RAM 1500	02/23/2010 12:00:00 AM	 
Bill Howich Chrysler	DOUGLAS	JOHN	PO BOX 166 HHEN-KO-US RESERVE	ZEBALLOS	BC	V0P 2A0	2507612064		2011	DODGE	RAM 1500	12/14/2010 12:00:00 AM	 
Bill Howich Chrysler	DOUGLAS	CROMER	150 BARLOW ROAD	CAMPBELL RIVER	BC	V9W 1T2	2509237488		2008	MERCURY OUTBOA	60 HP	04/23/2011 12:00:00 AM	 
Bill Howich Chrysler	DOUGLAS	KOSTERING	PO BOX 105  330 CEDAR STREET	ALERT BAY	BC	V0N 1A0	2509745945		2012	DODGE	RAM 1500	02/22/2013 12:00:00 AM	 
Bill Howich Chrysler	DOUGLAS	SHILLITO	3092 BRENT ROAD	CAMPBELL RIVER	BC	V9H 1A7	2509237687	2508502226	2003	JEEP	WRANGLER/TJ	06/06/2013 12:00:00 AM	 
