"Dealership Name","First Name","Last Name",Address,"Apartment #",City,Province/State,"Postal Code/Zip","Home Phone","Work Phone",Year,Make,Model,"Purchase Date","Trade In Value"
"Bill Howich Chrysler",N/A,,"BOX 272, 91 MARYLAND DRIVE",,"CAMPBELL RIVER",BC,"V9W 1V7",2502032864,,2013,DODGE,"GRAND CARAVAN","05/24/2013 12:00:00 AM"
"Bill Howich Chrysler",N/A,"CAMPBELL RIVER HONDA","2773 ISLAND HIGHWAY",,"CAMPBELL RIVER",BC,"V9W 2H4",2502860641,2502860641,2007,HONDA,RIDGELINE,"01/12/2010 12:00:00 AM"
"Bill Howich Chrysler",N/A,"FN 99 NEW&USED AUTO&TRUCK PARTS","5400 DUNCAN ROAD",,"CAMPBELL RIVER",BC,"V9H 1N6",2502878354,2502878354,2000,DODGE,CARAVAN,"06/11/2013 12:00:00 AM"
"Bill Howich Chrysler",N/A,,"5400 DUNCAN BAY ROAD",,"CAMPBELL RIVER",BC,"V9W 1N6",,2502878354,1999,PONTIAC,"GRAND AM","07/31/2013 12:00:00 AM"
"Bill Howich Chrysler",HEATHER,HUMCHITT,,,"CAMPBELL RIVER",BC,"V9W 2G8",2502030690,2502030690,2003,DODGE,"GRAND CARAVAN","11/27/2012 12:00:00 AM"
"Bill Howich Chrysler",HENRY,BREITKOPF,"2176 SALMON POINT ROAD",,"CAMPBELL RIVER",B.C.,"V9H 1E5",2509234159,,2013,DODGE,JOURNEY,"02/09/2013 12:00:00 AM"
"Bill Howich Chrysler",JACQUES,LEBLANC,"#9- 1451 PERKINS RD",,"CAMPBELL RIVER",BC,"V9W 4R8",2509141441,,2012,DODGE,JOURNEY,"07/28/2012 12:00:00 AM"
"Bill Howich Chrysler",JESSICA,KOTZMA,"Apt # 36 391 WESTGATE ROAD","APT 36","CAMPBELL RIVER",BC,"V9W 1R7",2509239630,,1996,DODGE,CARAVAN,"11/05/2012 12:00:00 AM"
"Bill Howich Chrysler",JOHN,FOZZARD,"163 CHERRY TREE LANE",,"CAMPBELL RIVER",B.C.,"V9W 8E9",2509233534,,2012,JEEP,"GRAND CHEROKEE","09/15/2012 12:00:00 AM"
"Bill Howich Chrysler",JOHN,CLARK,"205 ROCKLAND RD.",,"CAMPBELL RIVER",BC,"V9W 1N5",2509234695,,1997,"LAND ROVER",DISCOVERY,"01/18/2013 12:00:00 AM"
"Bill Howich Chrysler",NIKKI,GRUEN,"353 MCCARTHY",,"CAMPBELL RIVER",BC,"V9W 2R3",2502043444,,1997,DODGE,STRATUS,"04/05/2011 12:00:00 AM"
"Bill Howich Chrysler",PATRICK,CUDMORE,"1780 ASPEN WAY",,"CAMPBELL RIVER",BC,"V9W 7E5",2509144072,,2007,JEEP,COMPASS,"10/12/2010 12:00:00 AM"
"Bill Howich Chrysler",RAYMOND,SHIELDS,"1841-19TH. AVENUE",,"CAMPBELL RIVER",BC,"V9W 4M6",2502864224,,2002,DODGE,DAKOTA,"10/06/2012 12:00:00 AM"
"Bill Howich Chrysler",N/A,"RHYAN LEASING INC.","#124-1334 ISLAND HIGHWAY",,"CAMPBELL RIVER",BC,"V9W 8C9",,2508503276,2003,DODGE,"GRAND CARAVAN","07/26/2010 12:00:00 AM"
"Bill Howich Chrysler",RODNEY,SCHECK,"1420 16TH AVENUE",,"CAMPBELL RIVER",BC,"V9W 2E3",2509144055,,2002,NISSAN,ALTIMA,"04/18/2012 12:00:00 AM"
"Bill Howich Chrysler",ETHEL,SAXY,"4811 CROYDON ROAD",,"CAMPBELL RIVER",BC,"V9H 1C1",7789083071,,2012,DODGE,JOURNEY,"03/24/2012 12:00:00 AM"
"Bill Howich Chrysler",HEATHER,SOMERSET,"20 SOUTH MCLEAN",,"CAMPBELL RIVER",BC,"V9W 6E1",2508300043,,2014,GMC,TERRAIN,"04/15/2014 12:00:00 AM"
"Bill Howich Chrysler",STEVE,HOLLINGSWORTH,"698 BEAVERLODGE ROAD",,"CAMPBELL RIVER",BC,"V9W 5P9",2502877739,,2001,JAGUAR,S-TYPE,"05/30/2011 12:00:00 AM"
"Bill Howich Chrysler",BARBARA,TADEI,"569 SOUTH ALDER STREET",,"CAMPBELL RIVER",B.C.,"V9W 6E7",2502873153,2502868360,2014,JEEP,CHEROKEE,"02/07/2014 12:00:00 AM"
"Bill Howich Chrysler",TINA,BAILEY,"132 MARYLAND ROAD",,"CAMPBELL RIVER",BC,"V9W 8G2",,,2014,JEEP,"GRAND CHEROKEE","09/21/2013 12:00:00 AM"
"Bill Howich Chrysler",KATHERINE,MCEWEN,"3790 DISCOVERY DRIVE",,"CAMPBELL RIVER",BC,"V9W 4X4",2502860979,,2010,JEEP,"GRAND CHEROKEE","03/31/2014 12:00:00 AM"
"Bill Howich Chrysler",AMBER,MUNRO,"1705 CAPTAIN JOHN ROAD",,"CAMPBELL RIVER",B.C.,"V9W 8C4",2508303677,2502863400,1997,FORD,EXPEDITION,"01/03/2011 12:00:00 AM"
"Bill Howich Chrysler",ANDREA,RUNGE,"#11-1535 DINGWALL ROAD",,"CAMPBELL RIVER",BC,"V9W 3S8",,,1997,DODGE,STRATUS,"04/05/2011 12:00:00 AM"
"Bill Howich Chrysler",ANDRE,DAVIDSON,"3974 LEEMIMG ROAD",,"CAMPBELL RIVER",BC,"V9H 1H2",7784182256,,2000,DODGE,DURANGO,"10/16/2013 12:00:00 AM"
"Bill Howich Chrysler",GORDON,ANDERSON,"682 ELAND DRIVE",,"CAMPBELL RIVER",B.C.,"V9W 6Y2",2509233043,,2014,JEEP,CHEROKEE,"04/14/2014 12:00:00 AM"
"Bill Howich Chrysler",BALINT,JUHASZ,"#217-350 SOUTH ISLAND HIGHWAY","APT 217","CAMPBELL RIVER",BC,"V9W 1A5",2502861290,,2002,FORD,WINDSTAR,"09/21/2010 12:00:00 AM"
"Bill Howich Chrysler",BARB,"VAN DYK","246 ROCKLAND ROAD",,"CAMPBELL RIVER",BC,"V9W 1N6",2509234090,2509234090,2006,JEEP,LIBERTY,"06/15/2010 12:00:00 AM"
"Bill Howich Chrysler",PAUL,BEGG,"3957 APPIAN WAY",,"CAMPBELL RIVER",BC,"V9H 1G3",2509236768,,2010,JEEP,WRANGLER,"02/07/2014 12:00:00 AM"
"Bill Howich Chrysler",BEVERLY,RUTTAN,"550 CHARLES PLACE",,"CAMPBELL RIVER",BC,"V9W 3Y2",2508505462,,1995,DODGE,STRATUS,"05/29/2012 12:00:00 AM"
"Bill Howich Chrysler",BRUCE,CARMICHAEL,"7-1160 SHELLBOURNE BLVD",,"CAMPBELL RIVER",BC,"V9W 5G5",2508000273,,2010,JEEP,WRANGLER,"04/24/2010 12:00:00 AM"
"Bill Howich Chrysler",BRUCE,NELSON,"607 NURSERY ROAD",,"CAMPBELL RIVER",BC,"V9H 1P4",2509141235,,1995,JEEP,"GRAND CHEROKEE","08/07/2010 12:00:00 AM"
"Bill Howich Chrysler",N/A,"C.R. HYUNDAI","1700 COULTER ROAD",,"CAMPBELL RIVER",BC,"V9W 7MI",,2502861001,2011,HYUNDAI,TUCSON,"11/24/2012 12:00:00 AM"
"Bill Howich Chrysler","DANIEL (PAT)",CAREW,"940A WATSON CRESCENT",,"CAMPBELL RIVER",BC,"V9W 5N4",2509143060,,2007,CHEVROLET,COLORADO,"03/07/2014 12:00:00 AM"
"Bill Howich Chrysler",DONALD,HUDSON,"1816 SNOWBIRD CRESCENT",,"CAMPBELL RIVER",BC,"V9W 6P8",2509266021,2508502100,2011,JEEP,COMPASS,"04/10/2012 12:00:00 AM"
"Bill Howich Chrysler",CHRISTINA,CORDER,"8-2033 VARSITY DRIVE",,"CAMPBELL RIVER",BC,"V9H 1V2",,,2010,DODGE,"GRAND CARAVAN","06/15/2010 12:00:00 AM"
"Bill Howich Chrysler",CHRISTINE,ARSENAULT,"#1784 SOUTH ISLAND HIGHWAY",,"CAMPBELL RIVER",BC,"V9W 1B8",2509260405,,2003,DODGE,CARAVAN,"02/22/2013 12:00:00 AM"
"Bill Howich Chrysler",ROGER,DEGRACE,"560 LAUREL CRESCENT",,"CAMPBELL RIVER",BC,"V9W 6K8",2509239422,,2010,DODGE,JOURNEY,"06/26/2010 12:00:00 AM"
"Bill Howich Chrysler",N/A,"COASTLINE MAZDA","2280 ISLAND HIGHWAY",,"CAMPBELL RIVER",BC,"V9W 2G8",,2509140047,2002,PONTIAC,"GRAND AM","04/30/2013 12:00:00 AM"
"Bill Howich Chrysler",COURTNEY,QUIN,"620 ASH STREET",,"CAMPBELL RIVER",BC,"V9W 1E9",2508501556,,2006,GMC,CANYON,"08/23/2013 12:00:00 AM"
"Bill Howich Chrysler",DANYA,DAVIDSON,"3974 LEEMING RD",,"CAMPBELL RIVER",BC,"V9H 1H2",7784182256,7783462256,2000,DODGE,DURANGO,"02/01/2012 12:00:00 AM"
"Bill Howich Chrysler",DAVID,NUTT,"1883 SNOWBIRD CRES",,"CAMPBELL RIVER",BC,"V9W 6P9",2509260752,,2007,JEEP,PATRIOT,"06/03/2011 12:00:00 AM"
"Bill Howich Chrysler",DEVIN,PERRAULT,"754 7TH AVE",,"CAMPBELL RIVER",BC,"V9W 4A4",2509028010,,1999,OLDSMOBILE,ALERO,"05/26/2011 12:00:00 AM"
"Bill Howich Chrysler",DEX,SEGGIE,"4056 BARCLAY ROAD",,"CAMPBELL RIVER",BC,"V9W 4Y6",2502869935,7808305145,2010,JEEP,WRANGLER,"04/08/2011 12:00:00 AM"
"Bill Howich Chrysler",DIANE,TILMA,"#2-800 NICHOLLS ROAD",,"CAMPBELL RIVER",B.C.,"V9W 3P6",2509234707,2502860391,2010,DODGE,"GRAND CARAVAN","03/04/2011 12:00:00 AM"
"Bill Howich Chrysler",JOSEPH,DOIRON,"112 - 2700 WOODBURN RD",,"CAMPBELL RIVER",BC,"V9W 4R4",2508303002,,2013,JEEP,PATRIOT,"11/26/2013 12:00:00 AM"
"Bill Howich Chrysler",DOUGLAS,ANDERSON,"2306A OYSTER GARDEN",,"CAMPBELL RIVER",BC,"V9H 3E7",2509235507,,2011,DODGE,JOURNEY,"08/10/2011 12:00:00 AM"
"Bill Howich Chrysler","DOUGLAS & ANDREA",DRAKE,"2340 HENDERSON AVENUE",,"CAMPBELL RIVER",BC,"V9W 6E3",2502872466,,2005,CADILLAC,ESCALADE,"09/13/2012 12:00:00 AM"
"Bill Howich Chrysler",RICHARD,LONNEN,"2060 COLLEGE DRIVE",,"CAMPBELL RIVER",BC,"V9H 1T8",2509239668,,2008,CHRYSLER,SEBRING,"03/07/2012 12:00:00 AM"
"Bill Howich Chrysler",ESTHER,JOHN,"#3- 300 ROBRON ROAD",,"CAMPBELL RIVER",BC,"V9W 5P2",,,2000,DODGE,CARAVAN,"04/30/2013 12:00:00 AM"
"Bill Howich Chrysler",FARON,PARLEE,"92 LARWOOD ROAD",,"CAMPBELL RIVER",BC,V9W,2508307030,,2001,DODGE,DURANGO,"09/14/2011 12:00:00 AM"
"Bill Howich Chrysler",FRANK,GREENS,"2243 STEELHEAD ROAD",,"CAMPBELL RIVER",BC,"V9W 4P3",2502869696,,2007,DODGE,CARAVAN,"05/29/2013 12:00:00 AM"
"Bill Howich Chrysler",GORDON,LEECH,"645 ROBRON ROAD",,"CAMPBELL RIVER",BC,"V9W 6A1",7783480413,2502863717,2001,PONTIAC,MONTANA,"10/17/2011 12:00:00 AM"
"Bill Howich Chrysler",GREGORY,CORMACK,"4322 BARCLAY ROAD",,"CAMPBELL RIVER",BC,"V9W 4Y8",2502879700,,2007,FORD,RANGER,"03/30/2012 12:00:00 AM"
"Bill Howich Chrysler",HELEN,NELSON,"104-283 IST AVENUE",,"CAMPBELL RIVER",BC,"V9W 3S9",2509141049,,2009,DODGE,AVENGER,"08/27/2010 12:00:00 AM"
"Bill Howich Chrysler",HENRY,JENSEN,"210 FINCH ROAD",,"CAMPBELL RIVER",BC,"V9H 1K6",2508304001,,1996,DODGE,DAKOTA,"07/06/2013 12:00:00 AM"
"Bill Howich Chrysler",JODEY,INGALLS,"290 CAROLYN ROAD",,"CAMPBELL RIVER",BC,"V9W 5M6",2508301638,2502866998,2012,CHRYSLER,300,"01/15/2014 12:00:00 AM"
"Bill Howich Chrysler",IRENE,WYDENES,"25-678 7TH AVE.",,"CAMPBELL RIVER",BC,"V9W 4A4",2508309015,,2001,OLDSMOBILE,ALERO,"10/29/2013 12:00:00 AM"
"Bill Howich Chrysler",LEONARD,IRVING,"2676 SOUTH ISLAND HIGHWAY","APT 101","CAMPBELL RIVER",BC,"V9W 1C7",2509260881,,2010,DODGE,CHARGER,"03/14/2014 12:00:00 AM"
"Bill Howich Chrysler",LAVIGNE,JACK,"#1-681-9TH. AVENUE",,"CAMPBELL RIVER",BC,"V9W 4B7",2502029215,,2002,PONTIAC,MONTANA,"01/08/2014 12:00:00 AM"
"Bill Howich Chrysler",JAMES,DOBINSON,"655 ASH STREET",,"CAMPBELL RIVER",B.C.,"V9W 1G1",2502877504,2502872200,2013,DODGE,JOURNEY,"03/12/2013 12:00:00 AM"
"Bill Howich Chrysler",JANEEN,MATHESON,"1732 PENFIELD ROAD",,"CAMPBELL RIVER",BC,"V9W 7B4",2502031657,2509143200,2007,JEEP,PATRIOT,"11/08/2012 12:00:00 AM"
"Bill Howich Chrysler",JENNIFER,COMEU,"601 CHRISTOPHER",,"CAMPBELL RIVER",BC,"V9W 6A4",2502866655,,2008,PONTIAC,G6,"08/04/2012 12:00:00 AM"
"Bill Howich Chrysler",JERRYD,ROBERTSON,"#1-4344 BARCLAY ROAD",,"CAMPBELL RIVER",BC,"V9W 4V7",2509141339,2502183464,2006,PONTIAC,"GRAND PRIX","08/13/2011 12:00:00 AM"
"Bill Howich Chrysler","JOESH (JOHN)","VAN ACHTE","#45-1160 SHELLBOURNE BOULEVARD",,"CAMPBELL RIVER",BC,,2509233394,,2010,DODGE,CHALLENGER,"03/24/2011 12:00:00 AM"
"Bill Howich Chrysler",JOHN,HAMMOND,"132 ENGLES ROAD",,"CAMPBELL RIVER",BC,"V9H 1J8",2509237378,,2007,DODGE,DAKOTA,"03/12/2011 12:00:00 AM"
"Bill Howich Chrysler",JOHN,BROOMFIELD,"#101-550 SOUTH ISLAND HWY.",,"CAMPBELL RIVER",BC,"V9W 1A5",2509142225,2502022178,2012,CHRYSLER,200,"04/10/2012 12:00:00 AM"
"Bill Howich Chrysler",WILLIAM,SCHOEN,"725 LAIRD CRESCENT",,"CAMPBELL RIVER",BC,"V9W 5X5",2509236058,,2005,CHEVROLET,BLAZER,"05/28/2010 12:00:00 AM"
"Bill Howich Chrysler",NETTIE,PETERSON,"8372 SOUTH ISLAND HIGHWAY",,"CAMPBELL RIVER",BC,"V9H 1M2",2509238224,,2001,FORD,EXPLORER,"09/08/2010 12:00:00 AM"
"Bill Howich Chrysler",LAVERNE,REMIGI,"3181 OWEN PLACE",,"CAMPBELL RIVER",BC,"V9H 0B4",2509236999,,2010,DODGE,CHARGER,"03/31/2012 12:00:00 AM"
"Bill Howich Chrysler",LORRAINE,MORELAND,"87 McGIMPSEY ROAD",,"CAMPBELL RIVER",BC,"V9H 1K8",2509260110,,2007,JEEP,COMPASS,"05/13/2011 12:00:00 AM"
"Bill Howich Chrysler",NICHOLAS,SABO,"3-869 ALDER STREET",,"CAMPBELL RIVER",BC,"V9W 2P4",2508501103,,2003,NISSAN,XTERRA,"03/28/2012 12:00:00 AM"
"Bill Howich Chrysler",TRICIA,SINCLAIR,"532 ALBATROSS STreet",,"CAMPBELL RIVER",BC,"V9W 6E8",2508303800,,1998,DODGE,DURANGO,"04/17/2010 12:00:00 AM"
"Bill Howich Chrysler",NORMAND,BETTIS,"#4-1406 PERKINS ROAD",,"CAMPBELL RIVER",BC,"V9W 4R9",2502863367,2502863373,2009,JEEP,PATRIOT,"06/20/2012 12:00:00 AM"
"Bill Howich Chrysler",PAIGE,MONKS,"1657 GALERNO RD",,"CAMPBELL RIVER",BC,"V9W 1K5",,2502879555,2003,JEEP,LIBERTY,"08/23/2011 12:00:00 AM"
"Bill Howich Chrysler","PAUL & MAUREEN",RUSSELL,"2615 COOK ROAD",,"CAMPBELL RIVER",BC,"V9H 1T2",2509233547,2502032719,2013,JEEP,"GRAND CHEROKEE","12/24/2012 12:00:00 AM"
"Bill Howich Chrysler",PHILIP,HINDS,"4061 YORK ROAD",,"Campbell River",BC,"V9H 1B3",2509234377,,2009,MAZDA,TRIBUTE,"01/28/2012 12:00:00 AM"
"Bill Howich Chrysler",RAYMOND,PALMER,"2738 BRADFORD DRIVE",,"CAMPBELL RIVER",B.C.,"V9W 0A3",2509235853,,2007,JEEP,"GRAND CHEROKEE","08/09/2010 12:00:00 AM"
"Bill Howich Chrysler",REBECCA,DAVIES,"895 MARINA BOULEVARD",,"CAMPBELL RIVER",B.C.,"V9W 1X8",2509238716,,2010,DODGE,"GRAND CARAVAN","02/10/2011 12:00:00 AM"
"Bill Howich Chrysler",REGINALD,WESTCOTT,"4178 MACAULAY ROAD",,"CAMPBELL RIVER",BC,V9JC19,2507023974,,2007,JEEP,PATRIOT,"11/02/2013 12:00:00 AM"
"Bill Howich Chrysler",REX,TODD,"212-872 SOUTH ISLAND HWY",,"CAMPBELL RIVER",BC,"V9W 1A8",7784201977,,1992,FORD,AEROSTAR,"09/11/2010 12:00:00 AM"
"Bill Howich Chrysler",ROBERT,WILD,"475 EVERGREEN ROAD",,"CAMPBELL RIVER",BC,"V9W 3R6",2502040807,,1999,DODGE,CARAVAN,"03/03/2011 12:00:00 AM"
"Bill Howich Chrysler",RUSSELL,PEARCE,"924 GALERNO ROAD",,"CAMPBELL RIVER",BC,"V9W 1J1",2509239401,,2007,JEEP,COMPASS,"02/29/2012 12:00:00 AM"
"Bill Howich Chrysler",RYAN,CURTIS,"2978 MARTIN ROAD",,"CAMPBELL RIVER",BC,"V9W 1M3",2502041177,6045916901,2002,GMC,ENVOY,"08/13/2011 12:00:00 AM"
"Bill Howich Chrysler",SALLY,MAXWELL,"183 STRATHCONA WAY",,"CAMPBELL RIVER",BC,"V9H 0B1",2509238103,7784200200,1998,DODGE,DAKOTA,"09/07/2011 12:00:00 AM"
"Bill Howich Chrysler",SAMANTHA,STORFIE,"460 HARROGATE ROAD",,"CAMPBELL RIVER",BC,"V9W 1W2",2509260568,2502866166,2013,DODGE,JOURNEY,"06/26/2013 12:00:00 AM"
"Bill Howich Chrysler",SARAH,JORDAN,"1641- 19TH AVENUE",,"CAMPBELL RIVER",BC,"V9W 1M4",2508505460,,1995,"LAND ROVER",DISCOVERY,"08/15/2012 12:00:00 AM"
"Bill Howich Chrysler",SEAN,MATILPI,"540 LOUGHBOROUGH DRIVE",,"CAMPBELL RIVER",BC,"V9W 8G4",2509143007,,1999,LINCOLN,NAVIGATOR,"09/28/2010 12:00:00 AM"
"Bill Howich Chrysler",SHANNON,JOHNSON,"4748A UPLAND ROAD",,"CAMPBELL RIVER",BC,"V9H 1B9",7784202282,0000000000,1997,DODGE,STRATUS,"08/17/2011 12:00:00 AM"
"Bill Howich Chrysler",LINDA,SIMPER,"38- 3647 VERMONT PLACE",,"CAMPBELL RIVER",BC,"V9H 0B9",2502871430,,2014,DODGE,DART,"04/19/2014 12:00:00 AM"
"Bill Howich Chrysler",STEVE,SOMERSET,"2138 SOUTH ALDER STREET",,"CAMPBELL RIVER",BC,"V9W 1M6",,,2003,JEEP,WRANGLER,"10/05/2013 12:00:00 AM"
"Bill Howich Chrysler",N/A,"THE JOHN HOWARD SOCIETY OF NORTH","#201-140-10TH. AVENUE",,"CAMPBELL RIVER",BC,"V9W 4E3",,2502860222,2011,DODGE,"GRAND CARAVAN","10/20/2011 12:00:00 AM"
"Bill Howich Chrysler",THOMAS,LANE,"401 STARFEDERN",,"CAMPBELL RIVER",BC,"V8Y 1J9",,2504133270,2005,CHRYSLER,SEBRING,"08/06/2010 12:00:00 AM"
"Bill Howich Chrysler",N/A,"TRIGON TRUCKING LTD","762 THULIN STREET",,"CAMPBELL RIVER",BC,"V9W 2L5",2508300500,2502874252,1995,CHEVROLET,SUBURBAN,"05/06/2010 12:00:00 AM"
"Bill Howich Chrysler",,"TYEE CHEVROLET BUICK GMC LTD.","570 -13TH AVENUE",,"CAMPBELL RIVER",BC,"V9W 4G8",,2502879511,2008,JEEP,PATRIOT,"03/06/2012 12:00:00 AM"
"Bill Howich Chrysler",WARREN,BURD,"5606 RACE POINT ROAD",,"CAMPBELL RIVER",BC,"V9H 1N7",2502873712,,2014,JEEP,"GRAND CHEROKEE","07/10/2013 12:00:00 AM"
"Bill Howich Chrysler",WENDY,BRAYE,"513 SOUTH ALDER STREET",,"CAMPBELL RIVER",BC,"V9W 5B2",2508301570,,2000,MAZDA,MPV,"05/18/2010 12:00:00 AM"
"Bill Howich Chrysler",DARRELL,WENGER,"405A 650 ISLAND HIGHWAY SOUTH",,"CAMPBELL RIVER",BC,"V9W 1A7",,,1994,BUICK,REGAL,"03/11/2014 12:00:00 AM"
"Bill Howich Chrysler",GRAHAM,WILLIAMS,"#202 169 S ISLAND HIGHWAY",,"CAMPBELL RIVER",BC,"V9W 6W2",7789951397,,2005,JEEP,LIBERTY,"02/08/2014 12:00:00 AM"
"Bill Howich Chrysler",MANFRED,RUHL,"2730 SOUTH ISLAND HWY",,"CAMPBELL RIVER",BC,"V9W 1C7",2509236410,,2005,DODGE,CARAVAN,"10/25/2012 12:00:00 AM"
"Bill Howich Chrysler",MICHAEL,GALLANT,"542 PINECREST ROAD",,"CAMPBELL RIVER",BC,"V9W 3P1",2502043307,2502877433,2011,VOLKSWAGEN,JETTA,"10/23/2013 12:00:00 AM"
