Dealership Name    FirstName	LastName    Address	Apartment	City	State	Zip	 HomePhone	BusinessPhone	 Year	Make  Model   Purchase Date Trade In Value
Wellington Motors	TREVOR	
KERWIN	3705 HIGHWAY 6	HAGERSVILLE	ON	N0A1H0	2899210194		2010	DODGE	RAM 1500	03/23/2010	 
Wellington Motors	BRIAN	
REID	4421 SIDEROAD 10 NORTH	CAMBRIDGE	ON	N3C2V4	5196512020	5196586656	2009	DODGE	AVENGER	11/12/2009	 
Wellington Motors	TRACY	
AMOS	421 OLD NEWBURY LANE	CAMBRIDGE	ON	N3H5N9	5192779939		2010	DODGE	AVENGER	07/16/2013	 
Wellington Motors	PATRICIA	
SNYDER	862 KATHERINE ST	WEST MONTROSE RR #	ON	N0B2V0	5196692361		2012	CHRYSLER	200	07/23/2013	 
Wellington Motors	VAN	
NGUYEN	304-244 WILLOW ROAD	GUELPH	ON	N1H6R6	2265002333		2013	DODGE	GRAND CARAVAN	07/26/2013	 
Wellington Motors		
COX CONSTRUCTION LTD	P.O. BOX 427 STN MAIN687 ERAMOSA RD	GUELPH	ON	N1H6K5		5198246570	2014	RAM	2500	03/27/2014	 
Wellington Motors	SABRINA	
MALLAIS	33 SCOTT STREET	GRAND VALLEY	ON	L9W5X3	5199436392		2010	JEEP	WRANGLER	06/17/2013	 
Wellington Motors	MICHEAL	
ROBERTSON	2 DUCK LANE	GUELPH	ON	N1L0B2	5192652719	5198224420	2013	JEEP	WRANGLER UNLIMITED	07/03/2013	 
Wellington Motors	KENNETH	
ADAMS	726 SHEDIAC CRES	WATERLOO	ON	N2K3M2	5198850622		2013	FIAT	500	05/28/2013	 
Wellington Motors	JENNIFER	
WARFORD	4340 SPRUCE AVE	BURLINGTON	ON	L7L1L5	9056372052		2013	FIAT	500	05/25/2013	 
Bill Howich Chrysler		414403 B.C. LTD.	BOX 10, 115 MAQUINNA STREET	ZEBALLOS	B.C.	V0P 2A0	2507614137	2507614044	1995	CHEVROLET	TAHOE K1500	10/26/2011 12:00:00 AM	 
Bill Howich Chrysler	THOMAS	ABERDEEN	40 CAROLINA DR	CAMPBELL RIVER	BC	V9H 1W2	2509234522		2003	JAGUAR	X-TYPE	03/22/2014 12:00:00 AM	 
Bill Howich Chrysler	ALAINA	LANDER	#423A HILCHEY ROAD	CAMPBELL RIVER	BC	V9W 1P9			2008	JEEP	COMPASS	01/05/2013 12:00:00 AM	 
Bill Howich Chrysler	ALEVIA	JOSEPH	2	CAMPBELL RIVER	B.C.				1995	WESTWIND	5th wheel	05/06/2010 12:00:00 AM	 
Bill Howich Chrysler	ANDREW	SAUNDERS	560 BARTLETT ROAD	CAMPBELL RIVER	BC	V9W 6K2	2509233577	2502872975	2008	FORD	F150	08/16/2011 12:00:00 AM	 
Bill Howich Chrysler		ARI FINANCIAL SERVICES INC.	STE #600, 1270 CENTRAL PARKWAY	MISSISSAUGA	ONTARIO	L5C 4P4	8003637676		2011	DODGE	RAM 2500	05/18/2011 12:00:00 AM	 
Bill Howich Chrysler	ARTHUR	AMBERSON	919 HERITAGE MEADOW	CAMPBELL RIVER	BC	V9W 8H1	2502863588	2502877147	2011	CREEK SIDE	23RKS	10/20/2010 12:00:00 AM	 
Bill Howich Chrysler	ARTHUR	POLLARD	#31-120 FINHOLM STREET	PARKSVILLE	BC	V9P 1J4	2505868596		2007	CHEVROLET	TRAILBLAZER	08/09/2011 12:00:00 AM	 
Bill Howich Chrysler	BARRY	ROWE	3367 KENTWOOD ROAD	COURTENAY	BC	V9N 9R2	2503362116		2009	DODGE	RAM 1500	07/25/2012 12:00:00 AM	 
Bill Howich Chrysler	BETTY	SCHMIDT	1413 CLIFFE CRES 	CAMPBELL RIVER	BC	V9W 7K6	2502866760		2013	DODGE	GRAND CARAVAN	05/02/2013 12:00:00 AM	 
Bill Howich Chrysler	BILL	WILLIAMS	6-534 CEDAR STREETAPT 6	CAMPBELL RIVER	BC	V9W 2V6	2502879249	2508951249	1999	BIGFOOT	COLUMBIA RIVER	08/17/2012 12:00:00 AM	 
Bill Howich Chrysler	BARRY	BOWDEN	BOX 27060, 3690  S. ISLAND HWY	CAMPBELL RIVER	BC	V9H 0B8	2509238941		2014	CONTINENTAL	ORRM612SA	04/10/2014 12:00:00 AM	 
Bill Howich Chrysler	BRENDA	LEO	GENERAL DELIVERY	KYUQUOT	BC	V0P 1J0	2503325389	2503325259	2012	DODGE	RAM 1500	04/02/2012 12:00:00 AM	 
Bill Howich Chrysler	CARL	GOLDSCHEIDER	7522 ISLAND HWY	MERVILLE	BC	V0R 2M0			2012	US CARGO	SG6512SA	06/01/2012 12:00:00 AM	 
Bill Howich Chrysler	CHRISTOPHER	MACDONALD	609 NELSON ROAD	CAMPBELL RIVER	BC	V9H 1V1	2509230968		2010	LUND	12 FT WC	06/07/2010 12:00:00 AM	 
Bill Howich Chrysler	ANDREW	SCHRAM	#17-3704 MELROSE ROAD	QUALICUM BEACH	BC	V9K 1V3	2507525194		2009	JEEP	PATRIOT	03/09/2013 12:00:00 AM	 
Bill Howich Chrysler	CHUN	PANG	BOX 10, 111 NIGEI STREET	PORT ALICE	BC	V0N 2N0			2010	CARRY ON	5X8 UTILITY	07/04/2011 12:00:00 AM	 
Bill Howich Chrysler	DANIEL	WALLIS	105 VISTA BAY DRIVE	CAMPBELL RIVER	BC	V9W 6L5	2509233916		2011	CREEKSIDE	23RKS	09/04/2012 12:00:00 AM	 
Bill Howich Chrysler	DARCY	FRIESEN	2020 COLLEGE DRIVE	CAMPBELL RIVER	BC	V9H 1T8	2509231242		2002	VOLKSWAGEN	JETTA	05/05/2012 12:00:00 AM	 
Bill Howich Chrysler	DAVID	COMEAU	2547 SOUTH ISLAND HIGHWAY	CAMPBELL RIVER	B.C.	V9W 1C5	2509234860		1992	DODGE	CARAVAN	02/13/2010 12:00:00 AM	 
Bill Howich Chrysler	DAVE	LUOMA	2255 JOANNE DR	CAMPBELL RIVER	BC	V9H 1T6	2509260051		2010	DODGE	RAM TRUCK	11/01/2010 12:00:00 AM	 
Bill Howich Chrysler	DAVID	MADILL	BOX 315, 19 EDITH ROAD	TAHSIS	BRITISH COLUMBIA	V0P 1X0	2509347955		2010	EVINRUDE	90 HP ETEC	06/10/2011 12:00:00 AM	 
Bill Howich Chrysler	DAVID	ANDRES	746 ORIBI DRIVE	CAMPBELL RIVER	BC	V9W 8B2	2502877302		2011	SANDPIPER	T273RBWS	06/28/2011 12:00:00 AM	 
Bill Howich Chrysler	DAVID	ROEMER	4295 BARCLAY ROAD	CAMPBELL RIVER	B.C.	V9W 4Y7	2502866368	2502879571	2011	FORD	F150	02/25/2012 12:00:00 AM	 
Bill Howich Chrysler	DAVID	KINSKOFER	640 FOX ROADAPT BOX 582	QUATHIASKI COVE	BC	V0P 1N0			2012	DODGE	RAM 1500	09/19/2012 12:00:00 AM	 
Bill Howich Chrysler	DEBORAH	BECK	751 NICHOLLS ROAD	CAMPBELL RIVER	BC	V9W 3P7	2508301798		1996	CHEVROLET	SILVERADO	03/12/2013 12:00:00 AM	 
Bill Howich Chrysler	DONALD	WILLIE	1539 BEACH ROAD	PORT MCNEILL	BC	V0N 2R0			2010	EVINRUDE	30 HP ETEC	05/30/2011 12:00:00 AM	 
Bill Howich Chrysler	DONALD	WATT	BOX 322,  801 MARINE DRICE	PORT ALICE	BC	V0N 2N0	2502846190		2007	DODGE	CALIBER	08/16/2011 12:00:00 AM	 
