Dealership Name    FirstName	LastName    Address	Apartment	City	State	Zip	 HomePhone	BusinessPhone	 Year	Make  Model   Purchase Date Trade In Value
Bill Howich Chrysler	DERIK	PALLAN	2150 FOREST GROVE DRIVE	CAMPBELL RIVER	BC	V9W 6H9		2502879201	2013	WILDWOOD	T261BHXL	07/13/2013 12:00:00 AM	 
Bill Howich Chrysler	 	DERHOUSOFF LOGGING LTD	2001 DZINI ROAD	BLACK CREEK	BC	V9J 1H1	2503375961	2502875700	2012	DODGE	RAM TRUCK	03/30/2013 12:00:00 AM	 
Bill Howich Chrysler	DEREK	HOGEWEIDE	#304-2593 KINGCOME PLACEAPT BOX 1042	PORT MCNEILL	BC	V0N 2R0	2502302846		2012	TUFF TRAILER	TSA 910	01/05/2013 12:00:00 AM	 
Bill Howich Chrysler	DENNIS	ASHCROFT	BOX 729, 6065 HUNT STREET	PORT HARDY	BC	V0N 2P0	2509020633		2012	DODGE	RAM TRUCK	01/21/2012 12:00:00 AM	 
Bill Howich Chrysler	DEBORAH	BEZAIRE	541 QUADRA AVENUE	CAMPBELL RIVER	BC	V9W 6T8	2509144453	2502877456	2013	JEEP	WRANGLER	06/21/2013 12:00:00 AM	 
Bill Howich Chrysler	DAWN	MEHNKE	447 HOWES ROAD	SAYWARD	BC	V0P 1R0	2502823715		1996	CHEVROLET	BLAZER	11/13/2013 12:00:00 AM	 
Bill Howich Chrysler	STUART	DAVIS	1131 SCHMIDT ROAD	DENMAN ISLAND	BC	V0R 1T0	2503351430		2014	LUND	A-14	04/15/2014 12:00:00 AM	 
Bill Howich Chrysler	JOHN	DAVIDSON	390 CRAWFORD ROAD	CAMPBELL RIVER	BC	V9H 1K1	2509237754		2014	RAM	TRUCK	12/13/2013 12:00:00 AM	 
Bill Howich Chrysler	DAVID	GARDNER	168 MCLEAN STREET	CAMPBELL RIVER	BC	V9W 5H7	2502877653		2003	FORD	F350	05/27/2013 12:00:00 AM	 
Bill Howich Chrysler	DAVID	ROBINSON	112 DRAKE LANDING LOOP	Okotoks	AB	T1S 0H4	4033868765		2000	WINNEBAGO	MOTORHOME	05/16/2012 12:00:00 AM	 
Bill Howich Chrysler	DAVE & VAL	MINATO	2813 DENMAN STREET	CAMPBELL RIVER	BC	V9H 1S9	2509239192	2502863636	2012	DODGE	GRAND CARAVAN	05/01/2012 12:00:00 AM	 
Bill Howich Chrysler	DAVID	BARNABY	5856 SUNSET ROAD	NANAIMO	BC	V9V 1E4	2507295421		2011	LUND	14 FT WC	05/02/2011 12:00:00 AM	 
Bill Howich Chrysler	DAVID	ODAMURA	2086 GULL AVENUE	COMOX	BC	V9M 1L5	2508901008		2010	DODGE	JOURNEY	03/26/2011 12:00:00 AM	 
Bill Howich Chrysler	DAVID	THOMSON	#2-769 MERECROFT ROAD	CAMPBELL RIVER	BC	V9W 8H6	2502866757		2009	CHRYSLER	PT CRUISER	03/25/2011 12:00:00 AM	 
Bill Howich Chrysler	DAVID	HARRIS	4337 FORBIDDEN PLATEAU ROAD	COURTENAY	BC	V9J 1E2	2503342905		2011	TAILWIND	TW612SA	03/22/2011 12:00:00 AM	 
Bill Howich Chrysler	DAVID	LAIRD	807 EASTRIODGE COURT	COMOX	BC	V9M 3R4	2503394778		2003	CHEVROLET	VENTURE	05/18/2010 12:00:00 AM	 
Bill Howich Chrysler	DAVID	CHAPMAN	BOX 836, 50-7100 HIGHVIEW ROAD	PORT HARDY	BC	V0N 2P0	2509497711		2006	DODGE	MAGNUM	01/06/2010 12:00:00 AM	 
Bill Howich Chrysler	DARRYL	LENKO	155 ACACIA AVE	NANAIMO	BC	V9R 3L6	2507393077	2507347590	2013	RAM	TRUCK	03/13/2013 12:00:00 AM	 
Bill Howich Chrysler	DARREN	SCOTT	1751 PENFIELD ROAD	CAMPBELL RIVER	BC	V9W 7B5	2509234620		2011	JEEP	WRANGLER UNLIM	07/05/2011 12:00:00 AM	 
Bill Howich Chrysler	DARREN	CASHATO	3916 SEASPRAY DRIVE	CAMPBELL RIVER	BC	V9H 1H9	2509239947		1991	TOYOTA	4 RUNNER	08/09/2010 12:00:00 AM	 
Bill Howich Chrysler	DARREN	ROHNE	3801 DISCOVERY DRIVE	CAMPBELL RIVER	BC	V9N 4X5	2502026605		2010	JEEP	WRANGLER UNLIM	07/23/2010 12:00:00 AM	 
Bill Howich Chrysler	DANIEL	NOGA	2229 MIRACLE BEACH DRIVE	BLACK CREEK	B.C	V9J 1K3	2503378401	2502879271	2012	DODGE	JOURNEY	12/28/2012 12:00:00 AM	 
Bill Howich Chrysler	DANIEL	DOUBININ	3650 VERMONT PLACE	CAMPBELL RIVER	BC	V9H 1V3	2509234380		2012	DODGE	RAM TRUCK	11/24/2012 12:00:00 AM	 
Bill Howich Chrysler	DANIEL	DUFRESNE	2450 QUINSAM RD.	CAMPBELL RIVER	B.C.	V9W 4N2	2502864734		1992	GEO	TRACKER	11/20/2012 12:00:00 AM	 
Bill Howich Chrysler	DANIEL	SMITH	1790 CAPTAIN JOHN CRESCENT	CAMPBELL RIVER	B.C.	V9W 8C4	2502863751		2011	DODGE	DURANGO	06/30/2012 12:00:00 AM	 
Bill Howich Chrysler	DANA	MILLS	115 ENGLES ROAD	CAMPBELL RIVER	BC	V9H 1J8	2509230026		2011	JEEP	GRAND CHEROKEE	04/30/2012 12:00:00 AM	 
Bill Howich Chrysler	CYNTHIA	SMITH	912 LILIMAC ROAD	MILL BAY	BC	V0R 2P2	2508829039		2011	TITAN	T1-205K	07/12/2013 12:00:00 AM	 
Bill Howich Chrysler	CY	KIM	1827 15TH AVE.	CAMPBELL RIVER	BC	V9W 4J8	2502872706		2013	DODGE	RAM 1500	05/22/2013 12:00:00 AM	 
Bill Howich Chrysler	CRYSTAL	MONGKOLSUTE	B-1120 JOSHUA PLACE	COURTENAY	B.C.	V9N 8Y6	2507922280		2005	DODGE	NEON	01/17/2011 12:00:00 AM	 
Bill Howich Chrysler		CRONKHITE WELL SERVICE LTD	140 PHILLIPS ROW	EDMONTON	ALBERTA	T5T 5Y3	7804874122		2004	CHEVROLET	SILVERADO	08/10/2010 12:00:00 AM	 
Bill Howich Chrysler		CRITICAL SITE LOGGING INC.	#10-3107A-31ST. AVENUE	VERNON	BC	V1T 2G9		2505583500	2001	DODGE	RAM TRUCK	09/07/2010 12:00:00 AM	 
Bill Howich Chrysler		CRITICAL SITE LOGGING INC.	#10-3107A-31ST. AVENUE	VERNON	BC	V1T 2G9		2505583500	2008	FORD	F450	09/07/2010 12:00:00 AM	 
Bill Howich Chrysler		COURTENAY CAR CENTRE LTD.	#12 - 5TH STREET	COURTENAY	BC	V9N 3N7		2503344428	2011	ROCKWOOD	TENT TRAILER	06/07/2013 12:00:00 AM	 
Bill Howich Chrysler	CORY	NOHR	1721 MEADOWBROOK	CAMPBELL RIVER	BC	V9W 6A7	2509238979		2001	DODGE	1500	10/31/2011 12:00:00 AM	 
Bill Howich Chrysler		GRANT	BOX 782 STATIO A	CAMPBELL RIVER	BC	V9W 6Y4	2508307294	2508307294	2011	RAMBLER	714TA2	09/03/2011 12:00:00 AM	 
Bill Howich Chrysler	CORRINE	DAHLING	BOX 186, 293 NORTH MAQUINNA	TAHSIS	BC	V0P 1X0	2509347929		2009	JEEP	COMPASS	11/13/2010 12:00:00 AM	 
Bill Howich Chrysler			505-5TH. STREET	COURTENAY	BC	V9N 1K2		2503347503	2013	CONTINENTAL	ORTW824TA3	03/24/2014 12:00:00 AM	 
Bill Howich Chrysler		COAST MOUNTAIN EXPEDITIONS	PO BOX 25	CAMPBELL RIVER	BC	V0P 1W0	2502852823		2012	LUND	14 FT WC	12/30/2011 12:00:00 AM	 
Bill Howich Chrysler		CNL PAINTING	3366 OCEAN BLVD	COLWOOD	BC	V9C 1W7	2506184248		2010	TAILWIND	TW612SA	11/15/2010 12:00:00 AM	 
Bill Howich Chrysler	JOHN	CLOUGH	8973 FABER RD.	PORT ALBERNI	BC	V9Y 9B9	7784214483		2008	MALIBU	RIDE	12/03/2013 12:00:00 AM	 
Bill Howich Chrysler	WILLIAM	CLIFF	BOX 476 34-1191 MARINE DRIVE	PORT ALICE	B.C.	V0N 2N0	2502846630	2502847732	2014	CREEKSIDE	26RLS	12/05/2013 12:00:00 AM	 
Bill Howich Chrysler		CLAYOQUOT FOREST MANAGEMENT	PO BOX 27010 RPO OCEAN GROVE	CAMPBELL RIVER	BC	V9H 0B8			1997	VOLVO	L180	04/27/2012 12:00:00 AM	 
Bill Howich Chrysler		CLAYOQUOT FOREST MANAGEMENT	PO BOX 27010 RPO OCEAN GROVE	CAMPBELL RIVER	BC	V9H 0B8			2004	PRENTICE	490	02/02/2012 12:00:00 AM	 
Bill Howich Chrysler	CHRISTINE	ARSENAULT	#1784 SOUTH ISLAND HIGHWAY	CAMPBELL RIVER	BC	V9W 1B8	2509260405		2007	DODGE	GRAND CARAVAN	08/19/2013 12:00:00 AM	 
Bill Howich Chrysler	ANDREW	SCHRAM	#17-3704 MELROSE ROAD	QUALICUM BEACH	BC	V9K 1V3	2507525194		2009	JEEP	PATRIOT	03/09/2013 12:00:00 AM	 
Bill Howich Chrysler	CHRISTOPHER	HANTHORN	1871 O'LEARY AVENUE	CAMPBELL RIVER	BC	V9W 5Y8	2508951111		2013	RAM	TRUCK	03/13/2013 12:00:00 AM	 
Bill Howich Chrysler	CHRISTINE	ARSENAULT	#1784 SOUTH ISLAND HIGHWAY	CAMPBELL RIVER	BC	V9W 1B8	2509260405		2003	DODGE	CARAVAN	02/22/2013 12:00:00 AM	 
Bill Howich Chrysler	CHRISTOPHER	PARADIS	116 FOREST GROVE PLACE	CAMPBELL RIVER  B.C.		V9W 0A1	2507091226		2012	PJ TRAILERS	7X14 DUMP	11/21/2011 12:00:00 AM	 
Bill Howich Chrysler	TAMMIE	COON	741 TIMBERLINE DRIVE	Campbell River	BC	V9H 0A3	2509239242	2502874266	2006	DODGE	GRAND CARAVAN	03/29/2010 12:00:00 AM	 
Bill Howich Chrysler	CHRIS/BARBARA	SELF	1190 DENIS  ROAD	CAMPBELL RIVER	B.C.	V9W 5W4	2509235784		2002	VANGUARD	T-259	01/12/2010 12:00:00 AM	 
Bill Howich Chrysler	CHAD	MOORE-LABATT	6890 QUATSE . PO BOX 2061	PORT HARDY	BC	V0N 2P0	2502304213	2502843331	2013	JEEP	PATRIOT	09/13/2013 12:00:00 AM	 
Bill Howich Chrysler	CHARLIE	BEGG	3957 APPIAN WAY	CAMPBELL RIVER	BC	V9H 1G3			2009	JEEP	WRANGLER	04/29/2013 12:00:00 AM	 
Bill Howich Chrysler	CHARLOTTE	BATCHELOR	562 KINNIKINIK ROAD	COMOX	BC	V9M 3V8			2008	JEEP	WRANGLER UNLIM	05/07/2012 12:00:00 AM	 
Bill Howich Chrysler	CHARLES	BAKER	291 THULIN STREET	CAMPBELL RIVER	BC	V9W 2L1	2502043580		2007	FORD	F150	07/19/2011 12:00:00 AM	 
Bill Howich Chrysler	BRUCE/CATHY	UNWIN	705 GEORGIA DRIVE	CAMPBELL RIVER	B.C.	V9H 1R8	7784202511		2009	CHRYSLER	CHRYSLER 300	06/17/2010 12:00:00 AM	 
Bill Howich Chrysler	CARMEN	HALL	BOX 361, 361 QUATHIASKI COVE	QUADRA ISLAND	BC	V0P 1N0	2502852279		1992	WILDERNESS	5TH WHEEL	11/07/2013 12:00:00 AM	 
Bill Howich Chrysler	CARL	HARE	245 MCPHEDRAN ST S.	CAMPBELL RIVER	BC	V9W 6B2	2508987834		1980	JOHNSON	70 HP OUTBOARD	04/17/2013 12:00:00 AM	 
Bill Howich Chrysler	CAROL	PIERCE	176 JOYCE ROAD PO BOX 667	QUATHIASKI COVE	BC	V0P 1N0	2502852372		1998	DODGE	DURANGO	07/09/2012 12:00:00 AM	 
Bill Howich Chrysler	CAROL	PEREIRA	7957 LARKVALE DRIVE	SAANICHTON	BC	V8M 1K6	2507458136		2004	BMW	X5	12/27/2011 12:00:00 AM	 
Bill Howich Chrysler	BENJAMIN/JODIE	RICHARDS	BOX 436, 1339 BUKER ROAD	HERIOT BAY	BC	V0P 1H0	2502852081		2011	DODGE	RAM TRUCK	10/05/2011 12:00:00 AM	 
Bill Howich Chrysler		BANKS ISLAND GOLD LTD.	3964 DILLMAN ROAD	CAMPBELL RIVER	BC	V9H 1G9			2009	WILDWOOD	T31QBSSLE	05/03/2010 12:00:00 AM	 
Bill Howich Chrysler	BENJAMIN	BADGERO	750-2ND. AVENUE	CAMPBELL RIVER	BC	V9W 3V2	2502864095		2003	PONTIAC	VIBE	09/27/2010 12:00:00 AM	 
Bill Howich Chrysler	COLIN	BARNES	8584 LORY RD	BLACK CREEK	BC	V9J 1B8	2503375755	2503375755	2009	JEEP	LIBERTY	01/17/2014 12:00:00 AM	 
Bill Howich Chrysler	BARRY	BOWDEN	BOX 27060, 3690  S. ISLAND HWY	CAMPBELL RIVER	BC	V9H 0B8	2509238941		2013	DODGE	RAM 1500	10/31/2013 12:00:00 AM	 
Bill Howich Chrysler	BARBARA	WANLESS	BOX 315, 19 EDITH ROAD	TAHSIS	BC	V0P 1X0	2509347955		2012	NISSAN	NSF4CD1	07/16/2012 12:00:00 AM	 
Bill Howich Chrysler	BARRY	KERR	4330 GORDON ROAD	CAMPBELL RIVER	BC	V9H 1T3	2502861526		2001	DODGE	RAM TRUCK	11/18/2011 12:00:00 AM	 
Bill Howich Chrysler	BARBARA	SWAN	BOX 1097, 413 GOLDEN HINDE PL	GOLD RIVER	BC	V0P 1G0	2502837489		2010	DODGE	JOURNEY	04/18/2011 12:00:00 AM	 
Bill Howich Chrysler	KEVIN		4266 MIDDLE POINT DRIVE	CAMPBELL RIVER	BC	V9H 1N6	2509260060	2508300100	2014	DODGE	RAM 1500	02/04/2014 12:00:00 AM	 
Bill Howich Chrysler		B.C. MOTOR  PRODUCTS	3500-27TH. STREET	VERNON	BC	V1T 9P1	2508592462	2505452206	2006	SMART	FOR TWO	05/20/2011 12:00:00 AM	 
Bill Howich Chrysler	JESSE	ATCHISON	BOX 1605, 2273 CAMOSUN CRESCEN	PORT MCNEILL	BC	V0N 2R0	2509564451		2010	DODGE	RAM 1500	06/18/2010 12:00:00 AM	 
Bill Howich Chrysler	ASHLEY	JOHN	BOX 81, #6-11 KHEN-KOUS ROAD	ZEBALLOS	BC	V0P 2A0	2507614040		2010	EVINRUDE	300 HP ETEC	06/18/2011 12:00:00 AM	 
Bill Howich Chrysler	ARTHUR	POLLARD	#31-120 FINHOLM STREET	PARKSVILLE	BC	V9P 1J4	2505868596		2011	EZ LOADER	EZ LD TRAILER,	08/05/2011 12:00:00 AM	 
Bill Howich Chrysler	ARTUR	LODEWIJK	BOX 413, 745-1ST. STREET	SOINTULA	BC	V0N 3E0			1994	FORD	RANGER	10/12/2010 12:00:00 AM	 
Bill Howich Chrysler	ARTHUR	LAWSON	2777 SOUTH ALDER STREET	CAMPBELL RIVER	B.C.	V9H 1S1	2509233338	2502038826	1998	NISSAN	PATHFINDER	03/03/2010 12:00:00 AM	 
Bill Howich Chrysler	ARIE-JAN	VAN MAREN	7356 BOND STREET	AGASSIZ	BC	V0M 1A0	6047962693		2010	DODGE	GRAND CARAVAN	01/29/2011 12:00:00 AM	 
Bill Howich Chrysler	HALE	SCHAEFER	518 GRAYSON ROAD	CAMPBELL RIVER	BC	V9W 6K4	2509235875	2509233946	2009	ROCKWOOD	TENT TRAILER	08/16/2011 12:00:00 AM	 
Bill Howich Chrysler	ANTHONY	MARCOTTE	65 PENNINSULA DRIVE	MARATHON	ON	P0T 2E0	8072290677		2010	LUND	12 FT JON 	04/20/2011 12:00:00 AM	 
Bill Howich Chrysler	ANTHONY	BENNETT	160 HENRY ROAD	CAMPBELL RIVER	BC	V9H 1K5	2509238601		2010	CARRY ON	6X10 UTILITY	03/04/2011 12:00:00 AM	 
Bill Howich Chrysler	ANDRE	MORIN	BOX 507, 2293 PIONEER ROAD	PORT MCNIELL	B.C.	V0N 2R0	2509564622	2505270098	2008	DODGE	AVENGER	07/27/2011 12:00:00 AM	 
Bill Howich Chrysler	ANDREW	PAGE	712A ERICKSON ROAD	CAMPBELL RIVER	BC	V9W 2N9	2502876577		1988	CORSAIR	TRAVEL	07/05/2010 12:00:00 AM	 
Bill Howich Chrysler	AMY	VOSS	PO BOX 58, 455 193 ROAD	TOMSLAKE	BC	V0C 2L0	2507860492		1997	JEEP	WRANGLER/TJ	06/08/2012 12:00:00 AM	 
Bill Howich Chrysler	AMBBER	SAMUELS	970 GREENWOOD STREET	CAMPBELL RIVER	BC	V9W 3C3	2502879604		1999	FORD	TAURUS	08/25/2011 12:00:00 AM	 
Bill Howich Chrysler	AMBERLEE	HERMAN	710 RAVEN CRESCENT	CAMPBELL RIVER	BC	V9H 1R1	2502045006		2004	DODGE	RAM TRUCK	03/03/2011 12:00:00 AM	 
Bill Howich Chrysler		ALPINE BACKHOE SERVICES LTD.	P.O. BOX 634	CAMPBELL RIVER	BC	V9W 6N6	2509269111	2502872220	2013	DODGE	RAM 2500	04/17/2013 12:00:00 AM	 
Bill Howich Chrysler	ALLEN	SASTAUNIK	19 2160 HAWK DR	COURTENAY	BC	V9N 9B2	2503341774		2013	JEEP	GRAND CHEROKEE	07/13/2013 12:00:00 AM	 
Bill Howich Chrysler	ALLEN JOSEPH	BULLOCK	2670 CARDENA CRES.	PORT MCNEILL	BC	V0N 2R0	2509562798		2008	MERCURY OUTBOA	60 HP	06/26/2012 12:00:00 AM	 
Bill Howich Chrysler	JACQUELINE	ALEXANDER	398 SIMMS ROAD	CAMPBELL RIVER	BC	V9W 1P2	2509236025		2014	CREEKSIDE	23BHS	04/19/2014 12:00:00 AM	 
Bill Howich Chrysler	ALEXANDER	MACLEOD	3997 MACAULAY ROAD	BLACK CREEK	BC	V9J 1C8			2005	EZ LOADER	BOAT TRAILER	02/09/2013 12:00:00 AM	 
Bill Howich Chrysler	ALEXANDER	PIDGORNY	1019-3RD. AVENUE	NEW WESTMINSTER	BC	V3M 1P6	6045400835		2010	UBUILT	UTILITY TR	01/26/2012 12:00:00 AM	 
Bill Howich Chrysler	ALEXANDER	FASOLD	3820 SNOWDEN ROAD	CAMPBELL RIVER	BC		2508303544	2502861224	2007	DODGE	RAM TRUCK	01/18/2011 12:00:00 AM	 
Bill Howich Chrysler	JUDY	ANDREW	1228 BUTE CR	CAMPBELL RIVER	BC	V9H 1G5	2509234595		1984	TRAVELAIRE	19' TRAILER	11/30/2012 12:00:00 AM	 
Bill Howich Chrysler	ALAN/MAGNELL	USIPUIK	2764 BRADFORD DRIVE	CAMPBELL RIVER	BC	V9W 7X7	2509260426		2009	DODGE	AVENGER	08/06/2011 12:00:00 AM	 
Bill Howich Chrysler	ALAN	DAVIS	R.R.#1 6305 BELL ROAD	VANANDA	BC	V0N 3K0	6044149827		2009	SURVEYOR	SVT186	01/17/2011 12:00:00 AM	 
Bill Howich Chrysler	DREW	HEYNEN	112-680 MURRELET DRIVE	COMOX	BC	V9M 3P2	2503391636		2011	DODGE	RAM TRUCK	10/13/2010 12:00:00 AM	 
Bill Howich Chrysler	ADAM	HOPE	1467 MANITOBA ST	PENTICTON	BC	V2A 5A3			1979	FORD	F250	09/18/2010 12:00:00 AM	 
Bill Howich Chrysler	RONALD	BOWEN	BOX 61	WHALETOWN	BC	V0P 1Z0	2509356406		1996	DODGE	RAM TRUCK	01/18/2011 12:00:00 AM	 
Bill Howich Chrysler	MARK	FRISK	8555-209TH. STREETAPT 39	LANGLEY	BC	V1M 3W2	6045131911		2010	CHRYSLER	200	01/08/2011 12:00:00 AM	 
Wellington Motors	DARRELL	
COONEY	48 WAVERLEY DR	GUELPH	ON	N1E6C8	5198241602		2014	DODGE	DART	02/28/2014	 
Wellington Motors	DIANE	
BEITZ	2111 GREENHOUSE RD	BRESLAU	ON	N0B1M0	5196482078		2012	CHRYSLER	200	05/15/2013	 
Wellington Motors	MEGAN	
SMITH	3 - 41 RHONDA RD	GUELPH	ON	N1H6H1	5198300284	5198260080	2009	DODGE	RAM 1500	02/22/2014	 
Wellington Motors	SHARI-LYNN	
BANKS	2-19 MAIN ST S	ACTON	ON	L7J1X2	6472010163	9054912100	2013	RAM	1500	07/08/2013	 
Wellington Motors	MELODY	
WHITE	85 HAHN AVE	CAMBRIDGE	ON	N3C3B2	5196589547	5196537163	2013	DODGE	JOURNEY	07/10/2013	 
Wellington Motors	FULLPREET	
PANDHER	892 MASSIMO CRES	WINDSOR	ON	N9G3C6	5199667339	5195674981	2008	CADILLAC	ESCALADE	07/13/2013	 
Wellington Motors	WAYNE	
HAWKES	123 MOUNTFORD DR	GUELPH	ON	N1E4G2	5197634841		2013	DODGE	GRAND CARAVAN	07/03/2013	 
Wellington Motors	SANDRA	
TAYLOR	221 KING STREET WEST	MT FOREST	ON	N0G2L1	5193233656	5192610254	2011	JEEP	PATRIOT	07/02/2013	 
Wellington Motors	STEVEN	
SEKENDA	174 DAWN AVE	GUELPH	ON	N1G4X2	5197660934	5198301104	2013	DODGE	JOURNEY	06/25/2013	 
Wellington Motors	JOSHUA	
WHITE	271 KERWOOD DR.	CAMBRIDGE	ON	N3C4M4	5197489674	5196225550	2013	DODGE	AVENGER	06/26/2013	 
Wellington Motors	JEFFREY	
MANN	125 LEE STREET	GUELPH	ON	N1E7E8	5198235073	5199930914	2013	RAM	1500	06/20/2013	 
Wellington Motors	MARK	
TIEGS	161 HARVARD RD	WATERLOO	ON	N2J3V4	5197472901	5195002022	2013	FIAT	500	06/18/2013	 
Wellington Motors	SAMUEL	
ELMSLIE	426 WEST ACRES DR	GUELPH	ON	N1K1N3	5197660681	5197664242	2010	DODGE	JOURNEY	06/20/2013	 
Wellington Motors	JORDAN	
KARLEY	57 ISLEY DR	MARYHILL	ON	N0B2B0	5196483337	5196644946	2013	DODGE	DART	06/19/2013	 
Wellington Motors	MANFRED	
HOYER	11 COLBORN ST	GUELPH	ON	N1G2M4	5198367889	5198241212	2013	JEEP	WRANGLER UNLIMITED	06/29/2013	 
Wellington Motors	GERALD	
SURETTE	143 INVERHAUGH RD PILK TPRR1	ARISS R1	ON	N0B1B0	5198469139		2013	RAM	1500	07/08/2013	 
Wellington Motors		
BECKER BROS TRUCKING INC	915 WILSON AVE.	KITCHENER	ON	N2C1J1	5194655935	5197489202	2013	DODGE	SRT VIPER	07/05/2013	 
Wellington Motors		
COX CONSTRUCTION LTD	P.O. BOX 427 STN MAIN687 ERAMOSA RD	GUELPH	ON	N1H6K5		5198246570	2014	RAM	2500	03/27/2014	 
Wellington Motors	CHRISTOPHER	
MUIR	16 HENDERSON DRIVE	GUELPH	ON	N1E0C6	5192656847	5195461599	2014	JEEP	PATRIOT	03/24/2014	 
Wellington Motors	RUSSELL	
GABEL	174 PARK AVENUE	CAMBRIDGE	ON	N1S2S6	5197402297	5197674200	2013	DODGE	JOURNEY	09/12/2011 12:00:00 AM	 
Wellington Motors	NICOLE	
MAROSTEGA	173 SACHA RD	CAMBRIDGE	ON	N3C4A7	5192129169	5197405220	2013	DODGE	GRAND CARAVAN	08/02/2013	 
Wellington Motors	CYNTHIA	
LEDUC-MAROSTEGA	173 SACHA RD	CAMBRIDGE	ON	N3C4A7	5196549182	5197406400	2013	DODGE	GRAND CARAVAN	08/01/2013	 
Wellington Motors	CHRISTOPHER	
BELBIN	106 ST LAWRENCE AVE	HURON PARK	ON	N0M1Y0	2264262051		2013	DODGE	GRAND CARAVAN	08/02/2013	 
Wellington Motors	JOHN	
TSILOGIANIS	152 COUNTRY CLAIR ST	KITCHENER	ON	N2A4J7	5197482488	5198221260	2013	DODGE	JOURNEY	07/31/2013	 
Wellington Motors	DAVID	
CARDER	709 JACOB LANE	WATERLOO	ON	N2V2A7	5198848557		2013	DODGE	JOURNEY	07/30/2013	 
Wellington Motors	PIERPAOLO	
COMINI	38 WAGONERS TRAIL	GUELPH	ON	N1G3M9	5197639656	5198201188	2013	DODGE	JOURNEY	07/26/2013	 
Wellington Motors	ADAM	
SPRAY	188 COUNTRY CLUB DR	GUELPH	ON	N1E3L2	5199938894	5198246570	2013	JEEP	WRANGLER UNLIMITED	07/31/2013	 
Wellington Motors	GEORGE	
PEPPER	64 CLAIRFIELDS DR W	GUELPH	ON	N1G5H8	5198270527	5198270527	2012	DODGE	JOURNEY	07/29/2013	 
Wellington Motors	IRENE	
PLATNY	19 CALLIANDRA TRAIL	BRAMPTON	ON	L6R0S3	4165402648	4165402648	2012	CHRYSLER	200	07/29/2013	 
Wellington Motors	PATRICIA	
SNYDER	862 KATHERINE ST	WEST MONTROSE RR #	ON	N0B2V0	5196692361		2012	CHRYSLER	200	07/23/2013	 
Wellington Motors	CHRISTOPHER	
LAITAR	6090 JONES BASELINE	ELORA R2	ON	N0B1S0	5197874311	5197467220	2013	JEEP	WRANGLER UNLIMITED	07/24/2013	 
Wellington Motors	KERRI	
WALKER	48 BIRD CRT	CAMBRIDGE	ON	N1T1V6	5196216951	5192403881	2011	JEEP	WRANGLER UNLIMITED	07/23/2013	 
Wellington Motors	WAYNE	
LAMERS	32 COLLEGE ST	ELMIRA	ON	N3B2G1	5196693416	5198863339	2013	DODGE	AVENGER	07/19/2013	 
Wellington Motors		
PHH VEHICLE MANAGEMENT SERVICES	2233 ARGENTIA RD SUITE 400STATION A	MISSISSAUGA	ON	L5N2X7	2148963308	8002682916	2014	DODGE	JOURNEY	03/20/2014	 
Wellington Motors	GLORIA	
CHERUBIN	57 HANDS DR.	GUELPH	ON	N1G3K2	5198373132		2013	DODGE	GRAND CARAVAN	07/17/2013	 
Wellington Motors	JUSTIN	
KEHOE	59 FARLEY DRIVE	GUELPH	ON	N1L1P7	5198227370	5197662845	2013	DODGE	AVENGER	07/16/2013	 
Wellington Motors	HOWARD	
SOUTHWOOD	22 CARLETON PLACE	ELORA	ON	N0B1S0	5193629336	5193629336	2013	FIAT	500	08/20/2013	 
Wellington Motors	RANDALL	
COLES	254 HASKELL RD	CAMBRIDGE	ON	N1P0A4	5192399772		2013	RAM	1500	08/16/2013	 
Wellington Motors	LOREE	
WILSON	7284 WELLINGTON RD 21	ARISS	ON	N0B1B0	5198461598	5198465359	2014	DODGE	JOURNEY	03/15/2014	 
Wellington Motors	JOHN	
KEANE	36 DICKINSON COURT	ELORA	ON	N0B1S0	5198468992	5199943409	2014	RAM	1500	04/17/2014	 
Wellington Motors	WADE	
LEROUX	883 RIDGEWOOD RD	WOODSTOCK	ON	N4T0E5	5195397022	5192499430	2014	DODGE	GRAND CARAVAN	04/10/2014	 
Wellington Motors	BRIAN	
HODGE	144 ALMA ST	ROCKWOOD	ON	N0B2K0	5198564943	5198225530	2014	DODGE	GRAND CARAVAN	04/10/2014	 
Wellington Motors	ANITA	
SPRUNG	65 RAUCH CRT	KITCHENER	ON	N2N3C8	5195780026	5196535553	2014	DODGE	GRAND CARAVAN	04/17/2014	 
Wellington Motors	MICHAEL	
IRWIN	35 BARRIE ST	CAMBRIDGE	ON	N1S3A6		2263389496	2014	JEEP	WRANGLER	04/16/2014	 
Wellington Motors	AUDREY	
DOUTHART	15 ELMRIDGE DRIV	GUELPH	ON	N1G4X7	5198243499		2009	CHRYSLER	SEBRING	05/11/2009	 
Wellington Motors	NANCY	
KNAPP	6 MICHAEL PLACE	GUELPH	ON	N1H1Z3		8245672	2005	CHRYSLER	SEBRING SDN	05/04/2009	 
Wellington Motors	ELAINE	
HARDIMAN	194 SILURIAN DRIVE	GUELPH	ON	N1E7E6	5197800163		2009	JEEP	LIBERTY	05/04/2009	 
Wellington Motors	HUBERT	
WESSELING	RR6 STN MAIN	GUELPH	ON	N1H6J3	7603203		2008	DODGE	CHARGER	04/27/2009	 
Wellington Motors	JULIE	
MCVEIGH	74 KIRKLAND ST	GUELPH	ON	N1H4Y1	5198225584		2006	JEEP	LIBERTY	04/25/2009	 
Wellington Motors	LORI	
CHILLMAN	971 LINE 7 S	ORO STATION	ON	L0L2E0	7054873305	8003394406	2004	JEEP	GRAND CHEROKEE	04/25/2009	 
Wellington Motors	FLORENCE	
FARRELL	130 RICKSON AVE.	GUELPH	ON	N1G4V5	5198232598	9054581330	2009	DODGE	GRAND CARAVAN	04/30/2009	 
Wellington Motors		
CORPORATION OF THE CITY OF GUELPH	59 CARDEN ST CITY HALLVENDOR #84123	GUELPH	ON	N1H3A1	5198375610	5198375628	2009	DODGE	CALIBER	06/16/2009	 
Wellington Motors	TINA	
KOUVALIS	17 WILFRED LAURIER CRT	GUELPH	ON	N1G4L9	5198249228	8249228	2009	DODGE	GRAND CARAVAN	06/16/2009	 
Wellington Motors	SHELLEY	
BARCLAY	37 SWEENEY DR	GUELPH	ON	N1G0A6	5192656710		2009	JEEP	PATRIOT	06/06/2009	 
Wellington Motors	MARC	
SEGUIN	213 GRANGE STREET	GUELPH	ON	N1E2W2	5199934632		2001	GMC	SAFARI PASSENGER	05/28/2009	 
Wellington Motors	THOMAS	
SCHMIDT	1834 SANDHILLS RD	NEW HAMBURG	ON	N3A3A3	5196341027	5198838226	2008	DODGE	GRAND CARAVAN	05/28/2009	 
Wellington Motors	SHARON	
HEMMERLE	52 MEADOW CRES	KITCHENER	ON	N2M4E7	5199540814		2007	CHRYSLER	SEBRING SDN	05/26/2009	 
Wellington Motors	KELLY	
MAHARAJ	14 WILTSHIRE PLACE	GUELPH	ON	N1H8B6	5198219038	5197637783	2005	JEEP	LIBERTY	05/21/2009	 
Wellington Motors	PAUL	
HOLDENMEYER	460 JOSEPH ST	NEW HAMBURG	ON	N3A2H2	5196629927	5197415000	2009	DODGE	RAM 1500	05/21/2009	 
Wellington Motors	TAMMY	
BALL	134 WERSTINE TERR	CAMBRIDGE	ON	N3C4H1	5196549702	5197169702	2012	DODGE	CHARGER	10/11/2013	 
Wellington Motors	GERALDINE	
HEWITT	5-263 SPEEDVALE AVE E	GUELPH	ON	N1E1M8	5197635397		2007	JEEP	LIBERTY	05/19/2009	 
Wellington Motors	EDWIN	
SHAW	144 PHEASANT RUN DRIVE	GUELPH	ON	N1C1B3	5197676636	5198220160	2009	CHRYSLER	TOWN & COUNTRY	05/26/2009	 
Wellington Motors	PATRICK	
MASTROGIACOMO	44 WESTMINSTER AVE	GUELPH	ON	N1E4C1	5198216189	5198269965	2013	JEEP	GRAND CHEROKEE	10/09/2013	 
Wellington Motors	FRANKLIN	
ZOLNAI	71 MAE COURT	CAMPBELLVILLE	ON	L0P1B0	19058540077		2002	DODGE	RAM 1500	07/08/2009	 
Wellington Motors	JOSEPH	
MORIN	74 JANEFIELD AV AP18	GUELPH	ON	N1G2L6	5198222559	5198240120	2009	DODGE	CALIBER	07/07/2009	 
Wellington Motors	WAYNE	
WHETSTONE	41 DINISON CRES	KITCHENER	ON	N2E2W3	5195798350	5195736690	2009	CHRYSLER	300	07/07/2009	 
Wellington Motors		
J B UPSDELL LTD	381 WOOLWICH STREET	GUELPH	ON	N1H3W8	5197634908		2009	CHRYSLER	TOWN & COUNTRY	06/30/2009	 
Wellington Motors	DOUGLAS	
MULLEN	594 HILLVIEW RD	CAMBRIDGE	ON	N3H5H3	5196535417		2008	DODGE	AVENGER	06/30/2009	 
Wellington Motors	CONNIE	
STONEBURGH	16 HADATI RDUNIT 26	GUELPH	ON	N1E6M2	5198214661	5198372670	2008	DODGE	GRAND CARAVAN	06/30/2009	 
Wellington Motors	LINDA	
CAMPBELL	275 JOHN ST PO BX 1376	ELORA	ON	N0B1S0	5198460050	8432010	2008	DODGE	AVENGER	06/23/2009	 
Wellington Motors	ELAINE	
SEMPLE	268 SCOTTSDALE DRIVE	GUELPH	ON	N1G2K8	5192653756	5198303025	2007	CHRYSLER	SEBRING SDN	06/23/2009	 
Wellington Motors	KAREN	
LAGASSIE		GUELPH	ON	N1E1B7	2267809216	5198216191	2013	FIAT	500	10/04/2013	 
Wellington Motors	ROBERT	
MOORE	4933 WELLINGTON RD 44 RR5	ROCKWOOD	ON	N0B2K0	5198564777	5198564636	2009	DODGE	RAM 1500	06/26/2009	 
Wellington Motors	TYLER	
DOERNER	152 VERONICA DR	KITCHENER	ON	N2A2R9	5198939546		2008	JEEP	GRAND CHEROKEE	07/30/2009	 
Wellington Motors	CAROLYN	
LUFF	93 BAGOT STREET	GUELPH	ON	N1H5T7	5198213650	15195791977	2006	JEEP	COMMANDER	07/31/2009	 
Wellington Motors	DAVID	
HOLLETT	33 BURNS DRIVE UNIT 10	GUELPH	ON		5192654925	9053097633	2009	DODGE	AVENGER	07/30/2009	 
Wellington Motors	BRETT	
BOWMAN	32 THORNHILL DR	GUELPH	ON	N1H8B6	5193423877		2009	DODGE	RAM 1500	07/31/2009	 
Wellington Motors	KENNETH	
HORTON	7 ARGYLE DR	GUELPH	ON	N1G2P1	5197661317	5198277102	2006	JEEP	COMMANDER	07/23/2009	 
Wellington Motors	SHELLEY	
SAGER	43 PREMIER RD	WATERDOWN	ON	L0H2H6	2898959205	5197485220	2008	DODGE	AVENGER	07/21/2009	 
Wellington Motors	JENNIFER	
EAGLE	206 WESTCLIFF WAY	CAMBRIDGE	ON	N1S5C2	5197402413	5196236813	2008	DODGE	NITRO	09/10/2009	 
Wellington Motors	ROBERT	
JOYNT	187 FARLEY DRIVE	GUELPH	ON	N1L1L7	5197636997	9056314823	2009	JEEP	PATRIOT	09/08/2009	 
Wellington Motors	FRANCES	
HAMMOND	11 TEAKWOOD PL.	GUELPH	ON	N1E6G7	8215764		2005	CHRYSLER	PT CRUISER	09/08/2009	 
Wellington Motors	BARRY	
ACHESON	275 PURNELL PLACE	BURLINGTON	ON	L7L4N3	9056371222	9059373030	2005	DODGE	CARAVAN	09/05/2009	 
Wellington Motors	DAVID	
MYATT	511 KINGBIRD CRT	LONDON	ON	N5X4H6	5194324614		2008	CHRYSLER	TOWN & COUNTRY	08/29/2009	 
Wellington Motors	MARK	
HALL	1869 MILBOROUGH LINE	CAMPBELLVILLE RR2	ON	L0P1B0	9056598259	5198317124	2009	JEEP	WRANGLER UNLIMITED	08/25/2009	 
Wellington Motors	JOHN	
KLOMPMAKER	BOX 409	FERGUS	ON	N1M3E2	5197871364	5198208401	2013	RAM	1500	10/01/2013	 
Wellington Motors	THOMAS	
FOX	1 BUCKTHORN CRESCENT	GUELPH	ON	N1E7C4	5198360900	5199933358	2006	DODGE	RAM 1500	08/24/2009	 
Wellington Motors	JEFFERY	
MILLER	6 BARBOUR	HILLSBURGH	ON	N0B1Z0	5198556223	5198262139	2009	CHRYSLER	TOWN & COUNTRY	08/19/2009	 
Wellington Motors	DORIS	
HOFFELE	#1904-425 WILSON AVE.	KITCHENER	ON	N2C2R8	5194047284		2009	DODGE	CHARGER	09/08/2009	 
Wellington Motors	EARL	
ANDERSON	8 PATRICK DR ERIN TP	ERIN	ON	N0B1T0	5198268267		2009	DODGE	CALIBER	08/31/2009	 
Wellington Motors	LORNE	
MARSH	24 LYNCH CIRCLE	GUELPH	ON	N1L1R5	5198216074	9058401801	2009	CHRYSLER	300	08/14/2009	 
Wellington Motors		
CANADIAN FOOD INSPECTION AGENCY	174 STONE RD W	GUELPH	ON	N1G4S9	5198375833	5198379400	2011	DODGE	GRAND CARAVAN	01/24/2011	 
Wellington Motors	CHRISTINE	
BUTTON	5 RITA ST	DUNDAS	ON	L9H4S1	9056283524		2008	DODGE	GRAND CARAVAN	10/14/2009	 
Wellington Motors	PIETRO	
LIRUSSO	49 PACIFIC PLACE	GUELPH	ON	N1G4R3	5198241293		2009	DODGE	GRAND CARAVAN	10/08/2009	 
Wellington Motors	JOSHUA	
NUHN	568 LOUISA ST BX 57	AYTON	ON	N0G1C0	2263393029		2006	FORD	F-150	10/06/2009	 
Wellington Motors	ADAM	
ELLIOTT	88-124 GOSSLING GARDENS	GUELPH	ON	N1G5K6	2267807834	8008031062	2013	DODGE	DART	09/30/2013	 
Wellington Motors	KAREN	
SHANKS	44 MAPLE ST	DRAYTON	ON	N0G1P0	5196383525	5198074676	2009	DODGE	CHARGER	12/23/2009	 
Wellington Motors	DONALD	
CULP	18 WATSON CRES	AYR	ON	N0B1E0	5196329924	5197404100	2010	DODGE	RAM 1500	12/30/2009	 
Wellington Motors	MICHEL	
MOREAU	274 STARWOOD DRAPT 403	GUELPH	ON	N1E7B8	5198241117		2010	DODGE	GRAND CARAVAN	12/18/2009	 
Wellington Motors	BRIAN	
ABBOTT	113 DOYLE DRIVE	GUELPH	ON	N1G5B4	5198245735	5198240120	2008	DODGE	NITRO	12/22/2009	 
Wellington Motors	WESLEY	
ROBERTSON	14611 BRAMALEA RD	CALEDON		L7C2R5	9055842386		2009	CHRYSLER	PT CRUISER	12/22/2009	 
Wellington Motors	MICHAEL	
LIVINGSTONE	27-375 HOLIDAY INN DR	CAMBRIDGE	ON	N3C3P6	5196510477		2010	JEEP	WRANGLER UNLIMITED	12/12/2009	 
Wellington Motors	PHILIP	
FORSYTH	76 SOUTHCREEK TRAIL	GUELPH	ON	N1G4Y8	5198226284	5198370100	2009	DODGE	CALIBER	02/11/2010	 
Wellington Motors	NORMAN	
ARBUCKLE	7 PEARTREE CRES	GUELPH	ON	N1H8K6	5198231875	5198244120	2009	DODGE	JOURNEY	02/05/2010	 
Wellington Motors	BARBARA	
ROBBINS	80 BURNETT AVE	CAMBRIDGE	ON	N1T1J7	5196234573		2010	JEEP	COMPASS	02/01/2010	 
Wellington Motors		
WM GREEN ROOFING LTD	45 DAWSON	GUELPH	ON	N1H1B1		8226414	2010	DODGE	RAM 1500	02/01/2010	 
Wellington Motors		
GUELPH NISSAN	805 WOODLAWN RD. W.	GUELPH	ON	N1K1E9	5198229200		2005	DODGE	RAM 1500	01/25/2010	 
Wellington Motors	KELLY	
BAUMAN	140 WERSTINE TERR	CAMBRIDGE	ON	N3C4H1	5192600379		2008	JEEP	PATRIOT	01/18/2010	 
Wellington Motors		
W FILSINGER & SONS LIMITED	55 DAWSON RD	GUELPH	ON	N1H1B1	5197671754		2010	DODGE	RAM 1500	01/16/2010	 
Wellington Motors	BRYAN	
RUPPERT	93 DARREN COURT	CAMBRIDGE	ON	N3C3Y9	5192490632		2010	DODGE	GRAND CARAVAN	01/15/2010	 
Wellington Motors	ARRAN	
ROWLES	11 PERWINKLE WAY	GUELPH	ON	N1L1M8	5197632043		2010	DODGE	JOURNEY	02/13/2010	 
Wellington Motors	SYLVIE	
BEAUREGARD	723 ZERMATT DR	WATERLOO	ON	N2T2W7	5197466968	5197408855	2009	CHRYSLER	SEBRING	03/22/2010	 
Wellington Motors	EDELGARD	
FRIESEN	228 DEARBORN BLVDB	WATERLOO	ON	N2J4Y4	5198889577		2010	CHRYSLER	TOWN & COUNTRY	03/09/2010	 
Wellington Motors	SUSAN	
HUTCHISON	490 EASTBRIDGE BLVD	WATERLOO	ON	N2K3Z8	5198849116		2009	CADILLAC	CTS	03/05/2010	 
Wellington Motors	LAURA	
CAKE	169 BISMARK DR UNIT 24	CAMBRIDGE	ON	N1S5C1	5196229145	5198957005	2010	DODGE	CALIBER	02/19/2010	 
Wellington Motors	KATHRYN	
HOOKEY	39 CROSSINGHAM DR	GUELPH	ON	N1K1R3	5198364491		2010	JEEP	PATRIOT	02/27/2010	 
Wellington Motors	KIMBERLY	
BOERMANS	10 SHOEMAKER CRES	GUELPH	ON	N1K1J8	5198228867		2010	DODGE	JOURNEY	02/23/2010	 
Wellington Motors	SHELLEY	
HILL	8 WILKIE CRES	GUELPH	ON	N1G0B1	5198363911		2005	DODGE	CARAVAN	03/12/2010	 
Wellington Motors	IAN	
FITTON	3 ANDREW ST. BOX 256	ARTHUR	ON	N0G1A0	5198482355		2009	DODGE	JOURNEY	03/13/2010	 
Wellington Motors		
PHH VEHICLE MANAGEMENT SERVICES	2233 ARGENTIA ROAD SUITE 400STATION A	MISSISSAUGA	ON	L5N2X7	2148963308	8002682916	2010	DODGE	JOURNEY	04/12/2010	 
Wellington Motors	J.O. ROSAIRE	
ALARIE	111 STEVENSON ST N	GUELPH	ON	N1E5A6		5192655928	2006	DODGE	CARAVAN	04/01/2010	 
Wellington Motors	KENNETH	
SWANSON	132 BOLAND ST BX 691PO BOX 1291	WINGHAM	ON	N0G2W0	5193571605		2009	DODGE	NITRO	03/30/2010	 
Wellington Motors	PHILIP	
HUCK	270 TERRACE WOOD CRES	KITCHENER	ON	N2P2T3	5196512233		2014	RAM	1500	10/15/2013	 
Wellington Motors	BARBARA	
MALY	5 ASPENWOOD PLACE	GUELPH	ON	N1K1P3	5197635266	5198375600	2010	CHRYSLER	TOWN & COUNTRY	03/29/2010	 
Wellington Motors		
OMAFRA	1 STONE ROAD	GUELPH	ON	N1G4Y2	5198264534		2010	DODGE	DAKOTA	03/23/2010	 
Wellington Motors	PAMELA	
GIRARDI	93 DIVISION ST	GUELPH	ON	N1H1R5	5198371636		2008	HONDA	FIT	03/23/2010	 
Wellington Motors	WILLIAM	
CHABAN	232 THE KINGSWAY	ETOBICOKE	ON	M9A3T5	4162336759		2010	JEEP	PATRIOT	03/27/2010	 
Wellington Motors		
1221122 ONTARIO LIMITED	33 MCINTYRE DRIVE	KITCHENER	ON	N2R1E4	5197484822		2013	DODGE	JOURNEY	02/04/2012 12:00:00 AM	 
Wellington Motors		
ARI FINANCIAL SERVICES INC.	1270 CENTRAL PKWY W SUITE 600	MISSISSAUGA	ON	L5C4P4		9058038000	2010	JEEP	PATRIOT	03/22/2010	 
Wellington Motors	DEBORAH	
ANDRADE	55 BAINTREE WAY	CAMBRIDGE	ON	N1T2H3	5196228591		2010	DODGE	GRAND CARAVAN	03/27/2010	 
Wellington Motors	JOHN	
MCGARRY	9 JODI PLACE	GUELPH	ON	N1H7R1	5198229504		2009	DODGE	JOURNEY	03/18/2010	 
Wellington Motors		
VAN DAM MOTORS	73 GORDON ST	GUELPH	ON	N1H4H5		5198240600	2009	DODGE	VIPER	03/01/2010	 
Wellington Motors	FRANK	
BUNT	23 WOODLAWN RD E APT 208	GUELPH	ON	N1H7G6	5197672284		2010	DODGE	JOURNEY	04/12/2010	 
Wellington Motors	GLENN	
KENDALL	9 GAW CRES.	GUELPH	ON	N1L1H8	5197638314	5197108374	2007	JEEP	WRANGLER	05/05/2010	 
Wellington Motors	NATALIE	
FREE	32-71 GARTH MASSEY DR	CAMBRIDGE	ON	N1T2G8	5192671788		2008	JEEP	COMPASS	04/27/2010	 
Wellington Motors	KATHLEEN	
GROFF	83 WESTVIEW CRES	KITCHENER	ON	N2N2X7	5195794567		2009	DODGE	CHARGER	04/21/2010	 
Wellington Motors	JAMES	
PELLETIER	2 COUTTS CRT	GUELPH	ON	N1L1S9	5197664441		2010	JEEP	PATRIOT	04/29/2010	 
Wellington Motors		
STEED AND EVANS LIMITED	P.O. BOX 160	ST. CLEMENTS	ON	N0B2M0		5197447315	2010	DODGE	RAM 1500	05/13/2010	 
Wellington Motors	DEBRA-ANNE	
OTTIER	5706 FOURTH LINE RR1	HILLSBURGH	ON	N0B1Z0	5198556583	5198236981	2010	DODGE	RAM 1500	04/15/2010	 
Wellington Motors	PHIL	
MCINTYRE	53 PARK STREETP.O. BOX 33	ST. CLEMENTS	ONTARIO	N0B2M0	5192398000	5198228738	2003	JEEP	LIBERTY	06/08/2010	 
Wellington Motors	HAROLD	
TISCHART	L739 BELWOOD LAKE GEN DELY	BELWOOD		N0B1J0	5198433828		2010	DODGE	GRAND CARAVAN	06/15/2010	 
Wellington Motors	RONALD	
BURKE	49 DAVIS ST	GUELPH	ON	N1E0C8	5198370603	5198213670	2010	DODGE	RAM 1500	05/31/2010	 
Wellington Motors	JAMES	
CHIPMAN	#56-180 MARKSAM RD	GUELPH	ON	N1H8G4	5198210559		2007	JEEP	WRANGLER	05/27/2010	 
Wellington Motors	IAN	
SIM	199 THE GREENWAY	CAMBRIDGE	ON	N1R6L6	5196210514		2010	DODGE	NITRO	05/31/2010	 
Wellington Motors	ANDREW	
SWIFT	141 STEPHANIE DRIVE	GUELPH	ON	N1K1X7	5197664891	5198367100	2010	DODGE	GRAND CARAVAN	05/18/2010	 
Wellington Motors	JAMES	
PIERCEY	23 CAMPION AVE	GUELPH	ON	N1H5L2	5198238953	5198842121	2010	DODGE	GRAND CARAVAN	05/19/2010	 
Wellington Motors	JUDY	
BYRNE	65 TALBOT ST	GUELPH	ON	N1G2G1	5198365959		2010	CHRYSLER	TOWN & COUNTRY	06/05/2010	 
Wellington Motors	RONALD	
LEWIS	104 MACLENNAN ST	ROCKWOOD	ON	N0B2K0	5198562404	5198431610	2010	JEEP	WRANGLER	05/18/2010	 
Wellington Motors	JAMES	
KOPPERSON	#5-46 ALLAN ST W.	WATERLOO	ON	N2L6H2	5195798962		2002	CHEVROLET	IMPALA	07/13/2010	 
Wellington Motors	NATHALIE	
MCNEILL	698 KITCHENER AVE	FERGUS	ON	N1M1N4	5198436769	5197875123	2014	DODGE	GRAND CARAVAN	10/31/2013	 
Wellington Motors	JORDAN	
KOVATS	42 WESTMINISTER AVE	GUELPH	ON	N1E4C1	5198220828	5198244120	2006	DODGE	GRAND CARAVAN	07/09/2010	 
Wellington Motors	HAROLD	
ANDREWS	0109 ELLENVILLE CRES	RR #2 ARISS	ON	N0B1B0	5198363585	9054582626	2010	DODGE	RAM 1500	07/05/2010	 
Wellington Motors	COLLETTE	
DONNELLY	77 GUELPH ST	GUELPH	ON	N1H5Y9	5198213144	5199930301	2010	DODGE	JOURNEY	07/02/2010	 
Wellington Motors	EMMERICH	
REINHARDT	218 GLENFOREST RD	CAMBRIDGE	ON	N3C1V7		5196585777	2010	JEEP	WRANGLER	07/02/2010	 
Wellington Motors	NATHALIE	
MCNEILL	698 KITCHENER AVE	FERGUS	ON	N1M1N4	5198436769	5197875123	2013	DODGE	DART	10/30/2013	 
Wellington Motors	JAYNE	
WOOLCOTT	1068 WYATT RD RR1	MILLGROVE	ON	L0R1V0		9056899223	2009	JEEP	WRANGLER	06/28/2010	 
Wellington Motors	W-TERRY	
MUGFORD	7388 WELLINGTON RD. 34	GUELPH R3	ON	N1H6H9	5198032786		2010	DODGE	RAM 1500	06/24/2010	 
Wellington Motors	SHARON	
CLAYTON	98 NITH RIVER WAY	AYR	ON	N0B1E0	5193940089	5195893228	2010	JEEP	WRANGLER UNLIMITED	06/18/2010	 
Wellington Motors	RONALD	
KURTZ	9 LLOYD ST	BRANTFORD	ON	N3S3E3	5197536193		2014	RAM	1500	10/31/2013	 
Wellington Motors	ALISON	
HETT	88 GENERAL DR	KITCHENER	ON	N2K1R2	5195710507		2009	JEEP	PATRIOT	06/22/2010	 
Wellington Motors	BONNIE	
MULLEN	539 WILLOW RD UN 17	GUELPH	ON	N1H7G3	8379274	8371300	2009	CHRYSLER	SEBRING	06/18/2010	 
Wellington Motors		
CORPORATION OF THE COUNTY OF WELLIN	74 WOOLWICH ST.	GUELPH	ON	N1H3T9	5198237887	8372601	2010	DODGE	RAM 1500	06/01/2010	 
Wellington Motors	SHANE	
DESCHAMPS	52 COULAS CRT	WATERFOOD	ON	N0E1Y0	2268021301		2014	RAM	1500	03/17/2014	 
Wellington Motors	PAMELA	
ALMEIDA	76 DENLOW ST.	KITCHENER	ON	N2B3T7	5198938142		2008	CHRYSLER	TOWN & COUNTRY	06/21/2010	 
Wellington Motors	WESLEY	
MARTIN	631 BONAVISTA DR	WATERLOO	ON	N2K4B3	5197467649		2010	DODGE	RAM 1500	07/12/2010	 
Wellington Motors	LY	
NHAN	128 STEPHEN DRIVE	GUELPH	ON	N1H7R2	5198217407		2010	DODGE	GRAND CARAVAN	06/19/2010	 
Wellington Motors	ADEN	
MARTIN	12 OAK DR	ELMIRA	ON	N3B1X6	5196698682		2010	DODGE	JOURNEY	06/18/2010	 
Wellington Motors	TARA	
WHITE	315 IRONWOOD RD	GUELPH	ON	N1G3G2	5198246241	5195460659	2009	DODGE	JOURNEY	07/15/2010	 
Wellington Motors	OTTO	
BOONE	10TH LINE BOX C8	WOODSTOCK	ON	N4S7V7	5197406225		2010	DODGE	GRAND CARAVAN	07/14/2010	 
