"Dealership Name","First Name","Last Name",Address,"Apartment #",City,Province/State,"Postal Code/Zip","Home Phone","Work Phone",Year,Make,Model,"Purchase Date","Trade In Value"
"Bill Howich Chrysler (#174)",N/A,"A & A RECYCLING","1581-15TH. AVENUE",,"CAMPBELL RIVER",BC,"V9W 2Y6",,2502871708,2002,PONTIAC,SUNFIRE,"09/10/2013 12:00:00 AM"
"Bill Howich Chrysler (#174)",ANDREA,RUNGE,"#11-1535 DINGWALL ROAD",,"CAMPBELL RIVER",BC,"V9W 3S8",,,1997,PONTIAC,"GRAND AM","03/01/2011 12:00:00 AM"
"Bill Howich Chrysler (#174)",N/A,"CAMPBELL RIVER HYUNDAI","1700 COULTER ROAD",,"CAMPBELL RIVER",BC,"V9W 7MI",,2502861001,2009,KIA,RONDO,"03/09/2010 12:00:00 AM"
"Bill Howich Chrysler (#174)",N/A,"CAMPBELL RIVER HONDA","2773 ISLAND HIGHWAY",,"CAMPBELL RIVER",BC,"V9W 2H4",2502860641,2502860641,2008,HONDA,FIT,"08/27/2010 12:00:00 AM"
