"Dealership Name","First Name","Last Name",Address,"Apartment #",City,Province/State,"Postal Code/Zip","Home Phone","Work Phone",Year,Make,Model,"Purchase Date","Trade In Value"
"Bill Howich Chrysler (#174)",N/A,"0904442 B.C. LTD.","BOX 272, 91 MARYLAND DRIVE",,"CAMPBELL RIVER",BC,"V9W 1V7",2502032864,,2005,DODGE,CARAVAN,"10/29/2011 12:00:00 AM"
"Bill Howich Chrysler (#174)",RICHARD,ABALOS,"170 CORONATION CRESCENT",,"CAMPBELL RIVER",BC,"V9W 3T6",7784026417,2502867274,2013,DODGE,"GRAND CARAVAN","01/04/2014 12:00:00 AM"
"Bill Howich Chrysler (#174)",N/A,"ALBERNI CHRYSLER LTD.","2611 PORT ALBERNI HWY",,"PORT ALBERNI",BC,"V9Y 8P2",,2507235331,2005,FORD,RANGER,"12/22/2010 12:00:00 AM"
"Bill Howich Chrysler (#174)",ALBERT,STEVENSON,"#21-530 ROCKLAND ROAD",,"CAMPBELL RIVER",B.C.,"V9W 7L5",2509239892,2509234751,1997,DODGE,"GRAND CARAVAN","02/18/2011 12:00:00 AM"
