Dealership Name    FirstName	LastName    Address	Apartment	City	State	Zip	 HomePhone	BusinessPhone	 Year	Make  Model   Purchase Date Trade In Value
Bill Howich Chrysler (#174)			BOX 272, 91 MARYLAND DRIVE	CAMPBELL RIVER	BC	V9W 1V7	2502032864		2013	DODGE	GRAND CARAVAN	05/24/2013 12:00:00 AM	 
Bill Howich Chrysler (#174)	ALAN/SUSAN	REHAUME	572 HIGHLAND ROAD	COMOX	BC	V9M 3E9	2503393528		2009	JEEP	COMPASS	10/12/2010 12:00:00 AM	 
Bill Howich Chrysler (#174)	ALEXANDER	RATSON	406 37841 CLEVELAND AVE	SQUAMISH	BC	V8B 0S8	7782660337		2010	JEEP	WRANGLER	03/11/2011 12:00:00 AM	 
