"Dealership Name","First Name","Last Name",Address,"Apartment #",City,Province/State,"Postal Code/Zip","Home Phone","Work Phone",Year,Make,Model,"Purchase Date","Trade In Value"
"Bill Howich Chrysler (#174)",AMBER,SPRING,"513 CORMORANT ROAD",,"CAMPBELL RIVER",BC,"V9W 8A9",2509230138,2502877147,2009,DODGE,"GRAND CARAVAN","06/23/2011 12:00:00 AM"
"Bill Howich Chrysler (#174)",LINDA,BRELAND,"805 ELLCEE PL",,"CAMPBELL RIVER",BC,"V9W 7G3",2508973148,,2014,DODGE,"GRAND CARAVAN","03/27/2014 12:00:00 AM"
"Bill Howich Chrysler (#174)",JAMES,BUNZ,"451 ANDERTON ROAD",,Comox,BC,"V9M 1Y9",,,2012,DODGE,"GRAND CARAVAN","10/10/2012 12:00:00 AM"
"Bill Howich Chrysler (#174)",ROMANA,COOK,"BOX 469, 56 BROUGHTON STREET",,"ALERT BAY",BC,"V0N 1A0",2509742297,2509745556,2014,DODGE,"GRAND CARAVAN","01/17/2014 12:00:00 AM"
"Bill Howich Chrysler (#174)",DARRYL,WATT,"PO BOX 617, 471 NOOTKA DRIVE",,"GOLD RIVER",BC,"V0P 1G0",2502832369,,2012,DODGE,"GRAND CARAVAN","04/14/2012 12:00:00 AM"
"Bill Howich Chrysler (#174)","DAVE & VAL",MINATO,"2813 DENMAN STREET",,"CAMPBELL RIVER",BC,"V9H 1S9",2509239192,2502863636,2012,DODGE,"GRAND CARAVAN","05/01/2012 12:00:00 AM"
"Bill Howich Chrysler (#174)",DONALD,FINDLAY,"#79-951 HOMEWOOD ROAD",,"CAMPBELL RIVER",B.C.,"V9W 3N7",2502879711,,2012,DODGE,"GRAND CARAVAN","03/24/2012 12:00:00 AM"
"Bill Howich Chrysler (#174)","DONALD JOSEPH",GRAY,"2836 MUIR ROAD",,COURTENAY,BC,"V9N 6A1",2503310512,2503398211,2012,DODGE,"GRAND CARAVAN","07/20/2012 12:00:00 AM"
"Bill Howich Chrysler (#174)",DONALD,MCKINNEY,"BOX 145, 151  CEDAR STREET",,"ALERT BAY",BC,"V0N 1A0",2509742118,2509745591,2012,DODGE,"GRAND CARAVAN","11/09/2012 12:00:00 AM"
"Bill Howich Chrysler (#174)",Edward/denise,SHARKEY,"3607 BRIND AMOUR DRIVE",,"CAMPBELL RIVER",BC,"V9H 1N1",2509231875,0000000000,2005,DODGE,CARAVAN,"02/22/2010 12:00:00 AM"
"Bill Howich Chrysler (#174)",FLOYD,ANONSON,"#66-4714 MUIR ROAD",,COURTENAY,BC,"V9N 8Z6",2508973809,,2011,DODGE,"GRAND CARAVAN","03/28/2011 12:00:00 AM"
"Bill Howich Chrysler (#174)",GNANASAMBANDEPP,SRITHARAN,"661 MONARCH CRESCENT",,COURTENAY,BC,"V9N 8R7",2509871187,,2013,DODGE,"GRAND CARAVAN","05/16/2013 12:00:00 AM"
"Bill Howich Chrysler (#174)",JAIME,GUTHRIE,"2730 BRADFORD DRIVE",,"CAMPBELL RIVER",BC,"V9W 0A3",2509232083,2508502117,2012,DODGE,"GRAND CARAVAN","02/27/2012 12:00:00 AM"
"Bill Howich Chrysler (#174)",JASON,ANDERSON,"125 REEF CRESCENT",,"CAMPBELL RIVER",BC,"V9W 7H9",2509230451,,2007,DODGE,CARAVAN,"10/07/2011 12:00:00 AM"
"Bill Howich Chrysler (#174)",JOSEPH,JACKSON,"BOX 362, 2143 NORTHLAND",,"PORT MCNEILL",BC,"V0N 2R0",2509563808,250,2013,DODGE,"GRAND CARAVAN","06/05/2013 12:00:00 AM"
"Bill Howich Chrysler (#174)",JOSEPH,MacKENZIE,"BOX 160, #5-1792 GRENVILLE PL.",,"PORT McNEILL",BC,"V0N 2R0",2502303357,2509563301,2010,DODGE,"GRAND CARAVAN","08/04/2010 12:00:00 AM"
"Bill Howich Chrysler (#174)",JORY,DION,"4343 SNOWDEN FOREST RD",,"CAMPBELL RIVER",BC,"V9H 1P5",,2502879045,2014,DODGE,"GRAND CARAVAN","11/15/2013 12:00:00 AM"
"Bill Howich Chrysler (#174)",JULIE,ALLEN,"2756 APPLE DR",,"CAMPBELL RIVER","British Columbia","V9W 7K4",,,2010,DODGE,"GRAND CARAVAN","05/05/2010 12:00:00 AM"
"Bill Howich Chrysler (#174)",JOHN,HILTON,"621 UPLAND DRIVE",,"CAMPBELL RIVER",BC,"V9W 2A7",2509236472,,2013,DODGE,"GRAND CARAVAN","08/17/2013 12:00:00 AM"
"Bill Howich Chrysler (#174)",NORAH,NELSON,"450 QUATISHE ROAD",,"COAL HARBOUR",BC,"V0N 1K0",2509497291,,2011,DODGE,"GRAND CARAVAN","10/15/2011 12:00:00 AM"
"Bill Howich Chrysler (#174)",OMAR,LAGPAO,"713 BOWEN DR",,"CAMPBELL RIVER",BC,"V9H 1S1",2509234360,,2010,DODGE,"GRAND CARAVAN","12/09/2010 12:00:00 AM"
"Bill Howich Chrysler (#174)","(PHILIP) JORDAN",SMITH,"2701 BOYS ROAD",,DUNCAN,BC,"V9L 3X9",,2507461730,2012,DODGE,"GRAND CARAVAN","05/07/2012 12:00:00 AM"
"Bill Howich Chrysler (#174)",ROBERT,MUNRO,"22 McLEAN STREET",,"CAMPBELL RIVER",BC,"V9W 2L9",2502877042,,2006,DODGE,CARAVAN,"03/24/2010 12:00:00 AM"
"Bill Howich Chrysler (#174)",ANGELA,SANBORN,"1212A JOSHUA PL",,COURTENAY,BC,"V9N 8Y6",2503387263,,2014,DODGE,"GRAND CARAVAN","04/17/2014 12:00:00 AM"
"Bill Howich Chrysler (#174)",SHARON,"VAN UNEN","80 MCLEAN STREET",,"CAMPBELL RIVER",B.C.,"V9W 2L9",2502878727,,2013,DODGE,"GRAND CARAVAN","04/20/2013 12:00:00 AM"
"Bill Howich Chrysler (#174)",VICTOR,LINDOW,"153 HENRY ROAD",,"CAMPBELL RIVER",BC,"V9H 1A2",2509237748,,2010,DODGE,"GRAND CARAVAN","01/31/2011 12:00:00 AM"
"Bill Howich Chrysler (#174)",VICKI,HAMILTON,"3577 CARRIERE ROAD",,"PORT ALBERNI",BC,"V9Y 7M4",2507200969,,2010,DODGE,"GRAND CARAVAN","09/12/2013 12:00:00 AM"
"Bill Howich Chrysler (#174)",HOLLY,WILSON,"4691 CRUICKSHANK AVENUE",,COURTENAY,BC,"V9N 8T5",2508715119,,2014,DODGE,"GRAND CARAVAN","03/07/2014 12:00:00 AM"
"Bill Howich Chrysler (#174)",MEGAN,ZAMISKY,"1208 WEST RD. PO BOX 768",,"QUATHIASKI COVE",BC,"V0P 1N0",2502852883,,2014,DODGE,"GRAND CARAVAN","04/19/2014 12:00:00 AM"
"Bill Howich Chrysler (#174)",AMBER,SPRING,"513 CORMORANT ROAD",,"CAMPBELL RIVER",BC,"V9W 8A9",2509230138,2502877147,2009,DODGE,"GRAND CARAVAN","06/23/2011 12:00:00 AM"
"Bill Howich Chrysler (#174)",LINDA,BRELAND,"805 ELLCEE PL",,"CAMPBELL RIVER",BC,"V9W 7G3",2508973148,,2014,DODGE,"GRAND CARAVAN","03/27/2014 12:00:00 AM"
"Bill Howich Chrysler (#174)",JAMES,BUNZ,"451 ANDERTON ROAD",,Comox,BC,"V9M 1Y9",,,2012,DODGE,"GRAND CARAVAN","10/10/2012 12:00:00 AM"
"Bill Howich Chrysler (#174)",ROMANA,COOK,"BOX 469, 56 BROUGHTON STREET",,"ALERT BAY",BC,"V0N 1A0",2509742297,2509745556,2014,DODGE,"GRAND CARAVAN","01/17/2014 12:00:00 AM"
"Bill Howich Chrysler (#174)",DARRYL,WATT,"PO BOX 617, 471 NOOTKA DRIVE",,"GOLD RIVER",BC,"V0P 1G0",2502832369,,2012,DODGE,"GRAND CARAVAN","04/14/2012 12:00:00 AM"
"Bill Howich Chrysler (#174)","DAVE & VAL",MINATO,"2813 DENMAN STREET",,"CAMPBELL RIVER",BC,"V9H 1S9",2509239192,2502863636,2012,DODGE,"GRAND CARAVAN","05/01/2012 12:00:00 AM"
"Bill Howich Chrysler (#174)",DONALD,FINDLAY,"#79-951 HOMEWOOD ROAD",,"CAMPBELL RIVER",B.C.,"V9W 3N7",2502879711,,2012,DODGE,"GRAND CARAVAN","03/24/2012 12:00:00 AM"
"Bill Howich Chrysler (#174)","DONALD JOSEPH",GRAY,"2836 MUIR ROAD",,COURTENAY,BC,"V9N 6A1",2503310512,2503398211,2012,DODGE,"GRAND CARAVAN","07/20/2012 12:00:00 AM"
"Bill Howich Chrysler (#174)",DONALD,MCKINNEY,"BOX 145, 151  CEDAR STREET",,"ALERT BAY",BC,"V0N 1A0",2509742118,2509745591,2012,DODGE,"GRAND CARAVAN","11/09/2012 12:00:00 AM"
"Bill Howich Chrysler (#174)",Edward/denise,SHARKEY,"3607 BRIND AMOUR DRIVE",,"CAMPBELL RIVER",BC,"V9H 1N1",2509231875,0000000000,2005,DODGE,CARAVAN,"02/22/2010 12:00:00 AM"
"Bill Howich Chrysler (#174)",FLOYD,ANONSON,"#66-4714 MUIR ROAD",,COURTENAY,BC,"V9N 8Z6",2508973809,,2011,DODGE,"GRAND CARAVAN","03/28/2011 12:00:00 AM"
"Bill Howich Chrysler (#174)",GNANASAMBANDEPP,SRITHARAN,"661 MONARCH CRESCENT",,COURTENAY,BC,"V9N 8R7",2509871187,,2013,DODGE,"GRAND CARAVAN","05/16/2013 12:00:00 AM"
"Bill Howich Chrysler (#174)",JAIME,GUTHRIE,"2730 BRADFORD DRIVE",,"CAMPBELL RIVER",BC,"V9W 0A3",2509232083,2508502117,2012,DODGE,"GRAND CARAVAN","02/27/2012 12:00:00 AM"
"Bill Howich Chrysler (#174)",JASON,ANDERSON,"125 REEF CRESCENT",,"CAMPBELL RIVER",BC,"V9W 7H9",2509230451,,2007,DODGE,CARAVAN,"10/07/2011 12:00:00 AM"
"Bill Howich Chrysler (#174)",JOSEPH,JACKSON,"BOX 362, 2143 NORTHLAND",,"PORT MCNEILL",BC,"V0N 2R0",2509563808,250,2013,DODGE,"GRAND CARAVAN","06/05/2013 12:00:00 AM"
"Bill Howich Chrysler (#174)",JOSEPH,MacKENZIE,"BOX 160, #5-1792 GRENVILLE PL.",,"PORT McNEILL",BC,"V0N 2R0",2502303357,2509563301,2010,DODGE,"GRAND CARAVAN","08/04/2010 12:00:00 AM"
"Bill Howich Chrysler (#174)",JORY,DION,"4343 SNOWDEN FOREST RD",,"CAMPBELL RIVER",BC,"V9H 1P5",,2502879045,2014,DODGE,"GRAND CARAVAN","11/15/2013 12:00:00 AM"
"Bill Howich Chrysler (#174)",JULIE,ALLEN,"2756 APPLE DR",,"CAMPBELL RIVER","British Columbia","V9W 7K4",,,2010,DODGE,"GRAND CARAVAN","05/05/2010 12:00:00 AM"
"Bill Howich Chrysler (#174)",JOHN,HILTON,"621 UPLAND DRIVE",,"CAMPBELL RIVER",BC,"V9W 2A7",2509236472,,2013,DODGE,"GRAND CARAVAN","08/17/2013 12:00:00 AM"
"Bill Howich Chrysler (#174)",NORAH,NELSON,"450 QUATISHE ROAD",,"COAL HARBOUR",BC,"V0N 1K0",2509497291,,2011,DODGE,"GRAND CARAVAN","10/15/2011 12:00:00 AM"
"Bill Howich Chrysler (#174)",OMAR,LAGPAO,"713 BOWEN DR",,"CAMPBELL RIVER",BC,"V9H 1S1",2509234360,,2010,DODGE,"GRAND CARAVAN","12/09/2010 12:00:00 AM"
"Bill Howich Chrysler (#174)","(PHILIP) JORDAN",SMITH,"2701 BOYS ROAD",,DUNCAN,BC,"V9L 3X9",,2507461730,2012,DODGE,"GRAND CARAVAN","05/07/2012 12:00:00 AM"
"Bill Howich Chrysler (#174)",ROBERT,MUNRO,"22 McLEAN STREET",,"CAMPBELL RIVER",BC,"V9W 2L9",2502877042,,2006,DODGE,CARAVAN,"03/24/2010 12:00:00 AM"
"Bill Howich Chrysler (#174)",ANGELA,SANBORN,"1212A JOSHUA PL",,COURTENAY,BC,"V9N 8Y6",2503387263,,2014,DODGE,"GRAND CARAVAN","04/17/2014 12:00:00 AM"
"Bill Howich Chrysler (#174)",SHARON,"VAN UNEN","80 MCLEAN STREET",,"CAMPBELL RIVER",B.C.,"V9W 2L9",2502878727,,2013,DODGE,"GRAND CARAVAN","04/20/2013 12:00:00 AM"
"Bill Howich Chrysler (#174)",VICTOR,LINDOW,"153 HENRY ROAD",,"CAMPBELL RIVER",BC,"V9H 1A2",2509237748,,2010,DODGE,"GRAND CARAVAN","01/31/2011 12:00:00 AM"
"Bill Howich Chrysler (#174)",VICKI,HAMILTON,"3577 CARRIERE ROAD",,"PORT ALBERNI",BC,"V9Y 7M4",2507200969,,2010,DODGE,"GRAND CARAVAN","09/12/2013 12:00:00 AM"
"Bill Howich Chrysler (#174)",HOLLY,WILSON,"4691 CRUICKSHANK AVENUE",,COURTENAY,BC,"V9N 8T5",2508715119,,2014,DODGE,"GRAND CARAVAN","03/07/2014 12:00:00 AM"
"Bill Howich Chrysler (#174)",MEGAN,ZAMISKY,"1208 WEST RD. PO BOX 768",,"QUATHIASKI COVE",BC,"V0P 1N0",2502852883,,2014,DODGE,"GRAND CARAVAN","04/19/2014 12:00:00 AM"
